Division,WeightClassKg,Place,Name,Team,BodyweightKg,Best3SquatKg,Best3BenchKg,Best3DeadliftKg,TotalKg,Equipment,Event,Sex
Boys,51.71,1,Esteban Urquieta,Corpus Christi Tuloso-Midway,51.26,167.83,72.57,181.44,421.84,Single-ply,SBD,M
Boys,51.71,2,Chase Chapa,Port Lavaca Calhoun,50.98,120.2,86.18,136.08,342.46,Single-ply,SBD,M
Boys,51.71,3,Adam Carter,Gregory-Portland,50.35,95.25,47.63,97.52,240.4,Single-ply,SBD,M
Boys,51.71,4,Conrad Horst,Gregory-Portland,47.08,83.91,43.09,88.45,215.46,Single-ply,SBD,M
Boys,51.71,5,Estaban Corpus,Gregory-Portland,51.26,54.43,38.56,95.25,188.24,Single-ply,SBD,M
Boys,55.79,1,Jeremiah Zelaya,Victoria East,55.61,190.51,97.52,183.7,471.74,Single-ply,SBD,M
Boys,55.79,2,Chris Anderson,Ingleside,55.52,163.29,83.91,167.83,415.04,Single-ply,SBD,M
Boys,55.79,3,Juan Palomo,Rockport-Fulton,55.7,129.27,79.38,142.88,351.53,Single-ply,SBD,M
Boys,55.79,4,Robert Montemayor,Taft,54.88,117.93,74.84,127.01,319.78,Single-ply,SBD,M
Boys,55.79,5,Gabriel Herrera,Mathis,54.25,113.4,61.23,136.08,310.71,Single-ply,SBD,M
Boys,55.79,6,Isaiah Alaniz,Corpus Christi Tuloso-Midway,54.25,108.86,79.38,120.2,308.44,Single-ply,SBD,M
Boys,55.79,7,Deonte Duhart,Ingleside,52.8,117.93,56.7,120.2,294.84,Single-ply,SBD,M
Boys,55.79,DQ,Gabriel Collins,Orange Grove,53.34,,,,,Single-ply,SBD,M
Boys,55.79,DQ,Nocona Lindquist,Orange Grove,55.79,113.4,,,,Single-ply,SBD,M
Boys,55.79,DQ,Damian Martinez,Rockport-Fulton,54.34,113.4,,,,Single-ply,SBD,M
Boys,59.87,1,Lucas Lara,Mathis,58.51,145.15,104.33,183.7,433.18,Single-ply,SBD,M
Boys,59.87,2,Juan Vasquez,Corpus Christi Calallen,58.69,158.76,74.84,167.83,401.43,Single-ply,SBD,M
Boys,59.87,3,Jody Ruiz,Mathis,59.78,136.08,92.99,142.88,371.95,Single-ply,SBD,M
Boys,59.87,4,Jacob Bryce,George West,59.06,129.27,77.11,136.08,342.46,Single-ply,SBD,M
Boys,59.87,5,Aaron Coulter,Gregory-Portland,59.87,117.93,68.04,127.01,312.98,Single-ply,SBD,M
Boys,59.87,6,Elijah Ybarra,Mathis,59.87,90.72,68.04,142.88,301.64,Single-ply,SBD,M
Boys,59.87,7,Nathaniel Hill,Gregory-Portland,58.6,113.4,54.43,120.2,288.03,Single-ply,SBD,M
Boys,67.13,1,Jonathan Zelaya,Victoria East,66.59,258.55,142.88,235.87,637.3,Single-ply,SBD,M
Boys,67.13,2,Cristian Alvarado,Corpus Christi Calallen,67.13,201.85,99.79,204.12,505.76,Single-ply,SBD,M
Boys,67.13,3,Gabriel Quinones,Gregory-Portland,65.59,195.04,104.33,192.78,492.15,Single-ply,SBD,M
Boys,67.13,4,Adrian Fuentes,George West,66.68,158.76,104.33,199.58,462.66,Single-ply,SBD,M
Boys,67.13,5,Andrew Garcia,Mathis,67.13,181.44,120.2,158.76,460.4,Single-ply,SBD,M
Boys,67.13,6,Kade Baker,Gregory-Portland,65.59,149.69,102.06,154.22,405.97,Single-ply,SBD,M
Boys,67.13,7,Everado Pena,Ingleside,65.59,149.69,83.91,156.49,390.09,Single-ply,SBD,M
Boys,67.13,8,Edgar DeLeon,Rockport-Fulton,66.13,142.88,92.99,149.69,385.55,Single-ply,SBD,M
Boys,67.13,9,Ramiro DeLeon,Mathis,66.5,149.69,88.45,145.15,383.29,Single-ply,SBD,M
Boys,67.13,10,Brityn Brown,Port Lavaca Calhoun,64.86,142.88,77.11,154.22,374.21,Single-ply,SBD,M
Boys,67.13,11,Justin Goben,Taft,67.04,115.67,74.84,147.42,337.93,Single-ply,SBD,M
Boys,67.13,12,Austin Contreras,Corpus Christi Tuloso-Midway,62.41,117.93,65.77,151.95,335.66,Single-ply,SBD,M
Boys,67.13,13,Tyler Cowley,Corpus Christi Calallen,61.33,115.67,68.04,147.42,331.12,Single-ply,SBD,M
Boys,67.13,14,Skylar Sowers,Mathis,63.32,113.4,72.57,136.08,322.05,Single-ply,SBD,M
Boys,67.13,15,Christian Flores,Ingleside,60.42,120.2,74.84,124.74,319.78,Single-ply,SBD,M
Boys,67.13,16,Brian Rivera,Corpus Christi Tuloso-Midway,63.41,104.33,77.11,138.35,319.78,Single-ply,SBD,M
Boys,67.13,17,Kaleb Gutierrez,Taft,60.33,117.93,70.31,127.01,315.25,Single-ply,SBD,M
Boys,67.13,DQ,Gabriel Bueno,Odem,61.05,142.88,,,,Single-ply,SBD,M
Boys,67.13,DQ,Ryan Fransham,Orange Grove,65.59,,,,,Single-ply,SBD,M
Boys,67.13,DQ,Ulysses Botello,Corpus Christi Tuloso-Midway,62.14,156.49,,,,Single-ply,SBD,M
Boys,74.84,1,Jose Cumpean,Port Lavaca Calhoun,72.21,233.6,136.08,226.8,596.47,Single-ply,SBD,M
Boys,74.84,2,Joel Garza,Corpus Christi Calallen,73.21,229.06,124.74,217.72,571.53,Single-ply,SBD,M
Boys,74.84,3,Chris Ceballos,Rockport-Fulton,73.84,199.58,133.81,199.58,532.97,Single-ply,SBD,M
Boys,74.84,4,Jaysen Orozco,Corpus Christi Calallen,70.85,199.58,129.27,199.58,528.44,Single-ply,SBD,M
Boys,74.84,5,Seth Ruff,Ingleside,71.76,179.17,92.99,197.31,469.47,Single-ply,SBD,M
Boys,74.84,6,Joe Sauceda,Gregory-Portland,72.67,199.58,102.06,161.03,462.66,Single-ply,SBD,M
Boys,74.84,7,Marshal Tetens,Gregory-Portland,68.22,167.83,90.72,181.44,439.98,Single-ply,SBD,M
Boys,74.84,8,Chiso Nwampka,Corpus Christi Tuloso-Midway,71.21,158.76,99.79,167.83,426.38,Single-ply,SBD,M
Boys,74.84,9,Garrett Turner,Corpus Christi Tuloso-Midway,72.94,167.83,83.91,167.83,419.57,Single-ply,SBD,M
Boys,74.84,10,Joseph Dominguez,Taft,74.03,154.22,83.91,181.44,419.57,Single-ply,SBD,M
Boys,74.84,11,Matthew Mireles,Gregory-Portland,69.22,167.83,79.38,167.83,415.04,Single-ply,SBD,M
Boys,74.84,12,Cale Kruger,Gregory-Portland,72.67,158.76,86.18,156.49,401.43,Single-ply,SBD,M
Boys,74.84,13,Phillip Sullivan,Corpus Christi Tuloso-Midway,71.4,158.76,72.57,161.03,392.36,Single-ply,SBD,M
Boys,74.84,14,Zach Graves,Taft,67.86,133.81,88.45,161.03,383.29,Single-ply,SBD,M
Boys,74.84,DQ,Christian Cabrera,Odem,72.48,142.88,,,,Single-ply,SBD,M
Boys,74.84,DQ,Shayne Coquat,George West,68.31,,,,,Single-ply,SBD,M
Boys,82.1,1,Zack Pulido,Rockport-Fulton,81.1,215.46,120.2,192.78,528.44,Single-ply,SBD,M
Boys,82.1,2,Damian Hinojosa,Corpus Christi Calallen,80.56,185.97,131.54,195.04,512.56,Single-ply,SBD,M
Boys,82.1,3,Patrick Williams #1,Ingleside,76.11,201.85,111.13,192.78,505.76,Single-ply,SBD,M
Boys,82.1,4,Nate Duvall,George West,76.93,195.04,95.25,195.04,485.34,Single-ply,SBD,M
Boys,82.1,5,Jacob Warren,Ingleside,76.66,183.7,104.33,183.7,471.74,Single-ply,SBD,M
Boys,82.1,6,Luis Trujillo,Rockport-Fulton,81.19,174.63,102.06,183.7,460.4,Single-ply,SBD,M
Boys,82.1,7,Adrian Morin,Odem,80.29,170.1,102.06,158.76,430.91,Single-ply,SBD,M
Boys,89.81,1,Jaime Rios #1,Port Lavaca Calhoun,86.64,254.01,140.61,226.8,621.42,Single-ply,SBD,M
Boys,89.81,2,Eh Kloo Htoo,Port Lavaca Calhoun,85,251.74,138.35,224.53,614.62,Single-ply,SBD,M
Boys,89.81,3,Jonathan Oviedo,Victoria East,87.91,272.16,138.35,190.51,601.01,Single-ply,SBD,M
Boys,89.81,4,Tevin Moreno,Odem,88,226.8,129.27,204.12,560.19,Single-ply,SBD,M
Boys,89.81,5,Orlando Gonzalez,Odem,86.64,215.46,142.88,190.51,548.85,Single-ply,SBD,M
Boys,89.81,6,Marcus Cerda,Taft,88.63,179.17,120.2,215.46,514.83,Single-ply,SBD,M
Boys,89.81,7,Edelmiro Reyna,Gregory-Portland,88.18,197.31,102.06,188.24,487.61,Single-ply,SBD,M
Boys,89.81,8,Raphael Chacon,Victoria East,85.18,181.44,113.4,188.24,483.08,Single-ply,SBD,M
Boys,89.81,9,Patrick Bray,Gregory-Portland,85.37,195.04,99.79,183.7,478.54,Single-ply,SBD,M
Boys,89.81,10,Landon Garza,Odem,84.64,147.42,92.99,142.88,383.29,Single-ply,SBD,M
Boys,89.81,11,Christopher Bray,Gregory-Portland,85.82,142.88,83.91,131.54,358.34,Single-ply,SBD,M
Boys,89.81,12,Devin Bazan,Ingleside,84.1,79.38,70.31,97.52,247.21,Single-ply,SBD,M
Boys,89.81,DQ,Brody Raines,Gregory-Portland,89.63,190.51,99.79,,,Single-ply,SBD,M
Boys,89.81,DQ,Dante Vasquez,Corpus Christi Tuloso-Midway,88.99,238.14,,,,Single-ply,SBD,M
Boys,89.81,DQ,Alex Hernandez #4,Rockport-Fulton,89.81,,,,,Single-ply,SBD,M
Boys,99.79,1,Federico Ruiz Jr,Corpus Christi Calallen,98.7,283.5,165.56,283.5,732.55,Single-ply,SBD,M
Boys,99.79,2,Christian Oviedo,Victoria East,99.52,278.96,197.31,256.28,732.55,Single-ply,SBD,M
Boys,99.79,3,Sylias Montgomery,Port Lavaca Calhoun,96.8,244.94,129.27,251.74,625.96,Single-ply,SBD,M
Boys,99.79,4,Victor Mendez,Gregory-Portland,96.62,233.6,127.01,226.8,587.4,Single-ply,SBD,M
Boys,99.79,5,Raul Fernandez,Rockport-Fulton,96.43,226.8,131.54,222.26,580.6,Single-ply,SBD,M
Boys,99.79,6,Luke Michael,Rockport-Fulton,93.89,231.33,142.88,204.12,578.33,Single-ply,SBD,M
Boys,99.79,7,Tyler Gassaway,Gregory-Portland,92.99,210.92,136.08,217.72,564.72,Single-ply,SBD,M
Boys,99.79,8,Ross Delgado,Gregory-Portland,97.25,242.67,124.74,192.78,560.19,Single-ply,SBD,M
Boys,99.79,9,John Eguia,Corpus Christi Tuloso-Midway,97.89,226.8,133.81,190.51,551.11,Single-ply,SBD,M
Boys,99.79,10,Lorenzo Perez,Mathis,97.52,215.46,142.88,190.51,548.85,Single-ply,SBD,M
Boys,99.79,11,Ryan Rasburry,Mathis,91.9,204.12,113.4,197.31,514.83,Single-ply,SBD,M
Boys,99.79,12,Cj Cantu,Rockport-Fulton,94.71,197.31,108.86,195.04,501.22,Single-ply,SBD,M
Boys,99.79,13,Johnathan Gonzales,Taft,92.8,190.51,95.25,208.65,494.42,Single-ply,SBD,M
Boys,99.79,14,Toby Medina,Mathis,94.71,206.38,120.2,158.76,485.34,Single-ply,SBD,M
Boys,99.79,15,Alejandro Ortega,Corpus Christi Calallen,90.63,176.9,117.93,183.7,478.54,Single-ply,SBD,M
Boys,99.79,16,Troy Eubanks,Gregory-Portland,91.9,183.7,113.4,181.44,478.54,Single-ply,SBD,M
Boys,99.79,17,Richard Salazar,George West,95.16,181.44,102.06,181.44,464.93,Single-ply,SBD,M
Boys,99.79,18,Micael Esquivel,Taft,97.52,174.63,102.06,176.9,453.59,Single-ply,SBD,M
Boys,99.79,19,Noah Vera,Taft,90.63,165.56,83.91,183.7,433.18,Single-ply,SBD,M
Boys,99.79,20,Paul Trevino,Taft,91.26,167.83,95.25,163.29,426.38,Single-ply,SBD,M
Boys,99.79,21,Gage Gomez,Gregory-Portland,96.89,142.88,86.18,156.49,385.55,Single-ply,SBD,M
Boys,99.79,22,Phillip Conner,Gregory-Portland,96.25,127.01,88.45,151.95,367.41,Single-ply,SBD,M
Boys,99.79,DQ,Brandon Chavira,Odem,92.99,,,,,Single-ply,SBD,M
Boys,99.79,DQ,Scott Cantu,Odem,94.44,142.88,,,,Single-ply,SBD,M
Boys,109.77,1,Celestino Alvarez,Victoria East,102.42,285.76,147.42,222.26,655.44,Single-ply,SBD,M
Boys,109.77,2,Arron Vasquez,Victoria East,107.05,215.46,142.88,192.78,551.11,Single-ply,SBD,M
Boys,109.77,3,Marcus Avitia,Ingleside,105.69,215.46,145.15,183.7,544.31,Single-ply,SBD,M
Boys,109.77,4,Sebastain Opal,Gregory-Portland,102.24,190.51,129.27,208.65,528.44,Single-ply,SBD,M
Boys,109.77,5,Daniel Ware,Gregory-Portland,101.88,165.56,90.72,217.72,474,Single-ply,SBD,M
Boys,109.77,6,Anthony Rogers,Ingleside,106.59,190.51,127.01,156.49,474,Single-ply,SBD,M
Boys,109.77,7,Leo Soliz,Corpus Christi Tuloso-Midway,108.95,201.85,97.52,158.76,458.13,Single-ply,SBD,M
Boys,109.77,8,Seth Colsa,Corpus Christi Calallen,102.42,172.37,104.33,176.9,453.59,Single-ply,SBD,M
Boys,109.77,9,Micheal Poling,Gregory-Portland,102.42,163.29,106.59,181.44,451.32,Single-ply,SBD,M
Boys,109.77,10,Hijnio Guerrero,George West,105.05,161.03,102.06,145.15,408.23,Single-ply,SBD,M
Boys,109.77,11,Chance Eubanks,Gregory-Portland,107.05,142.88,92.99,136.08,371.95,Single-ply,SBD,M
Boys,109.77,DQ,Ethan Bernal,George West,107.86,249.48,,,,Single-ply,SBD,M
Boys,124.74,1,David Mendez,Taft,123.01,258.55,154.22,226.8,639.57,Single-ply,SBD,M
Boys,124.74,2,Luis Garcia #5,Odem,123.01,249.48,154.22,226.8,630.49,Single-ply,SBD,M
Boys,124.74,3,Juan LeBron,Port Lavaca Calhoun,123.38,233.6,147.42,226.8,607.81,Single-ply,SBD,M
Boys,124.74,4,Jorge Vazquez,Victoria East,119.11,260.82,127.01,215.46,603.28,Single-ply,SBD,M
Boys,124.74,5,Alexander Tijerina,Ingleside,116.94,235.87,131.54,206.38,573.79,Single-ply,SBD,M
Boys,124.74,6,Julian Beltran,Corpus Christi Calallen,110.86,206.38,120.2,210.92,537.51,Single-ply,SBD,M
Boys,124.74,7,Julian Gomez,Odem,109.86,199.58,124.74,188.24,512.56,Single-ply,SBD,M
Boys,124.74,8,Jaime Gonzales,Taft,111.04,176.9,120.2,188.24,485.34,Single-ply,SBD,M
Boys,124.74,9,Brandon Kilough,Rockport-Fulton,114.76,179.17,115.67,183.7,478.54,Single-ply,SBD,M
Boys,124.74,10,Demitri Castro,Corpus Christi Calallen,120.2,149.69,102.06,183.7,435.45,Single-ply,SBD,M
Boys,124.74,DQ,Nick Medina,Mathis,119.29,,,,,Single-ply,SBD,M
Boys,124.74,DQ,Thomas Chavez,Port Lavaca Calhoun,109.95,278.96,,,,Single-ply,SBD,M
Boys,124.74,DQ,Jeffrey Hobbs,Orange Grove,116.12,,,,,Single-ply,SBD,M
Boys,124.74+,1,Ray Martinez,Port Lavaca Calhoun,129,272.16,151.95,204.12,628.23,Single-ply,SBD,M
Boys,124.74+,2,Leo Madera,Port Lavaca Calhoun,145.69,256.28,151.95,217.72,625.96,Single-ply,SBD,M
Boys,124.74+,3,Isaiah Allen,Corpus Christi Tuloso-Midway,132.9,260.82,142.88,208.65,612.35,Single-ply,SBD,M
Boys,124.74+,4,Edward Carrera,Taft,136.26,224.53,154.22,204.12,582.87,Single-ply,SBD,M
Boys,124.74+,DQ,Will Atwood,Orange Grove,146.6,,,,,Single-ply,SBD,M
Boys,124.74+,DQ,Clayton Stephens,Orange Grove,130.63,226.8,,,,Single-ply,SBD,M
