Place,Name,BirthDate,BirthYear,Sex,Division,BodyweightKg,Squat1Kg,Squat2Kg,Squat3Kg,Best3SquatKg,Bench1Kg,Bench2Kg,Bench3Kg,Best3BenchKg,Deadlift1Kg,Deadlift2Kg,Deadlift3Kg,Best3DeadliftKg,TotalKg,Equipment,WeightClassKg,Event
1,Emilie Lewis,,1996,F,Open,59.5,65,73,-78,73,40,45,-50,45,112,120,-127,120,238,Raw,64,SBD
1,Danielle McKinley,,1995,F,Open,69.65,100,-110,-110,100,57,61,-63,61,110,117,123,123,284,Raw,72,SBD
1,Luke Elliott,,1986,M,Open,84.55,150,160,,160,100,105,110,110,180,190,-195,190,460,Raw,85,SBD
2,Seb Terauds,,1995,M,Open,81.6,145,155,-165,155,97,100,-105,100,175,190,200,200,455,Raw,85,SBD
1,James Britton,,2000,M,Open,93.45,178,190,-195,190,106,113,-116,113,187,200,210,210,513,Raw,94,SBD
