Place,Name,CyrillicName,Sex,BirthDate,Division,WeightClassKg,BodyweightKg,Squat1Kg,Squat2Kg,Squat3Kg,Best3SquatKg,Bench1Kg,Bench2Kg,Bench3Kg,Best3BenchKg,Deadlift1Kg,Deadlift2Kg,Deadlift3Kg,Best3DeadliftKg,TotalKg,Tested,Event,Equipment
1,Kirill Korotich,Кирилл Коротич,M,1997-08-15,Juniors 20-23,82.5,79.80,,,,,115,125,135,135.0,-210,220,230,230.0,365.0,No,BD,Raw
1,Kirill Korotich,Кирилл Коротич,M,1997-08-15,Open,82.5,79.80,,,,,115,125,135,135.0,-210,220,230,230.0,365.0,No,BD,Raw
1,Evgeniya Emtsova,Евгения Емцова,F,1995-09-09,Juniors 20-23,56,54.90,,,,,47.5,52.5,-55,52.5,,,,,52.5,No,B,Raw
1,Elnara Osmanova,Эльнара Османова,F,1993-03-13,Open,60,59.10,,,,,-45,-47.5,47.5,47.5,,,,,47.5,No,B,Raw
1,Yuriy Timokhin,Юрий Тимохин,M,1967-07-13,Masters 50-54,75,75.00,,,,,102.5,107.5,-112.5,107.5,,,,,107.5,No,B,Raw
1,Dmitriy Koval,Дмитрий Коваль,M,1992-02-04,Open,82.5,81.40,,,,,140,152.5,-160,152.5,,,,,152.5,No,B,Raw
2,Vitaliy Karpenko,Виталий Карпенко,M,1992-09-06,Open,82.5,82.30,,,,,120,-127.5,-127.5,120.0,,,,,120.0,No,B,Raw
1,Denis Stasyuk,Денис Стасюк,M,1993-05-30,Open,90,86.70,,,,,-160,160,-165,160.0,,,,,160,No,B,Raw
DQ,Denis Romanchev,Денис Романчев,M,1989-06-06,Open,90,87.70,,,,,-145,-150,-150,,,,,,,No,B,Raw
1,Vladislav Bakulin,Владислав Бакулин,M,1996-04-30,Juniors 20-23,100,98.60,,,,,155,-160,-162.5,155.0,,,,,155.0,No,B,Raw
1,Sergey Grabovetskiy,Сергей Грабовецкий,M,1989-09-09,Open,100,98.40,,,,,130,140,145,145.0,,,,,145.0,No,B,Raw
1,Evgeniy Kalemi,Евгений Калеми,M,2011-12-01,Youth,52,30.15,,,,,32.5,35,37.5,37.5,,,,,37.5,No,B,Raw
1,Mikhail Zoloilo,Михаил Золоило,M,2004-08-23,Teen,56,55.20,,,,,45,50,-55,50.0,,,,,50.0,No,B,Raw
1,Akhmed Isakov,Ахмед Исаков,M,1996-05-25,Juniors 20-23,75,73.60,,,,,120,127.5,130,130.0,,,,,130.0,No,B,Raw
1,Sergey Chushev,Сергей Чушев,M,2001-10-12,Teen,82.5,81.90,,,,,80,110,120,120.0,,,,,120.0,No,B,Raw
1,Kirill Korotich,Кирилл Коротич,M,1997-08-15,Juniors 20-23,82.5,79.80,,,,,115,125,135,135.0,,,,,135.0,No,B,Raw
1,Roman Anikushin,Роман Аникушин,M,1986-08-27,Open,82.5,81.60,,,,,190,197.5,202.5,202.5,,,,,202.5,No,B,Raw
1,Artyom Vinogradskiy,Артём Виноградский,M,1986-08-15,Open,90,83.50,,,,,155,-160,-160,155.0,,,,,155.0,No,B,Raw
1,Ilya Zakharenko,Илья Захаренко,M,1999-05-09,Teen,100,91.50,,,,,150,-160,160,160.0,,,,,160.0,No,B,Raw
1,Nikolay Balyuk,Николай Балюк,M,1997-12-04,Juniors 20-23,100,99.00,,,,,150,155,160,160.0,,,,,160.0,No,B,Raw
1,Artur Levitskiy,Артур Левицкий,M,1991-08-01,Open,100,93.10,,,,,115,-125,130,130.0,,,,,130.0,No,B,Raw
1,Leonid Sankov,Леонид Саньков,M,1970-03-21,Masters 45-49,100,94.20,,,,,145,155,157.5,157.5,,,,,157.5,No,B,Raw
1,Denis Pavlenko,Денис Павленко,M,1993-03-11,Open,110,101.00,,,,,230,-237.5,-237.5,230.0,,,,,230.0,No,B,Raw
2,Valentin Nechaev,Валентин Нечаев,M,1980-08-24,Open,110,107.40,,,,,190,200,-205,200.0,,,,,200.0,No,B,Raw
1,Ibragim Ilkhasan,Ібрагім Ільхасан,M,1989-06-21,Open,125,111.80,,,,,237.5,250,-267.5,250.0,,,,,250.0,No,B,Raw
DQ,Oleg Demidov,Олег Демидов,M,1981-11-21,Open,90,89.00,,,,,-210,-210,-210,,,,,,,No,B,Unlimited
1,Nikolay Lelekin,Николай Лелекин,M,1977-11-17,Open,125,116.60,,,,,310,-320,320,320.0,,,,,320.0,No,B,Unlimited
1,Yulia Medvedeva,Юлия Медведева,F,1979-07-08,Open,82.5,82.30,,,,,235,-245,-250,235.0,,,,,235.0,No,B,Unlimited
1,Lenur Kataev,Ленур Катаев,M,1994-10-11,Open,90,88.70,,,,,-300,-300,300,300.0,,,,,300.0,No,B,Unlimited
1,Artem Stasyuk,Артем Стасюк,M,1993-05-30,Open,100,98.00,,,,,310,-320,-320,310.0,,,,,310.0,No,B,Unlimited
1,Aleksandr Bochkarev,Александр Бочкарев,M,1977-06-28,Masters 40-44,100,94.65,,,,,-220,-220,220,220.0,,,,,220.0,No,B,Unlimited
1,Dmitriy Alekseev,Дмитрий Алексеев,M,1977-06-01,Open,140,125.80,,,,,315,325,330,330.0,,,,,330.0,No,B,Unlimited
1,Dmitriy Ermolaev,Дмитрий Ермолаев,M,1989-07-27,Open,100,96.70,,,,,-262.5,262.5,-285,262.5,,,,,262.5,No,B,Unlimited
1,Ulvie Mavlitova,Ульвие Мавлитова,F,1986-01-24,Open,56,53.20,,,,,,,,,115,-125,125,125.0,125.0,No,D,Raw
1,Natalya Andrusyak,Наталья Андрусяк,F,1996-03-31,Juniors 20-23,67.5,66.30,,,,,,,,,-125,130,135,135.0,135.0,No,D,Raw
1,Shafeek Saleem,,M,1994-03-09,Open,56,55.30,,,,,,,,,-120,120,130,130.0,130.0,No,D,Raw
1,Emil Keshfiev,Эмиль Кешфиев,M,1998-07-23,Juniors 20-23,67.5,65.50,,,,,,,,,-150,160,-170,160.0,160.0,No,D,Raw
1,Seit Seytablaev,Сеит Сейтаблаев,M,2000-03-28,Teen,75,74.10,,,,,,,,,-200,200,-220,200.0,200.0,No,D,Raw
1,Seit Seytablaev,Сеит Сейтаблаев,M,2000-03-28,Open,75,74.10,,,,,,,,,-200,200,-220,200.0,200.0,No,D,Raw
1,Sergey Zhuvaga,Сергей Жувага,M,1992-06-17,Open,90,87.70,,,,,,,,,250,262.5,-270,262.5,262.5,No,D,Raw
2,Mikhail Dikhtemirov,Михаил Дихтемиров,M,1993-11-15,Open,90,89.10,,,,,,,,,200,215,220,220.0,220.0,No,D,Raw
DQ,Selim Fakriev,Селим Факриев,M,1997-10-25,Open,75,73.60,,,,,,,,,-240,-240,-240,,,No,D,Raw
1,Evgeniy Suvorov,Евгений Суворов,M,1954-06-22,Masters 60-64,75,73.60,,,,,,,,,170,175,-185,175.0,175.0,No,D,Raw
1,Anton Melnikov,Антон Мельников,M,2003-06-18,Teen,82.5,78.00,,,,,,,,,-110,120,130,130.0,130.0,No,D,Raw
1,Kirill Korotich,Кирилл Коротич,M,1997-08-15,Juniors 20-23,82.5,79.80,,,,,,,,,-210,220,230,230.0,230.0,No,D,Raw
1,Sergey Zhuvaga,Сергей Жувага,M,1992-06-17,Open,90,87.70,,,,,,,,,250,262.5,-270,262.5,262.5,No,D,Raw
1,Eduard Annenkov,Эдуард Анненков,M,1988-05-03,Open,100,95.50,,,,,,,,,280,290,-300,290.0,290.0,No,D,Raw
1,Maksim Ilin,Максим Ильин,M,1988-05-06,Open,110,104.20,,,,,,,,,245,255,260,260.0,260.0,No,D,Raw
