Place,Name,BirthYear,Country,BodyweightKg,Best3SquatKg,Best3BenchKg,Best3DeadliftKg,TotalKg,WeightClassKg,Sex,CyrillicName,Event,Equipment,Division
1,Nadezhda Kraft,1979,Russia,43.9,102.5,50,115,267.5,44,F,,SBD,Single-ply,Open
2,Nadezhda Vaganova,1983,Russia,43.3,95,67.5,102.5,265,44,F,Надежда Ваганова,SBD,Single-ply,Open
3,Aleksandra Gorbunova,1985,Russia,43.9,92.5,50,102.5,245,44,F,Александра Горбунова,SBD,Single-ply,Open
1,Nadezhda Kiryanova,1959,Russia,48,135,77.5,150,362.5,48,F,Надежда Кирьянова,SBD,Single-ply,Open
2,Natalya Tulina,1959,Russia,47.8,140,72.5,120,332.5,48,F,Наталья Тулина,SBD,Single-ply,Open
1,Valentina Fefelova,1983,Russia,52,110,60,120,290,52,F,Валентина Фефелова,SBD,Single-ply,Open
2,Irina Makova,1983,Russia,51.15,105,50,115,270,52,F,Ирина Макова,SBD,Single-ply,Open
3,Natalya Miller,1984,Russia,52,100,45,90,235,52,F,Наталья Миллер,SBD,Single-ply,Open
DQ,Irina Ponomareva,1980,Russia,52,,,,,52,F,Ирина Пономарева,SBD,Single-ply,Open
1,Irina Kryukova,1979,Russia,53.6,170,100,152.5,422.5,56,F,Ирина Крюкова,SBD,Single-ply,Open
2,Valentina Filina,1977,Russia,55.9,135,70,120,325,56,F,Валентина Филина,SBD,Single-ply,Open
3,Olga Valieva,1978,Russia,54.2,125,80,115,320,56,F,Ольга Валиева,SBD,Single-ply,Open
4,Veronika Sokolova,1984,Russia,55.4,125,57.5,130,312.5,56,F,Вероника Соколова,SBD,Single-ply,Open
5,Natalya Derendyaeva,1979,Russia,53.75,125,62.5,112.5,300,56,F,Наталья Дерендяева,SBD,Single-ply,Open
1,Irina Poletaeva,1982,Russia,59,162.5,107.5,160,430,60,F,Ирина Полетаева,SBD,Single-ply,Open
2,Svetlana Butramenko,1981,Russia,59.9,142.5,80,137.5,360,60,F,Светлана Бутраменко,SBD,Single-ply,Open
3,Tatyana Gavrilova,1963,Russia,58.9,150,70,140,360,60,F,Татьяна Завьялова,SBD,Single-ply,Open
4,Natalya Yakovleva,1976,Russia,59.9,140,80,137.5,357.5,60,F,Наталья Яковлева,SBD,Single-ply,Open
5,Alena Ryzhkova,1979,Russia,59.3,135,75,135,345,60,F,Алена Рыжкова,SBD,Single-ply,Open
6,Svetlana Sorokina,1984,Russia,59.4,135,62.5,137.5,335,60,F,Светлана Сорокина,SBD,Single-ply,Open
7,Natalya Letunova,1983,Russia,59.1,100,45,100,245,60,F,Наталья Летунова,SBD,Single-ply,Open
1,Olga Kostyukova,1982,Russia,63.7,140,75,160,375,67.5,F,Ольга Костюкова,SBD,Single-ply,Open
2,Elena Yazeva,1980,Russia,65.6,145,80,140,365,67.5,F,Елена Язева,SBD,Single-ply,Open
3,Tatyana Kozhevnikova,1978,Russia,65.4,152.5,67.5,140,360,67.5,F,Татьяна Кожевникова,SBD,Single-ply,Open
4,Yana Tikhonova,1975,Russia,64.7,135,77.5,135,347.5,67.5,F,Яна Тихонова,SBD,Single-ply,Open
5,Viktoriya Limanskaya,1982,Russia,66.3,110,77.5,122.5,310,67.5,F,Виктория Лиманская,SBD,Single-ply,Open
1,Oksana Ageeva,1979,Russia,75,180,85,180,445,75,F,Оксана Агеева,SBD,Single-ply,Open
2,Anna Sheina,1978,Russia,72.9,150,77.5,157.5,385,75,F,Анна Шеина,SBD,Single-ply,Open
3,Anna Kosyak,1978,Russia,68.9,115,60,130,305,75,F,Анна Косяк,SBD,Single-ply,Open
1,Kristina Kravchenko,1981,Russia,88.5,180,95,150,425,90,F,Кристина Кравченко,SBD,Single-ply,Open
1,Galina Karpova,1968,Russia,102.6,260,150,225,635,90+,F,Галина Карпова,SBD,Single-ply,Open
2,Elena Kurbakova,1976,Russia,107,200,125,170,495,90+,F,Елена Курбакова,SBD,Single-ply,Open
1,Evgeniy Pozhilov,1985,Russia,51.7,162.5,80,157.5,400,52,M,Евгений Пожилов,SBD,Single-ply,Open
1,Kirill Naumenko,1982,Russia,55.3,190,115,180,485,56,M,Кирилл Науменко,SBD,Single-ply,Open
2,Viktor Funk,1983,Russia,55.85,200,105,170,475,56,M,Виктор Функ,SBD,Single-ply,Open
DQ,Evgeniy Ulanov,1980,Russia,56,175,107.5,,,56,M,Евгений Уланов,SBD,Single-ply,Open
1,Vladimir Sundikov,1984,Russia,60,220,130,210,560,60,M,Владимир Сундиков,SBD,Single-ply,Open
2,Evgeniy Ushakov,1982,Russia,59.8,217.5,110,222.5,550,60,M,Евгений Ушаков,SBD,Single-ply,Open
DQ,Konstantin Kolotov,1980,Russia,59.65,150,,,,60,M,Константин Колотов,SBD,Single-ply,Open
DQ,Maksim Beloborodov,1983,Russia,60,220,135,,,60,M,Максим Белобородов,SBD,Single-ply,Open
1,Artem Korotygin,1980,Russia,67.5,250,155,225,630,67.5,M,Артем Коротыгин,SBD,Single-ply,Open
2,Artem Shipilov,1980,Russia,67.3,235,147.5,230,612.5,67.5,M,Артем Шипилов,SBD,Single-ply,Open
3,Alexey Merkulov,1983,Russia,66.6,242.5,170,195,607.5,67.5,M,Алексей Меркулов,SBD,Single-ply,Open
4,Igor Bogachenko,1979,Russia,67.45,230,135,235,600,67.5,M,Игорь Богаченко,SBD,Single-ply,Open
5,Evgeniy Atroshkin,1984,Russia,66.8,240,125,230,595,67.5,M,Евгений Атрошкин,SBD,Single-ply,Open
6,Vyacheslav Krivopalov,1982,Russia,63.6,207.5,117.5,220,545,67.5,M,Вячеслав Кривопалов,SBD,Single-ply,Open
7,Sergey Arykov,1974,Russia,66.1,205,125,212.5,542.5,67.5,M,Сергей Арыков,SBD,Single-ply,Open
8,Aleksandr Eremeev,1982,Russia,67,200,100,230,530,67.5,M,Александр Еремеев,SBD,Single-ply,Open
9,Dmitriy Pechenkin,1982,Russia,65.5,192.5,112.5,175,480,67.5,M,Дмитрий Печенкин,SBD,Single-ply,Open
10,Vitaliy Konev,1981,Russia,61.9,180,100,175,455,67.5,M,Виталий Конев,SBD,Single-ply,Open
DQ,Aleksandr Balashov,1983,Russia,63.85,,,,,67.5,M,Александр Балашов,SBD,Single-ply,Open
1,Eduard Titov,1968,Russia,74.7,275,170,260,705,75,M,Эдуард Титов,SBD,Single-ply,Open
2,Andrey Ivankin,1977,Russia,74,235,157.5,257.5,650,75,M,Андрей Иванкин,SBD,Single-ply,Open
3,Aleksey Artemyev,1979,Russia,72.25,245,150,235,630,75,M,Алексей Артемьев,SBD,Single-ply,Open
4,Aleksandr Kiyan,1981,Russia,74.2,240,155,235,630,75,M,Александр Киян,SBD,Single-ply,Open
5,Aleksandr Ivanov,1964,Russia,74.85,230,147.5,245,622.5,75,M,Александр Иванов,SBD,Single-ply,Open
6,Aleksandr Plyusnin,1981,Russia,73.9,255,132.5,220,607.5,75,M,Александр Плюснин,SBD,Single-ply,Open
7,Vakhid Nabiev,1968,Russia,72.65,245,140,220,605,75,M,Вахид Набиев,SBD,Single-ply,Open
8,Evgeniy Popando,1980,Russia,72.9,220,145,237.5,602.5,75,M,Евгений Попандо,SBD,Single-ply,Open
9,Dmitriy Kotov,1976,Russia,74.9,230,145,212.5,587.5,75,M,Дмитрий Котов,SBD,Single-ply,Open
10,Maksim Korotygin,1981,Russia,74.85,200,160,220,580,75,M,Максим Коротыгин,SBD,Single-ply,Open
11,Vadim Doronin,1981,Russia,74.05,240,142.5,190,572.5,75,M,Вадим Доронин,SBD,Single-ply,Open
12,Denis Nikitin,1983,Russia,73.35,200,120,190,510,75,M,Денис Никитин,SBD,Single-ply,Open
13,Igor Novikov,1973,Russia,73.9,177.5,130,197.5,505,75,M,Игорь Новиков,SBD,Single-ply,Open
14,Sergey Zavyalov,1980,Russia,75,170,115,210,495,75,M,Сергей Завьялов,SBD,Single-ply,Open
DQ,Rostislav Brylev,1985,Russia,69.2,165,,,,75,M,Ростислав Брылев,SBD,Single-ply,Open
DQ,Andrey Rozhkov,1962,Russia,73.75,,,,,75,M,Андрей Рожков,SBD,Single-ply,Open
DQ,Nikolay Malyshev,1981,Russia,73.2,180,,,,75,M,Николай Малышев,SBD,Single-ply,Open
1,Vitaliy Redyuk,1973,Russia,82.5,290,185,280,755,82.5,M,Виталий Редюк,SBD,Single-ply,Open
2,Sergey Potapenko,1969,Russia,82.3,292.5,200,260,752.5,82.5,M,Сергей Потапенко,SBD,Single-ply,Open
3,Rustam Mesha,1974,Russia,81.5,265,177.5,275,717.5,82.5,M,Рустам Меша,SBD,Single-ply,Open
4,Maksim Unt,1981,Russia,82,280,150,270,700,82.5,M,Максим Унт,SBD,Single-ply,Open
5,Ivan Muravyev,1974,Russia,82.4,265,170,265,700,82.5,M,Иван Муравьев,SBD,Single-ply,Open
6,Aleksey Boytov,1981,Russia,81.6,265,155,275,695,82.5,M,Алексей Бойтов,SBD,Single-ply,Open
7,Sergey Goncharov,1978,Russia,82.5,270,180,245,695,82.5,M,Сергей Гончаров,SBD,Single-ply,Open
8,Viktor Nadolskikh,1980,Russia,81.8,260,165,240,665,82.5,M,Виктор Надольских,SBD,Single-ply,Open
9,Dmitriy Demchenko,1982,Russia,82.5,230,175,232.5,637.5,82.5,M,Дмитрий Демченко,SBD,Single-ply,Open
10,Aleksandr Stepanenko,1971,Russia,79.6,235,145,230,610,82.5,M,Александр Степаненко,SBD,Single-ply,Open
11,Aleksey Abramovskikh,1982,Russia,80.5,240,125,230,595,82.5,M,Алексей Абрамовских,SBD,Single-ply,Open
12,Roman Denisenko,1981,Russia,79.5,220,142.5,225,587.5,82.5,M,Роман Денисенко,SBD,Single-ply,Open
13,Viktor Solonar,1985,Russia,81.9,220,150,200,570,82.5,M,Виктор Солонарь,SBD,Single-ply,Open
14,Aleksandr Gatranov,1978,Russia,79.1,210,120,210,540,82.5,M,Александр Гатранов,SBD,Single-ply,Open
1,Igor Alikberov,1972,Russia,89.5,310,212.5,320,842.5,90,M,Игорь Аликберов,SBD,Single-ply,Open
2,Mikhail Epifanov,1967,Russia,88.6,315,190,295,800,90,M,Михаил Епифанов,SBD,Single-ply,Open
3,Valeriy Nikishin,1965,Russia,89.1,285,210,300,795,90,M,Валерий Никишин,SBD,Single-ply,Open
4,Oleg Filippovich,1970,Russia,87.1,275,187.5,270,732.5,90,M,Олег Филиппович,SBD,Single-ply,Open
5,Dmitriy Ivankov,1971,Russia,87.5,260,180,290,730,90,M,Дмитрий Иванков,SBD,Single-ply,Open
6,Maksim Shetinin,1969,Russia,88.7,260,227.5,232.5,720,90,M,Максим Шетинин,SBD,Single-ply,Open
7,Arkadiy Elizarov,1964,Russia,90,280,187.5,252.5,720,90,M,Аркадий Елизаров,SBD,Single-ply,Open
8,Ruslan Perevalov,1976,Russia,84.75,265,200,250,715,90,M,Руслан Перевалов,SBD,Single-ply,Open
9,Viktor Afanasyev,1960,Russia,89,275,170,265,710,90,M,Виктор Афанасьев,SBD,Single-ply,Open
10,Sergey Nikolaev,1971,Russia,89.2,260,180,270,710,90,M,Сергей Николаев,SBD,Single-ply,Open
11,Magomed Masaev,1978,Russia,88,280,185,230,695,90,M,Магомед Масаев,SBD,Single-ply,Open
12,Timur Niezov,1979,Russia,88.4,285,165,240,690,90,M,Тимур Ниезов,SBD,Single-ply,Open
13,Sergey Murylev,1977,Russia,88.4,240,140,260,640,90,M,Сергей Мурылев,SBD,Single-ply,Open
14,Aleksandr Musokhranov,1980,Russia,87,240,145,210,595,90,M,Александр Мусохранов,SBD,Single-ply,Open
15,Eduard Shilko,1974,Russia,89.1,205,155,220,580,90,M,Эдуард Шилько,SBD,Single-ply,Open
16,Aleksandr Apukhtin,1973,Russia,85.4,240,117.5,220,577.5,90,M,Александр Апухтин,SBD,Single-ply,Open
17,Vladimir Voronov,1972,Russia,86,200,150,225,575,90,M,Владимир Воронов,SBD,Single-ply,Open
18,Sergey Shaternik,1982,Russia,85.5,225,135,210,570,90,M,Сергей Шатерник,SBD,Single-ply,Open
19,Dmitriy Leonov,1977,Russia,89,215,135,220,570,90,M,Дмитрий Леонов,SBD,Single-ply,Open
20,Aleksandr Yakushev,1977,Russia,90,200,140,230,570,90,M,Александр Якушев,SBD,Single-ply,Open
21,Aleksandr Chevokin,1984,Russia,86.3,180,145,210,535,90,M,Александр Чевокин,SBD,Single-ply,Open
22,Dmitriy Zhdanovich,1980,Russia,87.8,200,145,190,535,90,M,Дмитрий Жданович,SBD,Single-ply,Open
23,Yuriy Bobyrev,1982,Russia,90,185,145,195,525,90,M,Юрий Бобырев,SBD,Single-ply,Open
DQ,Valeriy Volodko,1964,Russia,86.4,260,192.5,,,90,M,Валерий Володько,SBD,Single-ply,Open
DQ,Oleg Koshkarev,1974,Russia,89,280,160,,,90,M,Олег Кошкарев,SBD,Single-ply,Open
DQ,Evgeniy Litvinov,1978,Russia,87.8,245,175,,,90,M,Евгений Литвинов,SBD,Single-ply,Open
DQ,Vitaliy Samorkin,1976,Russia,87.3,,,,,90,M,Виталий Саморкин,SBD,Single-ply,Open
1,Denis Bukhtoyarov,1980,Russia,96.3,340,190,290,820,100,M,Денис Бухтояров,SBD,Single-ply,Open
2,Lev Levchenko,1981,Russia,98.9,305,180,315,800,100,M,Лев Левченко,SBD,Single-ply,Open
3,Evgeniy Kurtsev,1971,Russia,100,305,215,280,800,100,M,Евгений Курцев,SBD,Single-ply,Open
4,Sergey Polnikov,1971,Russia,98.9,300,190,280,770,100,M,Сергей Польников,SBD,Single-ply,Open
5,Dmitriy Spirin,1980,Russia,99.7,290,177.5,300,767.5,100,M,Дмитрий Спирин,SBD,Single-ply,Open
6,Vasiliy Omelchenko,1973,Russia,97.85,280,190,280,750,100,M,Василий Омельченко,SBD,Single-ply,Open
7,Marat Chirkov,1984,Russia,99.2,290,170,290,750,100,M,Марат Чирков,SBD,Single-ply,Open
8,Valeriy Metelev,1965,Russia,99.1,240,200,280,720,100,M,Валерий Метелев,SBD,Single-ply,Open
9,Evgeniy Karev,1971,Russia,98.6,280,172.5,262.5,715,100,M,Евгений Карев,SBD,Single-ply,Open
10,Konstantin Aleksenko,1974,Russia,98.95,245,180,270,695,100,M,Константин Алексенко,SBD,Single-ply,Open
11,Grigoriy Borisov,1978,Russia,92.85,240,165,245,650,100,M,Григорий Борисов,SBD,Single-ply,Open
12,Dmitriy Kudryavtsev,1974,Russia,95.3,220,160,250,630,100,M,Дмитрий Кудрявцев,SBD,Single-ply,Open
13,Oleg Kononenko,1967,Russia,98.8,220,190,210,620,100,M,Олег Кононенко,SBD,Single-ply,Open
14,Sergey Shipitsyn,1966,Russia,100,225,137.5,232.5,595,100,M,Сергей Шипицын,SBD,Single-ply,Open
DQ,Aleksey Bessonov,1973,Russia,96.75,,,,,100,M,Алексей Бессонов,SBD,Single-ply,Open
DQ,Roman Gavrusik,1982,Russia,98.4,275,190,,,100,M,Роман Гаврусик,SBD,Single-ply,Open
DQ,Maksim Novoselov,1979,Russia,100,270,190,,,100,M,Максим Новоселов,SBD,Single-ply,Open
1,Evgeniy Goncharuk,1971,Russia,108,300,210,315,825,110,M,Евгений Гончарук,SBD,Single-ply,Open
2,Oleg Bokarev,1965,Russia,104.35,320,200,290,810,110,M,Олег Бокарев,SBD,Single-ply,Open
3,Pavel Kulichev,1977,Russia,105,305,185,310,800,110,M,Павел Куличев,SBD,Single-ply,Open
4,Roman Burich,1975,Russia,108.8,305,190,290,785,110,M,Роман Бурич,SBD,Single-ply,Open
5,Sergey Sosnovskiy,1983,Russia,103.1,305,170,275,750,110,M,Сергей Сосновский,SBD,Single-ply,Open
6,Vladimir Pustovalov,1970,Russia,107.4,250,180,260,690,110,M,Владимир Пустовалов,SBD,Single-ply,Open
7,Valeriy Pavlovskiy,1973,Russia,100.3,240,155,230,625,110,M,Валерий Павловский,SBD,Single-ply,Open
8,Evgeniy Litvinenko,1982,Russia,104,220,155,245,620,110,M,Евгений Литвиненко,SBD,Single-ply,Open
DQ,Yuriy Savenko,1981,Russia,108.7,287.5,200,,,110,M,Юрий Савенко,SBD,Single-ply,Open
1,Arunas Ratskevichyus,1971,Russia,120.75,305,215,265,785,125,M,Арунас Рацкевичюс,SBD,Single-ply,Open
2,Dmitriy Rakhimov,1980,Russia,112.5,260,155,250,665,125,M,Дмитрий Рахимов,SBD,Single-ply,Open
DQ,Konstantin Suvorov,1979,Russia,113.4,220,,,,125,M,Константин Суворов,SBD,Single-ply,Open
1,Vitaliy Mikheev,1977,Russia,126.05,330,242.5,285,857.5,125+,M,Виталий Михеев,SBD,Single-ply,Open
