Division,WeightClassKg,Place,Name,Team,BodyweightKg,Best3SquatKg,Best3BenchKg,Best3DeadliftKg,TotalKg,Equipment,Event,Sex
Boys,51.71,1,Robert Norega,Manor,51.71,136.08,68.04,147.42,351.53,Single-ply,SBD,M
Boys,51.71,2,Jeovanny Navarro,Rockdale,51.35,90.72,63.5,117.93,272.16,Single-ply,SBD,M
Boys,51.71,3,Nathan Jeter,Rockdale,49.71,86.18,56.7,113.4,256.28,Single-ply,SBD,M
Boys,55.79,1,Rushi Patel,College Station,54.7,167.83,88.45,165.56,421.84,Single-ply,SBD,M
Boys,55.79,2,Isaac Trejo,San Marcos,55.79,120.2,79.38,142.88,342.46,Single-ply,SBD,M
Boys,55.79,3,Jeremiah Thompson,Manor,54.25,129.27,74.84,136.08,340.19,Single-ply,SBD,M
Boys,55.79,4,Kellen Hapes,College Station,55.25,113.4,68.04,90.72,272.16,Single-ply,SBD,M
Boys,59.87,1,Shawnpail Fields,Taylor,59.33,199.58,92.99,219.99,512.56,Single-ply,SBD,M
Boys,59.87,2,Therrance Soto,San Marcos,59.78,161.03,90.72,204.12,455.86,Single-ply,SBD,M
Boys,59.87,3,Luke Merchant,San Marcos,59.87,149.69,92.99,161.03,403.7,Single-ply,SBD,M
Boys,59.87,4,Isaac Edwards,Manor,57.61,124.74,70.31,156.49,351.53,Single-ply,SBD,M
Boys,59.87,5,Juan Araujo,Taylor,59.33,127.01,56.7,142.88,326.59,Single-ply,SBD,M
Boys,59.87,6,Carter Callahan,Burton,57.97,129.27,58.97,131.54,319.78,Single-ply,SBD,M
Boys,59.87,7,Omar Deloera,Pflugerville,58.69,102.06,58.97,136.08,297.1,Single-ply,SBD,M
Boys,67.13,1,Isaiah Mesa,Taylor,66.5,281.23,149.69,249.48,680.39,Single-ply,SBD,M
Boys,67.13,2,Happy Jones,Manor,67.13,206.38,97.52,188.24,492.15,Single-ply,SBD,M
Boys,67.13,3,Daniel Santana,San Marcos,63.78,158.76,86.18,167.83,412.77,Single-ply,SBD,M
Boys,67.13,4,Dylan Diestel,Rockdale,61.87,147.42,83.91,151.95,383.29,Single-ply,SBD,M
Boys,67.13,5,Bar Htoo,Manor,64.32,133.81,70.31,136.08,340.19,Single-ply,SBD,M
Boys,67.13,6,Oscar Garza,Elgin,66.13,131.54,68.04,127.01,326.59,Single-ply,SBD,M
Boys,67.13,7,Michael Pettibon,College Station,60.15,113.4,61.23,136.08,310.71,Single-ply,SBD,M
Boys,67.13,8,Gavin Kirkland,Burton,60.78,104.33,58.97,120.2,283.5,Single-ply,SBD,M
Boys,67.13,9,Lucas Smith,Elgin,65.05,90.72,72.57,117.93,281.23,Single-ply,SBD,M
Boys,74.84,1,Hugh Shelton,Taylor,74.39,213.19,108.86,240.4,562.45,Single-ply,SBD,M
Boys,74.84,2,Mike Joseph,Elgin,74.84,204.12,113.4,204.12,521.63,Single-ply,SBD,M
Boys,74.84,3,Matthew Rieff,Pflugerville,69.04,185.97,122.47,188.24,496.68,Single-ply,SBD,M
Boys,74.84,4,Christian Caballero,San Marcos,74.48,174.63,111.13,208.65,494.42,Single-ply,SBD,M
Boys,74.84,5,Christian Alvarez #1,San Marcos,71.67,172.37,108.86,195.04,476.27,Single-ply,SBD,M
Boys,74.84,6,Jake Chandler,Burton,73.21,167.83,106.59,188.24,462.66,Single-ply,SBD,M
Boys,74.84,7,Easy Charles,Manor,71.76,174.63,102.06,183.7,460.4,Single-ply,SBD,M
Boys,74.84,8,Travion Walker,Manor,74.3,158.76,90.72,183.7,433.18,Single-ply,SBD,M
Boys,74.84,9,Saul Canchola,College Station,71.4,147.42,79.38,165.56,392.36,Single-ply,SBD,M
Boys,74.84,10,Carlos Hernandez #7,San Marcos,73.84,149.69,102.06,129.27,381.02,Single-ply,SBD,M
Boys,74.84,11,Levonte Benford,Manor,67.86,149.69,83.91,142.88,376.48,Single-ply,SBD,M
Boys,74.84,12,Jabrion White,Manor,69.31,131.54,72.57,147.42,351.53,Single-ply,SBD,M
Boys,74.84,13,Tyler Razo,Taylor,71.3,113.4,58.97,163.29,335.66,Single-ply,SBD,M
Boys,74.84,14,Angel Aguiliar,Taylor,70.76,113.4,61.23,149.69,324.32,Single-ply,SBD,M
Boys,74.84,15,Aaron Vega,Elgin,69.49,113.4,97.52,106.59,317.51,Single-ply,SBD,M
Boys,74.84,16,Alex Hires,Pflugerville,73.57,111.13,74.84,111.13,297.1,Single-ply,SBD,M
Boys,74.84,DQ,Christian Yannis,Taylor,74.39,,,,,Single-ply,SBD,M
Boys,82.1,1,Isreal Romero,San Marcos,81.47,170.1,124.74,201.85,496.68,Single-ply,SBD,M
Boys,82.1,2,Jaden Moreno,Pflugerville Connally,80.65,188.24,120.2,181.44,489.88,Single-ply,SBD,M
Boys,82.1,3,Matthew Atkinson,Taylor,78.29,183.7,79.38,185.97,449.06,Single-ply,SBD,M
Boys,82.1,4,Marshall Oman,Taylor,79.11,151.95,79.38,147.42,378.75,Single-ply,SBD,M
Boys,82.1,5,Rafael Gutierrez,Pflugerville Connally,81.47,149.69,68.04,156.49,374.21,Single-ply,SBD,M
Boys,82.1,6,Chris Remaley,Rockdale,78.65,140.61,81.65,140.61,362.87,Single-ply,SBD,M
Boys,89.81,1,Courtney Lee #1,Manor,83.55,204.12,113.4,233.6,551.11,Single-ply,SBD,M
Boys,89.81,2,Amir Wiley,Pflugerville,86.73,204.12,129.27,174.63,508.02,Single-ply,SBD,M
Boys,89.81,3,Takai Madgett,San Marcos,87.72,190.51,108.86,199.58,498.95,Single-ply,SBD,M
Boys,89.81,4,Sean Dudo,College Station,88.45,174.63,115.67,174.63,464.93,Single-ply,SBD,M
Boys,89.81,5,Cory Alcala,Pflugerville Connally,88.54,172.37,113.4,165.56,451.32,Single-ply,SBD,M
Boys,89.81,6,Kolbe Cashion,College Station,84.01,158.76,92.99,170.1,421.84,Single-ply,SBD,M
Boys,89.81,7,Coreyon Chester,Manor,82.28,142.88,113.4,161.03,417.3,Single-ply,SBD,M
Boys,89.81,8,Luke Miles,College Station,88.27,158.76,97.52,154.22,410.5,Single-ply,SBD,M
Boys,89.81,9,Matt Hill,Manor,83.55,142.88,92.99,167.83,403.7,Single-ply,SBD,M
Boys,89.81,10,Ridic Meraz,Rockdale,87.91,158.76,83.91,156.49,399.16,Single-ply,SBD,M
Boys,89.81,11,Johnny Rodriguez,Taylor,87.54,124.74,83.91,170.1,378.75,Single-ply,SBD,M
Boys,89.81,12,Dom Colon,Pflugerville Connally,84.37,140.61,79.38,145.15,365.14,Single-ply,SBD,M
Boys,89.81,13,Dallin Weeks,Pflugerville,88.27,115.67,88.45,129.27,333.39,Single-ply,SBD,M
Boys,89.81,DQ,James McDonald,Manor,82.83,,,,,Single-ply,SBD,M
Boys,89.81,DQ,Ben Zapalac,Burton,89.81,167.83,,,,Single-ply,SBD,M
Boys,99.79,1,Tajha Brooks,Manor,94.89,215.46,115.67,226.8,557.92,Single-ply,SBD,M
Boys,99.79,2,Vincent Ume-Ezeoke,Pflugerville,98.16,206.38,122.47,206.38,535.24,Single-ply,SBD,M
Boys,99.79,3,Harley Franklin,Elgin,96.52,190.51,97.52,238.14,526.17,Single-ply,SBD,M
Boys,99.79,4,Jerome Wreh,Elgin,97.79,226.8,115.67,183.7,526.17,Single-ply,SBD,M
Boys,99.79,5,Juan Castillo,Elgin,96.43,208.65,104.33,204.12,517.1,Single-ply,SBD,M
Boys,99.79,6,Froilan Gaspar,Elgin,93.8,199.58,108.86,201.85,510.29,Single-ply,SBD,M
Boys,99.79,7,Jerron Lewis,Pflugerville Connally,96.52,181.44,122.47,181.44,485.34,Single-ply,SBD,M
Boys,99.79,8,Cameron Riggins,Burton,92.62,181.44,97.52,183.7,462.66,Single-ply,SBD,M
Boys,99.79,9,Jaylen Davis,College Station,89.99,163.29,86.18,181.44,430.91,Single-ply,SBD,M
Boys,99.79,10,Wyatt Pounders,Rockdale,95.25,161.03,102.06,158.76,421.84,Single-ply,SBD,M
Boys,99.79,11,Max Fisher,Elgin,90.17,124.74,92.99,147.42,365.14,Single-ply,SBD,M
Boys,99.79,12,Will Pounders,Rockdale,97.16,127.01,77.11,147.42,351.53,Single-ply,SBD,M
Boys,99.79,13,Emmanuel Pina,Taylor,95.62,115.67,83.91,108.86,308.44,Single-ply,SBD,M
Boys,109.77,1,Olisa Uzuegbunam,Manor,105.41,272.16,158.76,226.8,657.71,Single-ply,SBD,M
Boys,109.77,2,Ochaun Mathis,Manor,102.33,215.46,133.81,249.48,598.74,Single-ply,SBD,M
Boys,109.77,3,Princely Umanmielen,Manor,107.23,183.7,97.52,226.8,508.02,Single-ply,SBD,M
Boys,109.77,4,Isiah Perkins,Elgin,106.87,183.7,102.06,215.46,501.22,Single-ply,SBD,M
Boys,109.77,5,John Navejas,Elgin,109.68,192.78,113.4,195.04,501.22,Single-ply,SBD,M
Boys,109.77,6,Brandon Rangel,San Marcos,103.96,188.24,111.13,197.31,496.68,Single-ply,SBD,M
Boys,109.77,7,John McKee,Pflugerville Connally,105.14,197.31,111.13,181.44,489.88,Single-ply,SBD,M
Boys,109.77,8,John Sanchez #5,San Marcos,108.95,183.7,111.13,185.97,480.81,Single-ply,SBD,M
Boys,109.77,9,Ty Thornton,Manor,102.78,136.08,92.99,142.88,371.95,Single-ply,SBD,M
Boys,124.74,1,Kallen Maxwell,Pflugerville Connally,123.83,206.38,145.15,188.24,539.77,Single-ply,SBD,M
Boys,124.74,2,Wyatt Chambers,Rockdale,114.49,204.12,149.69,181.44,535.24,Single-ply,SBD,M
Boys,124.74,3,Jimmy Garza,Elgin,117.21,210.92,113.4,192.78,517.1,Single-ply,SBD,M
Boys,124.74,4,Trace Lopez,Taylor,115.39,213.19,120.2,176.9,510.29,Single-ply,SBD,M
Boys,124.74,5,Oswany Diaz,Pflugerville Connally,120.38,176.9,111.13,183.7,471.74,Single-ply,SBD,M
Boys,124.74,6,Jo'Vaughn Holmes,College Station,121.2,204.12,111.13,136.08,451.32,Single-ply,SBD,M
Boys,124.74+,1,Jordan Hood,Elgin,131.45,215.46,156.49,226.8,598.74,Single-ply,SBD,M
Boys,124.74+,2,Travis Quast,College Station,132.63,167.83,99.79,124.74,392.36,Single-ply,SBD,M
Boys,,NS,Isaac Almaraz,College Station,,,,,,Single-ply,SBD,M
Boys,,NS,Preston Ruess,Pflugerville,,,,,,Single-ply,SBD,M
Boys,,NS,Alex Ellison,Rockdale,,,,,,Single-ply,SBD,M
Boys,,NS,Bruce Mayfield,Rockdale,,,,,,Single-ply,SBD,M
Boys,,NS,Jesus Oranday,Taylor,,,,,,Single-ply,SBD,M
Boys,,NS,Noah Pachicano,Taylor,,,,,,Single-ply,SBD,M
Boys,,NS,Stephen Leal,Taylor,,,,,,Single-ply,SBD,M
