Place,WeightClassKg,Tested,Event,Equipment,Division,Sex,Name,CyrillicName,Country,BirthDate,BodyweightKg,Squat1Kg,Squat2Kg,Squat3Kg,Squat4Kg,Best3SquatKg,Bench1Kg,Bench2Kg,Bench3Kg,Bench4Kg,Best3BenchKg,Deadlift1Kg,Deadlift2Kg,Deadlift3Kg,Deadlift4Kg,Best3DeadliftKg,TotalKg
1,110,Yes,SBD,Wraps,Amateur Open,M,Gansukh Batmagnay,Гансух Батмагнай,Mongolia,1988-06-19,109.2,310,-325,330,,330,205,215,220,,220,250,270,280,,280,830
1,125,Yes,SBD,Wraps,Amateur Open,M,Ugtakhbayar Khurelchuluun,Угтахбаяр Хурэлчулуун,Mongolia,1989-04-04,123.5,-350,350,-375,,350,-212.5,215,225,,225,270,-290,-290,,270,845
1,52,Yes,SBD,Raw,Amateur Teen 18-19,F,Olga Petrukhina,Ольга Петрухина,Russia,1998-08-21,51,60,70,-82.5,,70,35,-40,40,,40,65,80,-90,,80,190
1,56,Yes,SBD,Raw,Amateur Open,F,Svetlana Kufeld,Светлана Куфельд,Russia,1968-05-06,55.7,90,-95,-95,,90,65,67.5,-70,,67.5,120,130,-135,,130,287.5
1,60,Yes,SBD,Raw,Amateur Open,F,Alina Trunova,Алина Трунова,Russia,1991-04-10,59.8,115,-120,-120,,115,75,-77.5,-77.5,,75,120,130,-160,,130,320
1,60,Yes,SBD,Raw,Amateur Masters 40-44,F,Oksana Salmina,Оксана Салмина,Russia,1976-06-06,58.5,-90,-90,90,,90,45,-50,-50,,45,90,100,-110,,100,235
1,75,Yes,SBD,Raw,Amateur Masters 45-49,F,Elena Gryaznova,Елена Грязнова,Russia,1971-01-13,74,105,-112.5,-112.5,,105,52.5,60,-62.5,,60,110,120,130,,130,295
1,67.5,Yes,SBD,Raw,Amateur Open,M,Yuriy Vaydurov,Юрий Вайдуров,Russia,1992-10-13,66.25,160,170,180,,180,115,125,127.5,,127.5,160,170,-182.5,,170,477.5
1,82.5,Yes,SBD,Raw,Amateur Teen 18-19,M,Aleksandr Akberov,Александр Акберов,Russia,1999-10-06,80.3,165,180,190,,190,107.5,117.5,-120,,117.5,207.5,220,230,,230,537.5
1,82.5,Yes,SBD,Raw,Amateur Open,M,Aleksandr Krasnov,Александр Краснов,Russia,1986-10-28,81.3,177.5,187.5,190,,190,147.5,152.5,155,,155,240,247.5,255,,255,600
2,82.5,Yes,SBD,Raw,Amateur Open,M,Aleksey Krasnov,Алексей Краснов,Russia,1986-10-28,79.5,185,195,197.5,,197.5,147.5,152.5,-155,,152.5,225,235,240,,240,590
3,82.5,Yes,SBD,Raw,Amateur Open,M,Aleksey Voytkov,Алексей Войтков,Russia,1981-08-31,82,-200,-200,200,,200,125,130,-132.5,,130,210,217.5,-222.5,,217.5,547.5
4,82.5,Yes,SBD,Raw,Amateur Open,M,Aleksandr Akberov,Александр Акберов,Russia,1999-10-06,80.3,165,180,190,,190,107.5,117.5,-120,,117.5,207.5,220,230,,230,537.5
1,82.5,Yes,SBD,Raw,Amateur Masters 45-49,M,Viktor Shinkarev,Виктор Шинкарев,Russia,1971-04-24,82.1,140,150,-155,,150,100,105,-107.5,,105,185,195,-200,,195,450
1,90,Yes,SBD,Raw,Amateur Teen 16-17,M,Ivan Falaleev,Иван Фалалеев,Russia,2001-04-28,87,-100,100,120,,120,80,90,95,,95,120,135,145,,145,360
1,90,Yes,SBD,Raw,Amateur Juniors 20-23,M,Mikhail Vakunov,Михаил Вакунов,Russia,1998-06-24,85.6,-180,185,-190,,185,120,-127.5,-127.5,,120,205,222.5,232.5,,232.5,537.5
2,90,Yes,SBD,Raw,Amateur Juniors 20-23,M,Nikita Mitrofanov,Никита Митрофанов,Russia,1994-08-28,84.7,-170,170,180,,180,125,135,140,,140,200,210,-217.5,,210,530
1,90,Yes,SBD,Raw,Amateur Open,M,Evgeniy Vladimirov,Евгений Владимиров,Russia,1964-08-22,88.3,255,-265,-265,,255,150,-155,155,,155,230,235,240,,240,650
2,90,Yes,SBD,Raw,Amateur Open,M,Andrey Zhuravlev,Андрей Журавлев,Russia,1993-10-06,89.2,190,200,-205,,200,125,132.5,137.5,,137.5,190,200,207.5,,207.5,545
1,90,Yes,SBD,Raw,Amateur Masters 50-54,M,Evgeniy Vladimirov,Евгений Владимиров,Russia,1964-08-22,88.3,255,-265,-265,,255,150,-155,155,,155,230,235,240,,240,650
1,100,Yes,SBD,Raw,Amateur Masters 70-74,M,Aleksandr Klepalchenko,Александр Клепальченко,Russia,1944-02-09,96.8,120,-130,-130,,120,75,80,85,,85,125,140,-155,,140,345
1,110,Yes,SBD,Raw,Amateur Open,M,Sergey Vishnyakov,Сергей Вишняков,Russia,1987-01-30,108,210,225,235,,235,160,167.5,172.5,,172.5,230,250,265,,265,672.5
1,125,Yes,SBD,Raw,Amateur Open,M,Aleksandr Miller,Александр Миллер,Russia,1992-03-30,124.3,220,230,240,,240,165,-175,-175,,165,250,-260,260,,260,665
2,125,Yes,SBD,Raw,Amateur Open,M,Igor Ponomarenko,Игорь Пономаренко,Russia,1986-03-08,115.2,180,200,220,,220,-140,-150,150,,150,190,210,220,,220,590
1,140,Yes,SBD,Raw,Amateur Masters 55-59,M,Vladimir Polivanov,Владимир Поливанов,Russia,1963-01-20,126,180,190,195,,195,150,160,170,,170,225,240,255,,255,620
1,67.5,Yes,SBD,Single-ply,Amateur Open,F,Mariya Zhuravleva,Мария Журавлева,Russia,1993-09-01,67.5,-150,160,-170,,160,105,-115,120,,120,132.5,142.5,-145,,142.5,422.5
1,60,Yes,SBD,Single-ply,Amateur Masters 45-49,F,Irina Vysotskaya,Ирина Высоцкая,Russia,1970-11-07,60,80,85,90,,90,-55,55,-60,,55,80,90,100,,100,245
1,90,Yes,SBD,Single-ply,Amateur Juniors 20-23,M,Ivan Simakov,Иван Симаков,Russia,1994-07-30,87.7,150,170,-190,,170,120,125,-130,,125,180,-200,210,,210,505
1,90,Yes,SBD,Single-ply,Amateur Open,M,Aleksey Kleymanov,Алексей Клейманов,Russia,1993-09-19,88.8,200,220,-240,,220,130,140,150,,150,190,-220,-220,,190,560
1,48,No,SBD,Raw,Pro Teen 16-17,F,Vladislava Khoda,Владислава Хода,Russia,2002-05-26,47.9,50,60,62.5,,62.5,30,32.5,35,,35,80,90,100,,100,197.5
1,52,No,SBD,Raw,Pro Open,F,Ekaterina Naletova,Екатерина Налетова,Russia,1980-03-04,52,-55,55,60,,60,40,45,-47.5,,45,60,70,-80,,70,175
1,56,No,SBD,Raw,Pro Open,F,Marina Berg,Марина Берг,Russia,1988-07-21,56,70,80,-90,,80,35,40,-45,,40,70,80,90,,90,210
1,67.5,No,SBD,Raw,Pro Juniors 20-23,F,Elizaveta Mikhaylenko,Елизавета Михайленко,Russia,1997-10-24,64,60,70,80,,80,40,47.5,-52.5,,47.5,60,70,82.5,,82.5,210
1,56,No,SBD,Raw,Pro Teen 13-15,M,Gleb Protopopov,Глеб Протопопов,Russia,2004-08-06,56,60,70,-80,,70,45,50,55,,55,50,60,80,,80,205
1,67.5,No,SBD,Raw,Pro Teen 18-19,M,German Klyayn,Герман Кляйн,Russia,1998-07-15,67,130,140,147.5,,147.5,80,90,92.5,,92.5,150,160,-180,,160,400
1,67.5,No,SBD,Raw,Pro Open,M,Rustam Baytulov,Рустам Байтулов,Russia,1983-08-20,65.3,90,95,100,,100,90,97.5,,,97.5,120,135,142.5,,142.5,340
1,82.5,No,SBD,Raw,Pro Open,M,Dmitriy Soshnikov,Дмитрий Сошников,Russia,1993-01-31,79,160,170,-180,,170,110,120,-125,,120,190,200,210,,210,500
2,82.5,No,SBD,Raw,Pro Open,M,Stepan Ivanov,Степан Иванов,Russia,1988-12-29,78,150,160,170,,170,120,135,-140,,135,170,182.5,190,,190,495
1,90,No,SBD,Raw,Pro Teen 13-15,M,Vadim Solovev,Вадим Соловьев,Russia,2003-07-25,89,100,115,125,,125,70,-85,-85,,70,100,120,140,,140,335
1,90,No,SBD,Raw,Pro Open,M,Baltazar Terekhov,Бальтазар Терехов,Russia,1988-08-22,89.2,210,-225,-225,,210,125,135,-140,,135,200,-220,,,200,545
2,90,No,SBD,Raw,Pro Open,M,Anton Shuvaev,Антон Шуваев,Russia,1986-03-18,87.1,150,160,170,,170,130,135,140,,140,200,210,220,,220,530
1,90,No,SBD,Raw,Pro Masters 45-49,M,Sergey Gorn,Сергей Горн,Russia,1971-01-12,90,190,-205,-205,,190,115,-122.5,122.5,,122.5,210,225,-235,,225,537.5
1,90,No,SBD,Raw,Pro Masters 55-59,M,Vladimir Panuev,Владимир Пануев,Russia,1962-10-22,89.4,-160,,160,,160,115,122.5,,,122.5,200,210,,,210,492.5
1,100,No,SBD,Raw,Pro Open,M,Sergey Belyaev,Сергей Беляев,Russia,1983-08-23,99.9,205,215,230,,230,145,152.5,155,,155,250,-280,-280,,250,635
1,100,No,SBD,Raw,Pro Masters 45-49,M,Igor Zelenko,Игорь Зеленко,Russia,1972-06-03,98,195,205,-212.5,,205,152.5,160,-165,,160,200,220,-235,,220,585
1,110,No,SBD,Raw,Pro Juniors 20-23,M,Pavel Dolgopolov,Павел Долгополов,Russia,1995-02-18,107.1,210,225,240,,240,165,-175,-180,,165,240,-255,-265,,240,645
1,110,No,SBD,Raw,Pro Open,M,Dmitriy Kem,Дмитрий Кем,Russia,1971-12-08,102.5,175,185,195,,195,120,127.5,-132.5,,127.5,200,220,225,,225,547.5
2,110,No,SBD,Raw,Pro Open,M,Yuriy Astapov,Юрий Астапов,Russia,1988-06-12,107,160,-170,-170,,160,115,-125,125,,125,170,180,190,,190,475
1,110,No,SBD,Single-ply,Pro Open,M,Andrey Sochenko,Андрей Соченко,Russia,1988-04-27,110,240,260,270,,270,240,260,270,,270,240,260,275,,275,815
1,125,No,SBD,Single-ply,Pro Open,M,Kirill Elkin,Кирилл Елькин,Russia,1991-02-16,112.5,170,190,210,,210,150,-160,160,,160,170,190,-210,,190,560
1,100,No,SBD,Multi-ply,Pro Open,M,Aleksandr Ryabovolov,Александр Рябоволов,Russia,1989-01-25,95,300,320,340,,340,-180,180,190,,190,-270,270,280,,280,810
1,75,No,SBD,Single-ply,Pro Open,M,Maksim Shvarts,Максим Шварц,Russia,1989-11-29,75,300,-320,320,,320,180,190,200,,200,270,287.5,-300,,287.5,807.5
1,56,Yes,D,Raw,Amateur Juniors 20-23,F,Tatyana Kopaneva,Татьяна Копанева,,1995-03-03,54.1,,,,,,,,,,,97.5,105,-110,,105,105
1,56,Yes,D,Raw,Amateur Open,F,Irina Prokhorova,Ирина Прохорова,,1987-10-11,56,,,,,,,,,,,105,110,115,,115,115
1,56,Yes,D,Raw,Amateur Masters 40-44,F,Irina Monoshkina,Ирина Моношкина,,1975-05-21,55.2,,,,,,,,,,,110,115,120,,120,120
1,60,Yes,D,Raw,Amateur Open,F,Tatyana Veber,Татьяна Вебер,,1987-01-29,58.8,,,,,,,,,,,120,127.5,130,,130,130
DQ,67.5,Yes,D,Raw,Amateur Teen 16-17,F,Mariya Sokolova,Мария Соколова,,2000-09-18,65.2,,,,,,,,,,,-145,-145,,,,
1,67.5,Yes,D,Raw,Amateur Open,F,Nadezhda Ponomareva,Надежда Пономарева,,1987-02-07,66,,,,,,,,,,,145,150,157.5,,157.5,157.5
DQ,67.5,Yes,D,Raw,Amateur Open,F,Svetlana Krasnokutskaya,Светлана Краснокутская,,1988-06-08,66.5,,,,,,,,,,,-110,,,,,
1,67.5,Yes,D,Raw,Amateur Masters 45-49,F,Natalya Petlyuk,Наталья Петлюк,,1972-01-03,66.9,,,,,,,,,,,105,115,120,,120,120
1,75,Yes,D,Raw,Amateur Masters 45-49,F,Elena Gryaznova,Елена Грязнова,,1971-01-13,74,,,,,,,,,,,110,130,-140,,130,130
1,67.5,Yes,D,Raw,Amateur Teen 16-17,M,Ivan Orlov,Иван Орлов,,2001-03-08,67,,,,,,,,,,,200,-220,220,-230,220,220
1,67.5,Yes,D,Raw,Amateur Teen 18-19,M,Sergey Baturin,Сергей Батурин,,1999-09-04,66.1,,,,,,,,,,,132.5,145,-152.5,,145,145
1,75,Yes,D,Raw,Amateur Open,M,Aleksandr Shchelkov,Александр Щелков,,1989-11-05,73.6,,,,,,,,,,,-220,232.5,-240,,232.5,232.5
DQ,75,Yes,D,Raw,Amateur Open,M,Aleksandr Borzykh,Александр Борзых,,1987-08-07,74.9,,,,,,,,,,,-140,-140,-140,,,
1,82.5,Yes,D,Raw,Amateur Juniors 20-23,M,Aleksandr Reparyuk,Александр Репарюк,,1996-05-21,77.7,,,,,,,,,,,175,185,192.5,,192.5,192.5
1,82.5,Yes,D,Raw,Amateur Open,M,Nikolay Akhundov,Николай Ахундов,,1989-06-20,80.7,,,,,,,,,,,215,230,-245,,230,230
1,90,Yes,D,Raw,Amateur Teen 18-19,M,Aleksey Lobachev,Алексей Лобачев,,1999-06-13,87.6,,,,,,,,,,,220,230,245,,245,245
1,90,Yes,D,Raw,Amateur Open,M,Vladimir Felda,Владимир Фельда,,1984-10-10,90,,,,,,,,,,,240,255,262.5,,262.5,262.5
2,90,Yes,D,Raw,Amateur Open,M,Sergey Goncharenko,Сергей Гончаренко,,1985-10-10,88.2,,,,,,,,,,,230,240,-242.5,,240,240
3,90,Yes,D,Raw,Amateur Open,M,Aleksey Shevchenko,Алексей Шевченко,,1992-07-27,84.3,,,,,,,,,,,220,230,237.5,,237.5,237.5
4,90,Yes,D,Raw,Amateur Open,M,Dmitriy Baev,Дмитрий Баев,,1984-06-25,86.4,,,,,,,,,,,220,232.5,-237.5,,232.5,232.5
5,90,Yes,D,Raw,Amateur Open,M,Aleksandr Podgayskiy,Александр Подгайский,,1986-08-07,86.8,,,,,,,,,,,175,185,195,,195,195
1,100,Yes,D,Raw,Amateur Teen 18-19,M,Stanislav Pashkovskiy,Станислав Пашковский,,1999-08-31,97.5,,,,,,,,,,,227.5,235,-247.5,,235,235
1,100,Yes,D,Raw,Amateur Masters 40-44,M,Dmitriy Rikhter,Дмитрий Рихтер,,1978-02-04,92.8,,,,,,,,,,,-182.5,192.5,202.5,,202.5,202.5
1,110,Yes,D,Raw,Amateur Juniors 20-23,M,Rauf Piriev,Рауф Пириев,,1997-08-31,108.8,,,,,,,,,,,250,-260,262.5,,262.5,262.5
1,110,Yes,D,Raw,Amateur Open,M,Rauf Piriev,Рауф Пириев,,1997-08-31,108.8,,,,,,,,,,,250,-260,262.5,,262.5,262.5
2,110,Yes,D,Raw,Amateur Open,M,Konstantin Panchenko,Константин Панченко,,1980-05-30,109.8,,,,,,,,,,,240,260,-275,,260,260
1,125,Yes,D,Raw,Amateur Open,M,Yuriy Kolmakov,Юрий Колмаков,,1983-05-06,119.5,,,,,,,,,,,280,300,312.5,,312.5,312.5
1,140,Yes,D,Raw,Amateur Masters 50-54,M,Andrey Galin,Андрей Галин,,1967-03-29,131.2,,,,,,,,,,,235,250,260,,260,260
1,48,No,D,Raw,Pro Teen 16-17,F,Vladislava Khoda,Владислава Хода,,2002-05-26,47.9,,,,,,,,,,,80,90,102.5,,102.5,102.5
1,75,No,D,Raw,Pro Open,F,Galina Likhoradkina,Галина Лихорадкина,,1989-11-29,75,,,,,,,,,,,160,167.5,175,,175,175
1,82.5,No,D,Raw,Pro Teen 16-17,M,Dmitriy Galeev,Дмитрий Галеев,,2000-09-04,80,,,,,,,,,,,220,230,-235,,230,230
1,82.5,No,D,Raw,Pro Open,M,Dmitriy Cherepanov,Дмитрий Черепанов,,1983-07-11,82.5,,,,,,,,,,,270,-292.5,-292.5,,270,270
2,82.5,No,D,Raw,Pro Open,M,Dmitriy Sidorov,Дмитрий Сидоров,,1994-06-25,82.3,,,,,,,,,,,145,152.5,160,,160,160
1,90,No,D,Raw,Pro Masters 55-59,M,Vladimir Panuev,Владимир Пануев,,1962-10-22,89.4,,,,,,,,,,,205,215,-220,,215,215
1,100,No,D,Raw,Pro Open,M,Oleg Lagunov,Олег Лагунов,,1967-03-05,97.9,,,,,,,,,,,250,270,282.5,,282.5,282.5
2,100,No,D,Raw,Pro Open,M,Aleksey Slepokurov,Алексей Слепокуров,,1980-12-03,99.8,,,,,,,,,,,280,-302.5,-302.5,,280,280
3,100,No,D,Raw,Pro Open,M,Dmitriy Podosinnikov,Дмитрий Подосинников,,1979-12-25,97.2,,,,,,,,,,,250,265,-277.5,,265,265
1,100,No,D,Raw,Pro Masters 50-54,M,Oleg Lagunov,Олег Лагунов,,1967-03-05,97.9,,,,,,,,,,,250,270,282.5,,282.5,282.5
1,110,No,D,Raw,Pro Open,M,Igor Umerenkov,Игорь Умеренков,,1980-09-13,109.5,,,,,,,,,,,270,290,300,,300,300
1,110,No,D,Raw,Pro Masters 50-54,M,Vadim Raskin,Вадим Раскин,,1968-02-05,103.9,,,,,,,,,,,235,-245,-245,,235,235
1,125,No,D,Raw,Pro Open,M,Sergey Semakin,Сергей Семакин,,1978-08-29,115,,,,,,,,,,,300,330,-350,,330,330
1,125,No,D,Raw,Pro Masters 50-54,M,Aleksey Isakov,Алексей Исаков,,1963-08-06,120.4,,,,,,,,,,,240,252.5,260,-272.5,260,260
1,140,No,D,Raw,Pro Open,M,Stanislav Alekseykin,Станислав Алексейкин,,1982-07-14,139,,,,,,,,,,,362.5,-372.5,,,362.5,362.5
1,90,No,D,Multi-ply,Pro Open,M,Kirill Potanin,Кирилл Потанин,,1989-07-14,89.2,,,,,,,,,,,300,-315,-315,,300,300
1,52,Yes,B,Multi-ply,Amateur Open,F,Anna Isakova,Анна Исакова,,1988-11-08,52,,,,,,80,-92.5,-92.5,,80,,,,,,80
1,67.5,Yes,B,Multi-ply,Amateur Open,F,Nadezhda Ponomareva,Надежда Пономарева,,1987-02-07,66,,,,,,-110,110,115,,115,,,,,,115
2,67.5,Yes,B,Multi-ply,Amateur Open,F,Mariya Zaigraeva,Мария Заиграева,,1976-06-27,66.7,,,,,,100,110,-120,,110,,,,,,110
1,52,Yes,B,Multi-ply,Amateur Open,M,Vadim Sokushev,Вадим Сокушев,,1990-03-28,49.4,,,,,,120,130,-140,,130,,,,,,130
1,75,Yes,B,Multi-ply,Amateur Open,M,Denis Kuklin,Денис Куклин,,1989-09-06,74,,,,,,135,147.5,150,,150,,,,,,150
1,75,Yes,B,Multi-ply,Amateur Masters 40-44,M,Evgeniy Gulyayko,Евгений Гуляйко,,1975-07-17,74.6,,,,,,170,-185,185,,185,,,,,,185
1,82.5,Yes,B,Multi-ply,Amateur Juniors 20-23,M,Sino Rakhimov,Сино Рахимов,,1995-06-26,78.1,,,,,,-160,160,-172.5,,160,,,,,,160
1,82.5,Yes,B,Multi-ply,Amateur Open,M,Nikita Korablev,Никита Кораблев,,1983-07-24,82,,,,,,180,200,,,200,,,,,,200
DQ,82.5,Yes,B,Multi-ply,Amateur Open,M,Sergey Fedoseev,Сергей Федосеев,,1982-01-18,82.1,,,,,,-170,,,,,,,,,,
1,90,Yes,B,Multi-ply,Amateur Open,M,Aleksandr Katiev,Александр Катиев,,1976-03-27,87.5,,,,,,235,-247.5,247.5,,247.5,,,,,,247.5
2,90,Yes,B,Multi-ply,Amateur Open,M,Aleksandr Savin,Александр Савин,,1986-06-01,89.7,,,,,,235,247.5,,,247.5,,,,,,247.5
3,90,Yes,B,Multi-ply,Amateur Open,M,Aleksandr Volkov,Александр Волков,,1993-03-06,89.2,,,,,,220,230,-240,,230,,,,,,230
4,90,Yes,B,Multi-ply,Amateur Open,M,Vadim Sekushenko,Вадим Секушенко,,1985-09-27,90,,,,,,190,-205,-205,,190,,,,,,190
1,90,Yes,B,Multi-ply,Amateur Masters 40-44,M,Aleksandr Katiev,Александр Катиев,,1976-03-27,87.5,,,,,,235,-247.5,247.5,,247.5,,,,,,247.5
1,90,Yes,B,Multi-ply,Amateur Masters 60-64,M,Kalimulla Murzakhanov,Калимулла Мурзаханов,,1955-07-29,88,,,,,,-150,150,-160,,150,,,,,,150
1,90,Yes,B,Multi-ply,Amateur Masters 65-69,M,Anatoliy Pavlenko,Анатолий Павленко,,1951-05-26,89.9,,,,,,130,140,-150,,140,,,,,,140
1,100,Yes,B,Multi-ply,Amateur Open,M,Aleksey Borets,Алексей Борец,,1984-08-14,96.7,,,,,,210,220,-230,,220,,,,,,220
2,100,Yes,B,Multi-ply,Amateur Open,M,Nikita Mezentsev,Никита Мезенцев,,1991-03-22,100,,,,,,200,210,220,,220,,,,,,220
DQ,100,Yes,B,Multi-ply,Amateur Open,M,Erik Genze,Эрик Гензе,,1992-05-30,100,,,,,,-190,-190,-200,,,,,,,,
1,44,Yes,B,Raw,Amateur Open,F,Anastasiya Kazakova,Анастасия Казакова,,1989-01-23,38,,,,,,25,30,-32.5,,30,,,,,,30
1,52,Yes,B,Raw,Amateur Juniors 20-23,F,Valeriya Manucharyan,Валерия Манучарян,,1995-03-05,50.2,,,,,,45,50,-52.5,,50,,,,,,50
1,52,Yes,B,Raw,Amateur Masters 50-54,F,Natalya Yarotskaya,Наталья Яроцкая,,1963-09-18,51.85,,,,,,47.5,50,-52.5,,50,,,,,,50
1,56,Yes,B,Raw,Amateur Open,F,Tatyana Gashnikova,Татьяна Гашникова,,1994-01-12,54.8,,,,,,-60,60,-62.5,,60,,,,,,60
1,56,Yes,B,Raw,Amateur Masters 40-44,F,Irina Kiseleva,Ирина Киселева,,1974-08-18,55.7,,,,,,65,72.5,-75,,72.5,,,,,,72.5
1,60,Yes,B,Raw,Amateur Teen 13-15,F,Sofiya Ivanova,София Иванова,,2003-10-21,60,,,,,,62.5,-67.5,-67.5,,62.5,,,,,,62.5
DQ,60,Yes,B,Raw,Amateur Open,F,Alina Trunova,Алина Трунова,,1991-04-10,59.8,,,,,,-77.5,-77.5,-77.5,,,,,,,,
1,67.5,Yes,B,Raw,Amateur Open,F,Mariya Gnusareva,Мария Гнусарева,,1982-06-25,61.1,,,,,,92.5,95,97.5,,97.5,,,,,,97.5
2,67.5,Yes,B,Raw,Amateur Open,F,Elena Ikryannikova,Елена Икрянникова,,1988-10-26,62.7,,,,,,70,75,77.5,,77.5,,,,,,77.5
1,75,Yes,B,Raw,Amateur Masters 45-49,F,Elena Gryaznova,Елена Грязнова,,1971-01-13,74,,,,,,55,-60,60,,60,,,,,,60
1,90,Yes,B,Raw,Amateur Masters 45-49,F,Tatyana Volchkova,Татьяна Волчкова,,1969-11-07,89.3,,,,,,-75,75,77.5,,77.5,,,,,,77.5
1,56,Yes,B,Raw,Amateur Open,M,Andrey Ross,Андрей Росс,,1978-09-13,55.2,,,,,,60,70,,,70,,,,,,70
1,60,Yes,B,Raw,Amateur Open,M,Sergey Chigrin,Сергей Чигрин,,1981-12-15,57.8,,,,,,110,115,-117.5,,115,,,,,,115
1,67.5,Yes,B,Raw,Amateur Teen 16-17,M,Danila Kunts,Данила Кунц,,2001-05-30,62.9,,,,,,92.5,-97.5,97.5,,97.5,,,,,,97.5
1,67.5,Yes,B,Raw,Amateur Juniors 20-23,M,Ivan Abashonkov,Иван Абашонков,,1996-04-30,65.2,,,,,,110,125,130,,130,,,,,,130
1,67.5,Yes,B,Raw,Amateur Open,M,Yuriy Vaydurov,Юрий Вайдуров,,1992-10-13,66.25,,,,,,120,125,127.5,,127.5,,,,,,127.5
2,67.5,Yes,B,Raw,Amateur Open,M,Evgeniy Kuklin,Евгений Куклин,,1981-12-16,67.2,,,,,,117.5,125,127.5,,127.5,,,,,,127.5
3,67.5,Yes,B,Raw,Amateur Open,M,Aleksandr Selyaninov,Александр Селянинов,,1987-03-16,66.3,,,,,,110,-117.5,-117.5,,110,,,,,,110
4,67.5,Yes,B,Raw,Amateur Open,M,Konstantin Markelov,Константин Маркелов,,1986-05-10,66.8,,,,,,102.5,107.5,-110,,107.5,,,,,,107.5
DQ,67.5,Yes,B,Raw,Amateur Open,M,Andrey Agishev,Андрей Агишев,,1990-10-25,66.8,,,,,,-115,,-120,,,,,,,,
1,67.5,Yes,B,Raw,Amateur Masters 50-54,M,Andrey Bauman,Андрей Бауман,,1965-10-12,66.4,,,,,,85,90,-92.5,,90,,,,,,90
1,75,Yes,B,Raw,Amateur Teen 18-19,M,Anton Misarov,Антон Мисаров,,1999-08-22,72,,,,,,95,-105,-105,,95,,,,,,95
1,75,Yes,B,Raw,Amateur Open,M,Danil Saneev,Данил Санеев,,1984-01-08,74,,,,,,150,160,-170,,160,,,,,,160
2,75,Yes,B,Raw,Amateur Open,M,Viktor Kolomeets,Виктор Коломеец,,1991-07-28,74,,,,,,145,-150,-150,,145,,,,,,145
3,75,Yes,B,Raw,Amateur Open,M,Denis Kuklin,Денис Куклин,,1989-09-06,74,,,,,,130,140,142.5,,142.5,,,,,,142.5
4,75,Yes,B,Raw,Amateur Open,M,Vitaliy Igumnov,Виталий Игумнов,,1978-07-09,74.5,,,,,,-127.5,135,-140,,135,,,,,,135
5,75,Yes,B,Raw,Amateur Open,M,Denis Dubkov,Денис Дубков,,1978-12-31,72.3,,,,,,120,-127.5,127.5,,127.5,,,,,,127.5
6,75,Yes,B,Raw,Amateur Open,M,Daniil Semenov,Даниил Семенов,,1992-12-27,73.9,,,,,,110,117.5,125,,125,,,,,,125
7,75,Yes,B,Raw,Amateur Open,M,Aleksey Vinichenko,Алексей Виниченко,,1986-10-14,73.9,,,,,,117.5,120,122.5,,122.5,,,,,,122.5
8,75,Yes,B,Raw,Amateur Open,M,Ivan Terentev,Иван Терентьев,,1992-03-23,73,,,,,,112.5,117.5,-120,,117.5,,,,,,117.5
1,82.5,Yes,B,Raw,Amateur Open,M,Pavel Kovalev,Павел Ковалев,,1982-01-11,82,,,,,,150,155,160,,160,,,,,,160
2,82.5,Yes,B,Raw,Amateur Open,M,Mikhail Rets,Михаил Рец,,1981-06-13,82,,,,,,145,152.5,-155,,152.5,,,,,,152.5
3,82.5,Yes,B,Raw,Amateur Open,M,Evgeniy Ikryannikov,Евгений Икрянников,,1990-03-24,81.6,,,,,,145,150,-152.5,,150,,,,,,150
4,82.5,Yes,B,Raw,Amateur Open,M,Viktor Kanyshev,Виктор Канышев,,1991-09-12,81,,,,,,135,145,-150,,145,,,,,,145
5,82.5,Yes,B,Raw,Amateur Open,M,Oleg Antonov,Олег Антонов,,1984-04-09,82.1,,,,,,135,-145,145,,145,,,,,,145
6,82.5,Yes,B,Raw,Amateur Open,M,Georgiy Volozhaninov,Георгий Воложанинов,,1983-10-07,82.3,,,,,,130,137.5,145,,145,,,,,,145
7,82.5,Yes,B,Raw,Amateur Open,M,Maksim Andreev,Максим Андреев,,1993-07-28,80.7,,,,,,120,127.5,-130,,127.5,,,,,,127.5
8,82.5,Yes,B,Raw,Amateur Open,M,Dmitriy Kraynov,Дмитрий Крайнов,,1987-10-09,81.8,,,,,,120,-127.5,127.5,,127.5,,,,,,127.5
1,82.5,Yes,B,Raw,Amateur Masters 60-64,M,Aleksandr Cherkasov,Александр Черкасов,,1956-09-21,81.2,,,,,,-130,130,135,,135,,,,,,135
1,90,Yes,B,Raw,Amateur Open,M,Konstantin Shashenko,Константин Шашенко,,1983-02-17,89.6,,,,,,170,175,-180,,175,,,,,,175
2,90,Yes,B,Raw,Amateur Open,M,Vladimir Felda,Владимир Фельда,,1984-10-10,90,,,,,,165,-175,-175,,165,,,,,,165
3,90,Yes,B,Raw,Amateur Open,M,Aleksey Eremin,Алексей Еремин,,1992-09-11,89.4,,,,,,147.5,-152.5,152.5,,152.5,,,,,,152.5
4,90,Yes,B,Raw,Amateur Open,M,Dmitriy Pashin,Дмитрий Пашин,,1979-10-15,88,,,,,,120,127.5,132.5,,132.5,,,,,,132.5
DQ,90,Yes,B,Raw,Amateur Open,M,Sergey Borisov,Сергей Борисов,,1988-07-24,84.4,,,,,,-125,-132.5,-132.5,,,,,,,,
1,90,Yes,B,Raw,Amateur Masters 40-44,M,Vladislav Bogdanov,Владислав Богданов,,1975-09-24,87.2,,,,,,132.5,135,-140,,135,,,,,,135
2,90,Yes,B,Raw,Amateur Masters 40-44,M,Valeriy Kuznetsov #2,Валерій Кузнєцов,,1974-01-23,88.4,,,,,,-125,125,-132.5,,125,,,,,,125
1,100,Yes,B,Raw,Amateur Open,M,Maksim Korostin,Максим Коростин,,1985-12-31,94.4,,,,,,140,145,-150,,145,,,,,,145
2,100,Yes,B,Raw,Amateur Open,M,Vitaliy Kazantsev,Виталий Казанцев,,1993-08-15,100,,,,,,135,-142.5,142.5,,142.5,,,,,,142.5
1,100,Yes,B,Raw,Amateur Masters 60-64,M,Vyacheslav Nikolaev,Вячеслав Николаев,,1956-07-10,95.6,,,,,,140,-150,150,,150,,,,,,150
1,110,Yes,B,Raw,Amateur Open,M,Ikromzhon Atakhonov,Икромжон Атахонов,,1989-06-18,110,,,,,,205,215,220,,220,,,,,,220
2,110,Yes,B,Raw,Amateur Open,M,Vladimir Shmidt,Владимир Шмидт,,1985-05-06,102.8,,,,,,180,185,-190,,185,,,,,,185
3,110,Yes,B,Raw,Amateur Open,M,Oleg Strigun,Олег Стригун,,1989-09-23,108.1,,,,,,160,167.5,177.5,,177.5,,,,,,177.5
4,110,Yes,B,Raw,Amateur Open,M,Konstantin Panchenko,Константин Панченко,,1980-05-30,109.8,,,,,,167.5,172.5,175,,175,,,,,,175
5,110,Yes,B,Raw,Amateur Open,M,Sergey Pustovitenko,Сергей Пустовитенко,,1992-07-17,104.7,,,,,,-160,167.5,-172.5,,167.5,,,,,,167.5
DQ,110,Yes,B,Raw,Amateur Open,M,Gansukh Batmagnay,Гансух Батмагнай,,1988-06-19,109.2,,,,,,-205,,,,,,,,,,
1,110,Yes,B,Raw,Amateur Masters 40-44,M,Pavel Timofeev,Павел Тимофеев,,1977-03-08,109,,,,,,170,180,-187.5,,180,,,,,,180
1,110,Yes,B,Raw,Amateur Masters 50-54,M,Andrey Mazepa,Андрей Мазепа,,1964-04-09,110,,,,,,125,130,135,,135,,,,,,135
1,125,Yes,B,Raw,Amateur Teen 16-17,M,Nikita Yanushkin,Никита Янушкин,,2002-04-15,115.9,,,,,,120,127.5,-132.5,,127.5,,,,,,127.5
1,125,Yes,B,Raw,Amateur Open,M,Sergey Fayler,Сергей Файлер,,1984-04-02,115.6,,,,,,170,177.5,,,177.5,,,,,,177.5
DQ,125,Yes,B,Raw,Amateur Open,M,Ugtakhbayar Khurelchuluun,Угтахбаяр Хурэлчулуун,,1989-04-04,123.5,,,,,,-215,,,,,,,,,,
1,90,No,B,Multi-ply,Pro Open,M,Artem Bykhovets,Артем Быховец,,1983-07-19,90,,,,,,320,-350,-350,,320,,,,,,320
2,90,No,B,Multi-ply,Pro Open,M,Aleksandr Belov,Александр Белов,,1992-09-20,90,,,,,,230,250,-260,,250,,,,,,250
1,100,No,B,Multi-ply,Pro Open,M,Pavel Isakov,Павел Исаков,,1980-11-04,98.7,,,,,,280,-300,300,,300,,,,,,300
1,56,No,B,Raw,Pro Open,F,Elnara Bagirova,Эльнара Багирова,,1988-05-27,55.5,,,,,,40,42.5,45,,45,,,,,,45
1,67.5,No,B,Raw,Pro Open,F,Anastasiya Kovaleva,Анастасия Ковалева,,1993-03-27,65,,,,,,37.5,40,42.5,,42.5,,,,,,42.5
1,67.5,No,B,Raw,Pro Open,M,Vladislav Gisvayn,Владислав Гисвайн,,1990-02-27,66.9,,,,,,150,160,-167.5,,160,,,,,,160
2,67.5,No,B,Raw,Pro Open,M,Rustam Baytulov,Рустам Байтулов,,1983-08-20,65.3,,,,,,90,95,-97.5,,95,,,,,,95
3,67.5,No,B,Raw,Pro Open,M,Konstantin Karpov,Константин Карпов,,1988-04-26,67,,,,,,50,55,-60,,55,,,,,,55
1,75,No,B,Raw,Pro Open,M,Aleksandr Gagolin,Александр Гаголин,,1987-07-01,74.7,,,,,,170,180,-190,,180,,,,,,180
1,75,No,B,Raw,Pro Masters 50-54,M,Sergey Khoda,Сергей Хода,,1967-08-10,70.6,,,,,,80,85,-90,,85,,,,,,85
1,82.5,No,B,Raw,Pro Open,M,Egor Bogomolov,Егор Богомолов,,1992-01-02,80.5,,,,,,147.5,-152.5,-152.5,,147.5,,,,,,147.5
2,82.5,No,B,Raw,Pro Open,M,Andrey Tolkachev,Андрей Толкачев,,1993-08-05,80,,,,,,125,127.5,-130,,127.5,,,,,,127.5
1,90,No,B,Raw,Pro Open,M,Sergey Zamaliev,Сергей Замалиев,,1977-11-15,87.2,,,,,,200,207.5,,,207.5,,,,,,207.5
2,90,No,B,Raw,Pro Open,M,Dmitriy Zhigulin,Дмитрий Жигулин,,1981-08-16,89.6,,,,,,165,175,-180,,175,,,,,,175
3,90,No,B,Raw,Pro Open,M,Egor Ivantsov,Егор Иванцов,,1988-07-22,90,,,,,,135,145,-150,,145,,,,,,145
1,90,No,B,Raw,Pro Masters 40-44,M,Sergey Zamaliev,Сергей Замалиев,,1977-11-15,87.2,,,,,,200,207.5,,,207.5,,,,,,207.5
1,90,No,B,Raw,Pro Masters 45-49,M,Vitaliy Chernyavskiy,Виталий Чернявский,,1972-10-10,90,,,,,,200,-207.5,,,200,,,,,,200
1,100,No,B,Raw,Pro Open,M,Sergey Panteleev,Сергей Пантелеев,,1982-10-28,97,,,,,,180,-190,-190,,180,,,,,,180
1,100,No,B,Raw,Pro Masters 40-44,M,Aleksandr Gryaznov,Александр Грязнов,,1975-06-08,98,,,,,,130,135,140,,140,,,,,,140
1,100,No,B,Raw,Pro Masters 60-64,M,Sergey Annenkov,Сергей Анненков,,1958-04-11,99.4,,,,,,160,165,170,,170,,,,,,170
1,110,No,B,Raw,Pro Open,M,Aleksey Mishanin,Алексей Мишанин,,1975-08-22,105.2,,,,,,200,205,-210,,205,,,,,,205
2,110,No,B,Raw,Pro Open,M,Stanislav Bogdanov,Станислав Богданов,,1989-10-11,105.1,,,,,,185,,,,185,,,,,,185
1,110,No,B,Raw,Pro Masters 40-44,M,Aleksey Mishanin,Алексей Мишанин,,1975-08-22,105.2,,,,,,200,205,-210,,205,,,,,,205
1,125,No,B,Raw,Pro Open,M,Igor Altshuler,Игорь Альтшулер,,1974-11-15,118.3,,,,,,200,207.5,-212.5,,207.5,,,,,,207.5
1,75,No,B,Multi-ply,Pro Open,M,Aleksandr Gagolin,Александр Гаголин,,1987-07-01,74.7,,,,,,250,-260,-270,,250,,,,,,250
1,82.5,No,B,Multi-ply,Pro Open,M,Dmitriy Yakovlev,Дмитрий Яковлев,,1992-02-10,82,,,,,,-240,240,250,,250,,,,,,250
2,82.5,No,B,Multi-ply,Pro Open,M,Ivan Semenov,Иван Семенов,,1992-06-21,81,,,,,,220,235,-245,,235,,,,,,235
DQ,82.5,No,B,Multi-ply,Pro Open,M,Dmitriy Savchenko,Дмитрий Савченко,,1981-08-03,82,,,,,,-220,-235,-235,,,,,,,,
1,90,No,B,Multi-ply,Pro Open,M,Vitaliy Chernyavskiy,Виталий Чернявский,,1972-10-10,90,,,,,,-280,280,292.5,,292.5,,,,,,292.5
2,90,No,B,Multi-ply,Pro Open,M,Aleksandr Kuchin,Александр Кучин,,1987-10-06,86.7,,,,,,190,205,-220,,205,,,,,,205
3,90,No,B,Multi-ply,Pro Open,M,Aleksey Kleymanov,Алексей Клейманов,,1993-09-19,88.8,,,,,,-180,180,-220,,180,,,,,,180
1,90,No,B,Multi-ply,Pro Masters 40-44,M,Sergey Zamaliev,Сергей Замалиев,,1977-11-15,87.2,,,,,,260,275,-292.5,,275,,,,,,275
1,90,No,B,Multi-ply,Pro Masters 45-49,M,Vitaliy Chernyavskiy,Виталий Чернявский,,1972-10-10,90,,,,,,-280,280,292.5,,292.5,,,,,,292.5
2,90,No,B,Multi-ply,Pro Masters 45-49,M,Sergey Boldin,Сергей Болдин,,1971-05-31,88.9,,,,,,180,190,-202.5,,190,,,,,,190
1,100,No,B,Multi-ply,Pro Juniors 20-23,M,Daniil Kulagin,Даниил Кулагин,,1995-09-11,99,,,,,,220,-240,-260,,220,,,,,,220
1,90,No,B,Single-ply,Pro Open,M,Dmitriy Ovcharov,Дмитрий Овчаров,,1989-06-04,90,,,,,,250,-260,-260,,250,,,,,,250
2,90,No,B,Single-ply,Pro Open,M,Andrey Cherepanov,Андрей Черепанов,,1980-04-16,89.2,,,,,,195,205,215,,215,,,,,,215
DQ,100,No,B,Single-ply,Pro Open,M,Konstantin Pleshkov,Константин Плешков,,1974-02-23,95.5,,,,,,-225,-225,-225,,,,,,,,
DQ,100,No,B,Single-ply,Pro Masters 40-44,M,Konstantin Pleshkov,Константин Плешков,,1974-02-23,95.5,,,,,,-225,-225,-225,,,,,,,,
