Place,Sex,Name,CyrillicName,BodyweightKg,Bench1Kg,Bench2Kg,Bench3Kg,Best3BenchKg,Bench4Kg,TotalKg,WeightClassKg,Event,Equipment,Tested,Deadlift1Kg,Deadlift2Kg,Deadlift3Kg,Best3DeadliftKg,Deadlift4Kg,Division,Age,BirthDate
1,F,Anastasiya Marina,Анастасия Марина,57.6,42.5,47.5,50,50,,50,67.5,B,Raw,No,,,,,,Open,14,2000-12-31
2,F,Irina Kuznetsova,Ирина Кузнецова,44.9,27.5,30,32.5,32.5,,32.5,67.5,B,Raw,No,,,,,,Open,16,1999-05-05
1,M,Aleksey Nikitashin,Алексей Никиташин,66.9,100,115,125,125,,125,67.5,B,Raw,No,,,,,,Open,19,1996-01-19
2,M,Aleksandr Popov #14,Александр Попов,66.2,100,105,107.5,107.5,,107.5,67.5,B,Raw,No,,,,,,Open,23,1992-10-05
3,M,Artem Sergeev,Артем Сергеев,62,80,85,90,90,,90,67.5,B,Raw,No,,,,,,Open,20,1995-10-23
4,M,Andrey Zhiganov,Андрей Жиганов,60,75,77.5,-80,77.5,,77.5,67.5,B,Raw,No,,,,,,Open,17,1998-05-12
5,M,Aleksey Berlin,Алексей Берлин,64.9,70,72.5,-75,72.5,,72.5,67.5,B,Raw,No,,,,,,Open,17,1998-02-26
1,M,Vladimir Vladimirov,Владимир Владимиров,81.1,125,130,135,135,,135,82.5,B,Raw,No,,,,,,Open,22,1993-04-30
2,M,Vladimir Ryzhenkov,Владимир Рыженков,80.4,120,125,130,130,,130,82.5,B,Raw,No,,,,,,Open,19,1996-05-12
3,M,Valeriy Lyzhin,Валерий Лыжин,80.9,90,100,102.5,102.5,,102.5,82.5,B,Raw,No,,,,,,Open,16,1998-11-20
4,M,Evgeniy Panteleev,Евгений Пантелеев,72.6,70,80,-85,80,,80,82.5,B,Raw,No,,,,,,Open,19,1996-02-04
1,M,Artem Novikov,Артем Новиков,87.5,140,150,-157.5,150,,150,100,B,Raw,No,,,,,,Open,21,1994-04-25
2,M,Aleksandr Salakhanov,Александр Салаханов,83.7,130,135,-140,135,,135,100,B,Raw,No,,,,,,Open,19,1995-12-08
3,M,Kirill Eskin,Кирилл Еськин,88.9,130,135,-140,135,,135,100,B,Raw,No,,,,,,Open,20,1995-09-06
4,M,Dmitriy Mayorov,Дмитрий Майоров,84.6,110,-120,120,120,,120,100,B,Raw,No,,,,,,Open,19,1996-06-13
5,M,Roman Kiselev,Роман Киселев,89.1,110,-117.5,117.5,117.5,,117.5,100,B,Raw,No,,,,,,Open,19,1995-11-12
6,M,Maksim Melnikov,Максим Мельников,91.2,-110,115,-120,115,,115,100,B,Raw,No,,,,,,Open,15,2000-02-21
7,M,Nikita Eliseev,Никита Елисеев,87.2,100,105,110,110,,110,100,B,Raw,No,,,,,,Open,18,1997-03-19
8,M,Konstantin Zhilinskiy,Константин Жилинский,97.2,102.5,107.5,110,110,,110,100,B,Raw,No,,,,,,Open,18,1997-05-13
9,M,Ivan Biryukov,Иван Бирюков,83.8,80,-95,-102.5,80,,80,100,B,Raw,No,,,,,,Open,18,1997-07-11
1,M,Aleksandr Knyazev,Александр Князев,119.8,145,150,155,155,,155,100+,B,Raw,No,,,,,,Open,18,1996-12-05
1,F,Irina Kuznetsova,Ирина Кузнецова,44.9,,,,,,85,67.5,D,Raw,No,70,75,85,85,,Open,16,1999-05-05
2,F,Anastasiya Marina,Анастасия Марина,57.6,,,,,,100,67.5,D,Raw,No,90,100,-105,100,,Open,14,2000-12-31
1,M,Aleksey Nikitashin,Алексей Никиташин,66.9,,,,,,160,67.5,D,Raw,No,140,160,-180,160,,Open,19,1996-01-19
2,M,Andrey Zhiganov,Андрей Жиганов,60,,,,,,110,67.5,D,Raw,No,90,100,110,110,,Open,17,1998-05-12
1,M,Vladislav Kologorov,Владислав Кологоров,80.4,,,,,,230,82.5,D,Raw,No,222.5,-227.5,230,230,,Open,20,1995-10-23
2,M,Vadim Vasyanin,Вадим Васянин,74.5,,,,,,200,82.5,D,Raw,No,180,-200,200,200,,Open,19,1996-03-29
3,M,Oleg Sorokin,Олег Сорокин,75.1,,,,,,200,82.5,D,Raw,No,200,-225,-230,200,,Open,19,1996-03-20
4,M,Dzhordzh Chakvetadze,Джордж Чакветадзе,82.5,,,,,,200,82.5,D,Raw,No,175,190,200,200,,Open,19,1995-11-10
5,M,Vladimir Vladimirov,Владимир Владимиров,81.1,,,,,,180,82.5,D,Raw,No,150,170,180,180,,Open,22,1993-04-30
6,M,Evgeniy Panteleev,Евгений Пантелеев,72.6,,,,,,105,82.5,D,Raw,No,90,105,-112.5,105,,Open,19,1996-02-04
1,M,Ruslan Shipitsyn,Руслан Шипицын,95.8,,,,,,260,100,D,Raw,No,260,,,260,,Open,23,1992-07-24
2,M,Kirill Eskin,Кирилл Еськин,88.9,,,,,,210,100,D,Raw,No,190,200,210,210,,Open,20,1995-09-06
3,M,Roman Kiselev,Роман Киселев,89.1,,,,,,180,100,D,Raw,No,170,180,-190,180,,Open,19,1995-11-12
4,M,Maksim Melnikov,Максим Мельников,91.2,,,,,,180,100,D,Raw,No,160,170,180,180,,Open,15,2000-02-21
5,M,Konstantin Zhilinskiy,Константин Жилинский,97.2,,,,,,170,100,D,Raw,No,150,160,170,170,,Open,18,1997-05-13
6,M,Dmitriy Mayorov,Дмитрий Майоров,84.6,,,,,,160,100,D,Raw,No,160,,,160,,Open,19,1996-06-13
7,M,Ivan Biryukov,Иван Бирюков,83.8,,,,,,155,100,D,Raw,No,120,-140,155,155,,Open,18,1997-07-11
8,M,Nikita Eliseev,Никита Елисеев,87.2,,,,,,150,100,D,Raw,No,100,130,150,150,,Open,18,1997-03-19
1,M,Aleksandr Knyazev,Александр Князев,119.8,,,,,,225,100+,D,Raw,No,210,220,225,225,,Open,18,1996-12-05
