Division,WeightClassKg,Place,Name,Team,BodyweightKg,Best3SquatKg,Best3BenchKg,Best3DeadliftKg,TotalKg,Equipment,Event,Sex
Boys,51.71,1,Jake Robertson,Clifton,50.98,127.01,79.38,129.27,335.66,Single-ply,SBD,M
Boys,51.71,2,Travis Lacina,Crawford,51.62,122.47,70.31,127.01,319.78,Single-ply,SBD,M
Boys,51.71,3,Cody Villa,Crawford,50.89,104.33,74.84,136.08,315.25,Single-ply,SBD,M
Boys,51.71,4,Miguel Contreras,Robinson,51.35,124.74,65.77,111.13,301.64,Single-ply,SBD,M
Boys,51.71,5,Austin Carter,Rio Vista,49.8,83.91,61.23,106.59,251.74,Single-ply,SBD,M
Boys,51.71,6,Sam Brock,China Spring,51.62,83.91,56.7,102.06,242.67,Single-ply,SBD,M
Boys,51.71,7,Colton Neimier,Crawford,41.64,95.25,47.63,97.52,240.4,Single-ply,SBD,M
Boys,51.71,8,Cody Clarkin,Whitney,44.09,74.84,31.75,88.45,195.04,Single-ply,SBD,M
Boys,51.71,9,Lance Pilant,Robinson,43.09,72.57,,70.31,142.88,Single-ply,SD,M
Boys,59.87,1,Tanner Blackwell,Gatesville,55.97,138.35,72.57,149.69,360.61,Single-ply,SBD,M
Boys,55.79,2,Jesus Tonche,Waco Connally,54.52,127.01,70.31,142.88,340.19,Single-ply,SBD,M
Boys,55.79,3,Michael Deak,Waco La Vega,55.07,122.47,61.23,136.08,319.78,Single-ply,SBD,M
Boys,55.79,4,Spencer Brown #4,Waco Reicher Catholic,55.61,79.38,79.38,102.06,260.82,Single-ply,SBD,M
Boys,55.79,5,Dylan Greene,Whitney,55.7,90.72,56.7,104.33,251.74,Single-ply,SBD,M
Boys,55.79,6,Calyn Frenzel,China Spring,55.07,79.38,45.36,104.33,229.06,Single-ply,SBD,M
Boys,59.87,1,Josh McCraw,Gatesville,58.69,195.04,99.79,181.44,476.27,Single-ply,SBD,M
Boys,59.87,2,Sean Gibson,Whitney,59.56,142.88,97.52,176.9,417.3,Single-ply,SBD,M
Boys,59.87,3,Jordan Smith #8,Valley Mills,58.6,154.22,90.72,140.61,385.55,Single-ply,SBD,M
Boys,59.87,4,Austin Gilbert,Whitney,59.78,133.81,77.11,161.03,371.95,Single-ply,SBD,M
Boys,67.13,5,Mike Owens,Milford,60.06,133.81,79.38,151.95,365.14,Single-ply,SBD,M
Boys,59.87,6,Brad Gravitt,China Spring,58.97,138.35,72.57,147.42,358.34,Single-ply,SBD,M
Boys,67.13,7,Roy Ward,Waco Reicher Catholic,60.06,147.42,65.77,136.08,349.27,Single-ply,SBD,M
Boys,67.13,8,Sebastian Allen,Valley Mills,60.06,136.08,65.77,136.08,337.93,Single-ply,SBD,M
Boys,59.87,9,Manuel Rodriguez #4,Robinson,58.24,127.01,72.57,127.01,326.59,Single-ply,SBD,M
Boys,59.87,10,Chip Espin,Axtell,59.33,120.2,68.04,136.08,324.32,Single-ply,SBD,M
Boys,59.87,11,Nelson Musgrave,Waco Connally,57.7,120.2,63.5,95.25,278.96,Single-ply,SBD,M
Boys,59.87,12,Harley Eldridge,Waco Connally,59.06,90.72,58.97,124.74,274.42,Single-ply,SBD,M
Boys,74.84,1,Chris Sosebee,Whitney,67.31,185.97,131.54,183.7,501.22,Single-ply,SBD,M
Boys,74.84,2,Jong Hoon Lim,Gatesville,67.31,181.44,117.93,195.04,494.42,Single-ply,SBD,M
Boys,74.84,3,Dakotta Thomas,Clifton,67.31,165.56,88.45,199.58,453.59,Single-ply,SBD,M
Boys,67.13,4,Hunter Work,Robinson,63.14,165.56,113.4,170.1,449.06,Single-ply,SBD,M
Boys,67.13,5,Lane Fikes,Robinson,66.9,158.76,97.52,185.97,442.25,Single-ply,SBD,M
Boys,67.13,6,Dylan Haralson,Axtell,66.5,176.9,83.91,170.1,430.91,Single-ply,SBD,M
Boys,67.13,7,Jesse Berry #1,Crawford,61.23,167.83,95.25,165.56,428.64,Single-ply,SBD,M
Boys,67.13,8,Micah Thompson,Gatesville,64.23,158.76,90.72,170.1,419.57,Single-ply,SBD,M
Boys,67.13,9,Ross Liles,China Spring,65.95,142.88,102.06,167.83,412.77,Single-ply,SBD,M
Boys,67.13,10,Mario Quintero,Clifton,62.69,156.49,83.91,154.22,394.63,Single-ply,SBD,M
Boys,67.13,11,Noah Contella,Waco Reicher Catholic,64.23,147.42,90.72,147.42,385.55,Single-ply,SBD,M
Boys,67.13,12,Zach Rankin,West,65.77,136.08,90.72,149.69,376.48,Single-ply,SBD,M
Boys,67.13,13,Jt Estes,Whitney,63.96,136.08,95.25,131.54,362.87,Single-ply,SBD,M
Boys,67.13,14,Seth Varga,West,64.5,131.54,81.65,149.69,362.87,Single-ply,SBD,M
Boys,67.13,15,Colton Reeves,Valley Mills,65.95,140.61,77.11,145.15,362.87,Single-ply,SBD,M
Boys,67.13,16,Hunter Solano,Waco Reicher Catholic,63.68,133.81,70.31,133.81,337.93,Single-ply,SBD,M
Boys,67.13,17,Jared Mocek,China Spring,66.22,108.86,81.65,129.27,319.78,Single-ply,SBD,M
Boys,67.13,18,Garret Michael,Whitney,65.32,115.67,56.7,142.88,315.25,Single-ply,SBD,M
Boys,67.13,19,Deontre Jackson,Robinson,64.86,115.67,72.57,124.74,312.98,Single-ply,SBD,M
Boys,67.13,20,Jacobe Essary,Milford,67.04,113.4,81.65,117.93,312.98,Single-ply,SBD,M
Boys,67.13,21,Lucas Ramsey,Meridian,63.41,120.2,65.77,124.74,310.71,Single-ply,SBD,M
Boys,67.13,22,Brady Barnett,Rio Vista,67.13,102.06,72.57,136.08,310.71,Single-ply,SBD,M
Boys,67.13,23,Jacob Smith,Meridian,64.14,106.59,56.7,145.15,308.44,Single-ply,SBD,M
Boys,67.13,24,Logan Sprabary,Milford,65.95,113.4,74.84,117.93,306.17,Single-ply,SBD,M
Boys,67.13,25,Zek Warren,West,67.13,120.2,65.77,113.4,299.37,Single-ply,SBD,M
Boys,67.13,26,Dalton Moore,Grandview,65.77,136.08,,147.42,283.5,Single-ply,SD,M
Boys,67.13,27,Blake Mathis,China Spring,63.78,79.38,52.16,115.67,247.21,Single-ply,SBD,M
Boys,74.84,1,Alex Leos,Robinson,70.76,240.4,138.35,226.8,605.55,Single-ply,SBD,M
Boys,74.84,2,Ramiro Fraire,West,73.39,188.24,102.06,190.51,480.81,Single-ply,SBD,M
Boys,74.84,3,Layne Crosthwaite,Clifton,70.94,183.7,104.33,183.7,471.74,Single-ply,SBD,M
Boys,74.84,4,Stephen Mitchell,Robinson,69.4,179.17,99.79,188.24,467.2,Single-ply,SBD,M
Boys,74.84,5,Chase McGhee,Gatesville,68.22,185.97,111.13,167.83,464.93,Single-ply,SBD,M
Boys,74.84,6,Cameron Terrell,Waco Connally,70.4,183.7,97.52,181.44,462.66,Single-ply,SBD,M
Boys,74.84,7,Jaen Lopez,Clifton,72.03,163.29,106.59,183.7,453.59,Single-ply,SBD,M
Boys,74.84,8,Dustin Murphy,Clifton,74.3,174.63,95.25,181.44,451.32,Single-ply,SBD,M
Boys,74.84,9,Jay Johnson,Waco Connally,72.3,170.1,102.06,170.1,442.25,Single-ply,SBD,M
Boys,82.1,10,Gage Hodges,Valley Mills,75.02,165.56,99.79,170.1,435.45,Single-ply,SBD,M
Boys,74.84,11,Kadale Kolar,West,71.67,154.22,97.52,170.1,421.84,Single-ply,SBD,M
Boys,74.84,12,Marco Castro,Waco Reicher Catholic,73.48,154.22,86.18,167.83,408.23,Single-ply,SBD,M
Boys,74.84,13,Edmond Martin,Axtell,68.49,158.76,74.84,172.37,405.97,Single-ply,SBD,M
Boys,74.84,14,Rodey Wiley,Axtell,74.03,167.83,90.72,145.15,403.7,Single-ply,SBD,M
Boys,74.84,15,Allen Scott,Gatesville,69.4,145.15,88.45,165.56,399.16,Single-ply,SBD,M
Boys,74.84,16,Ben Hernandez,Waco La Vega,73.3,129.27,68.04,181.44,378.75,Single-ply,SBD,M
Boys,74.84,17,Cole Brunett,Whitney,70.31,120.2,90.72,154.22,365.14,Single-ply,SBD,M
Boys,74.84,18,Matthew Weatherman,Crawford,74.48,136.08,79.38,147.42,362.87,Single-ply,SBD,M
Boys,74.84,19,Dillon McBride,Axtell,68.49,129.27,88.45,140.61,358.34,Single-ply,SBD,M
Boys,74.84,20,Logan Kilpatrick,Valley Mills,71.76,127.01,77.11,151.95,356.07,Single-ply,SBD,M
Boys,74.84,21,Levonte Owens,Robinson,73.21,133.81,61.23,124.74,319.78,Single-ply,SBD,M
Boys,82.1,1,Jeremy Seay,Meridian,76.84,208.65,138.35,217.72,564.72,Single-ply,SBD,M
Boys,82.1,2,Dustin McLearen,Gatesville,82.01,170.1,115.67,195.04,480.81,Single-ply,SBD,M
Boys,82.1,3,Matt Stephenson,China Spring,78.47,165.56,127.01,183.7,476.27,Single-ply,SBD,M
Boys,89.81,4,Darian Robinson,Waco Connally,82.19,183.7,117.93,167.83,469.47,Single-ply,SBD,M
Boys,82.1,5,Isaiah Gardea,Clifton,81.74,172.37,113.4,170.1,455.86,Single-ply,SBD,M
Boys,82.1,6,Aaron Dulus,Waco Connally,81.1,176.9,113.4,163.29,453.59,Single-ply,SBD,M
Boys,82.1,7,Jerrich Alford,Robinson,76.93,158.76,113.4,161.03,433.18,Single-ply,SBD,M
Boys,82.1,8,Dylan Connell,China Spring,81.19,142.88,92.99,185.97,421.84,Single-ply,SBD,M
Boys,82.1,9,Kenneth Collins,Valley Mills,80.56,158.76,86.18,163.29,408.23,Single-ply,SBD,M
Boys,82.1,10,Chris Dingrando,Whitney,78.2,154.22,92.99,151.95,399.16,Single-ply,SBD,M
Boys,82.1,11,Nick Moler,Gatesville,79.02,147.42,68.04,181.44,396.89,Single-ply,SBD,M
Boys,82.1,12,Matt Brown #7,Crawford,77.02,149.69,90.72,149.69,390.09,Single-ply,SBD,M
Boys,82.1,13,Kasey Kiphen,Gatesville,77.56,149.69,81.65,154.22,385.55,Single-ply,SBD,M
Boys,82.1,14,Zach Rogers,Valley Mills,77.93,140.61,83.91,161.03,385.55,Single-ply,SBD,M
Boys,82.1,15,Tanner Coone,Axtell,77.66,136.08,92.99,138.35,367.41,Single-ply,SBD,M
Boys,82.1,16,Nate Moenning,Crawford,80.29,136.08,83.91,136.08,356.07,Single-ply,SBD,M
Boys,82.1,17,Robert Branham,Waco Reicher Catholic,76.11,129.27,79.38,106.59,315.25,Single-ply,SBD,M
Boys,82.1,18,Matt Hernandez,Robinson,77.38,156.49,,142.88,299.37,Single-ply,SD,M
Boys,82.1,19,Ty Cross,Robinson,81.37,136.08,,151.95,288.03,Single-ply,SD,M
Boys,82.1,20,Kendall Wimberly,Whitney,81.47,,77.11,136.08,213.19,Single-ply,BD,M
Boys,89.81,1,Brody Jones,Crawford,87.82,242.67,142.88,206.38,591.94,Single-ply,SBD,M
Boys,89.81,2,Gerald Horne II,Waco La Vega,86.64,206.38,136.08,204.12,546.58,Single-ply,SBD,M
Boys,89.81,3,Chris Olsen,Crawford,84.28,204.12,117.93,204.12,526.17,Single-ply,SBD,M
Boys,89.81,4,Tyler Martinez,Axtell,83.82,192.78,97.52,195.04,485.34,Single-ply,SBD,M
Boys,89.81,5,Jarred Goedeke,Robinson,84.1,172.37,102.06,204.12,478.54,Single-ply,SBD,M
Boys,89.81,6,Zach Koenig,China Spring,87.27,181.44,117.93,172.37,471.74,Single-ply,SBD,M
Boys,89.81,7,Austin Wylie,Grandview,88.36,172.37,106.59,174.63,453.59,Single-ply,SBD,M
Boys,89.81,8,Caleb Gauer,China Spring,85.37,163.29,104.33,165.56,433.18,Single-ply,SBD,M
Boys,99.79,9,Dylan McDonald,Whitney,89.99,154.22,92.99,172.37,419.57,Single-ply,SBD,M
Boys,89.81,10,Jason Schmidt #1,Clifton,85.64,151.95,86.18,167.83,405.97,Single-ply,SBD,M
Boys,89.81,11,Kirk Regian,China Spring,86.27,136.08,95.25,147.42,378.75,Single-ply,SBD,M
Boys,89.81,12,Robert Perez,Waco Reicher Catholic,85.09,145.15,86.18,133.81,365.14,Single-ply,SBD,M
Boys,89.81,13,Chad Crawford,Meridian,84.55,174.63,106.59,,281.23,Single-ply,SB,M
Boys,89.81,14,Matt McNew,Robinson,85.73,,95.25,163.29,258.55,Single-ply,BD,M
Boys,89.81,15,Nate Ramirez,Whitney,88.13,,95.25,149.69,244.94,Single-ply,BD,M
Boys,89.81,16,Jordan McQuistion,Rio Vista,86.09,,56.7,158.76,215.46,Single-ply,BD,M
Boys,99.79,1,Chris Robinson #5,Waco Connally,94.71,215.46,127.01,219.99,562.45,Single-ply,SBD,M
Boys,99.79,2,Guadalupe Munoz,Waco La Vega,99.16,219.99,133.81,181.44,535.24,Single-ply,SBD,M
Boys,99.79,3,Matt Gerik,West,92.53,204.12,111.13,204.12,519.36,Single-ply,SBD,M
Boys,99.79,4,Anthony Manolakis,West,97.52,185.97,115.67,185.97,487.61,Single-ply,SBD,M
Boys,99.79,5,Jacob Skains,Axtell,92.9,179.17,102.06,195.04,476.27,Single-ply,SBD,M
Boys,99.79,6,Gerald Horne III,Waco La Vega,91.81,185.97,99.79,176.9,462.66,Single-ply,SBD,M
Boys,99.79,7,Vinny Tovar,Waco La Vega,98.61,172.37,113.4,149.69,435.45,Single-ply,SBD,M
Boys,99.79,8,Austin Brewer,Clifton,93.08,204.12,,226.8,430.91,Single-ply,SD,M
Boys,99.79,9,Tanner Nors,West,93.44,165.56,95.25,170.1,430.91,Single-ply,SBD,M
Boys,99.79,10,Ace Rurak,Grandview,99.16,154.22,102.06,170.1,426.38,Single-ply,SBD,M
Boys,99.79,11,Jacob Kevil,Crawford,91.17,149.69,92.99,172.37,415.04,Single-ply,SBD,M
Boys,99.79,12,Derrick McElreath,Rio Vista,95.89,136.08,102.06,170.1,408.23,Single-ply,SBD,M
Boys,99.79,13,Caleb Armstrong,Grandview,94.44,174.63,,176.9,351.53,Single-ply,SD,M
Boys,109.77,1,Hayden Houpt,Whitney,108.64,254.01,170.1,240.4,664.51,Single-ply,SBD,M
Boys,109.77,2,Josh Carroll,Waco La Vega,102.6,204.12,131.54,233.6,569.26,Single-ply,SBD,M
Boys,109.77,3,Ryan de la Garza,Waco Connally,106.32,233.6,122.47,204.12,560.19,Single-ply,SBD,M
Boys,109.77,4,Cyle Hickey,Crawford,107.5,208.65,117.93,226.8,553.38,Single-ply,SBD,M
Boys,109.77,5,Shane Sibila,Clifton,105.51,183.7,133.81,215.46,532.97,Single-ply,SBD,M
Boys,109.77,6,Chris Mullens,Clifton,109.13,181.44,131.54,204.12,517.1,Single-ply,SBD,M
Boys,109.77,7,Nick Maddox,Waco Reicher Catholic,100.24,172.37,108.86,199.58,480.81,Single-ply,SBD,M
Boys,109.77,8,Zak Hudspeth,Gatesville,109.23,181.44,108.86,174.63,464.93,Single-ply,SBD,M
Boys,109.77,9,Logan Willenborg,West,107.05,181.44,99.79,181.44,462.66,Single-ply,SBD,M
Boys,109.77,10,Blake Kasparian,Crawford,108.41,170.1,102.06,170.1,442.25,Single-ply,SBD,M
Boys,109.77,11,Colby Gohlke,Crawford,105.6,158.76,90.72,181.44,430.91,Single-ply,SBD,M
Boys,109.77,12,Aaron Davis,Clifton,109.13,158.76,92.99,158.76,410.5,Single-ply,SBD,M
Boys,109.77,13,Andrew Netherland,Robinson,104.33,154.22,97.52,147.42,399.16,Single-ply,SBD,M
Boys,109.77,14,Taylor Hooten,Robinson,105.78,127.01,79.38,154.22,360.61,Single-ply,SBD,M
Boys,109.77,15,D'Andra Minnitt,Waco La Vega,104.05,247.21,,,247.21,Single-ply,S,M
Boys,124.74,1,Colton Ridley,Gatesville,119.2,244.94,158.76,208.65,612.35,Single-ply,SBD,M
Boys,124.74,2,Dwight Holder,Waco La Vega,119.66,249.48,142.88,217.72,610.08,Single-ply,SBD,M
Boys,124.74,3,Garrett Evans,Clifton,116.48,233.6,147.42,222.26,603.28,Single-ply,SBD,M
Boys,124.74,4,Andy McNew,Robinson,118.48,226.8,136.08,206.38,569.26,Single-ply,SBD,M
Boys,124.74,5,Adam Chavez,Robinson,114.67,192.78,99.79,185.97,478.54,Single-ply,SBD,M
Boys,124.74,6,Brandon White #2,Axtell,124.01,181.44,99.79,192.78,474,Single-ply,SBD,M
Boys,124.74,7,Lucas Morales,Waco Reicher Catholic,121.11,163.29,97.52,190.51,451.32,Single-ply,SBD,M
Boys,124.74,8,William Willis,Grandview,123.01,174.63,113.4,158.76,446.79,Single-ply,SBD,M
Boys,124.74,9,Maunel Hernandez,Waco Reicher Catholic,111.95,172.37,120.2,142.88,435.45,Single-ply,SBD,M
Boys,124.74,10,Narcisco Molina,Waco Connally,124.47,161.03,95.25,142.88,399.16,Single-ply,SBD,M
Boys,124.74,11,Abram Villescaz,Waco Reicher Catholic,115.3,111.13,70.31,136.08,317.51,Single-ply,SBD,M
Boys,124.74+,1,Augie Hinojosa,Whitney,129.73,272.16,149.69,249.48,671.32,Single-ply,SBD,M
Boys,124.74+,2,Shane Murphy,Robinson,159.76,256.28,195.04,215.46,666.78,Single-ply,SBD,M
Boys,124.74+,3,Jessie Wilson,Whitney,136.98,249.48,181.44,231.33,662.24,Single-ply,SBD,M
Boys,124.74+,4,Tyler Swenson,Clifton,134.08,238.14,136.08,229.06,603.28,Single-ply,SBD,M
Boys,124.74+,5,Alan Singleton,Milford,181.44,226.8,147.42,192.78,566.99,Single-ply,SBD,M
Boys,,NS,Billy Manolakis,West,,,,,,Single-ply,SBD,M
Boys,,NS,Jefferson Monroe,Waco Reicher Catholic,,,,,,Single-ply,SBD,M
