Division,WeightClassKg,Place,Name,Team,BodyweightKg,Best3SquatKg,Best3BenchKg,Best3DeadliftKg,TotalKg,Equipment,Event,Sex
Boys,51.71,1,Andres Guerra,Manor,49.9,92.99,56.7,129.27,278.96,Single-ply,SBD,M
Boys,51.71,2,Connor Ruchti,Dripping Springs,51.53,92.99,58.97,120.2,272.16,Single-ply,SBD,M
Boys,51.71,3,Colby Williamson,Troy,50.8,102.06,54.43,108.86,265.35,Single-ply,SBD,M
Boys,51.71,4,Jeovanny Navarro,Rockdale,51.71,81.65,61.23,115.67,258.55,Single-ply,SBD,M
Boys,51.71,5,Zane Timpson,Smithville,51.44,77.11,56.7,108.86,242.67,Single-ply,SBD,M
Boys,55.79,1,Noah Pachicano,Taylor,53.52,185.97,102.06,165.56,453.59,Single-ply,SBD,M
Boys,55.79,2,Therrance Soto,San Marcos,55.52,142.88,77.11,161.03,381.02,Single-ply,SBD,M
Boys,55.79,3,Joe-Angel Carpenter,Troy,53.52,147.42,74.84,156.49,378.75,Single-ply,SBD,M
Boys,55.79,4,Christian Lopez,Manor,55.34,113.4,97.52,151.95,362.87,Single-ply,SBD,M
Boys,55.79,5,Michael Oster,Troy,54.43,136.08,68.04,136.08,340.19,Single-ply,SBD,M
Boys,55.79,6,Kaleb Halfmann,Austin Lake Travis,54.98,83.91,52.16,113.4,249.48,Single-ply,SBD,M
Boys,55.79,7,Chris Guerrero,Del Valle,53.07,74.84,52.16,113.4,240.4,Single-ply,SBD,M
Boys,59.87,1,Leonardo Calderon,San Marcos,58.97,183.7,124.74,183.7,492.15,Single-ply,SBD,M
Boys,59.87,2,Nathaniel Burnett,Lockhart,57.61,154.22,102.06,188.24,444.52,Single-ply,SBD,M
Boys,59.87,3,Trevor Koestens,Troy,59.69,163.29,95.25,165.56,424.11,Single-ply,SBD,M
Boys,59.87,4,Shawnpail Fields,Taylor,58.97,158.76,74.84,183.7,417.3,Single-ply,SBD,M
Boys,59.87,5,Jajuan Singleton,Elgin,58.69,136.08,74.84,154.22,365.14,Single-ply,SBD,M
Boys,59.87,6,Zyle Nance,Dripping Springs,59.87,142.88,68.04,154.22,365.14,Single-ply,SBD,M
Boys,59.87,7,Daequan Ellison,Lockhart,56.7,147.42,70.31,145.15,362.87,Single-ply,SBD,M
Boys,59.87,8,Chad Adams,Giddings,59.69,136.08,77.11,136.08,349.27,Single-ply,SBD,M
Boys,59.87,9,Isaac Trejo,San Marcos,56.25,115.67,72.57,129.27,317.51,Single-ply,SBD,M
Boys,59.87,10,Josh Muniga,Geronimo Navarro,58.06,113.4,68.04,113.4,294.84,Single-ply,SBD,M
Boys,59.87,11,Reece Anderson,Austin Lake Travis,59.33,97.52,72.57,117.93,288.03,Single-ply,SBD,M
Boys,59.87,12,Omar Deloera,Pflugerville,58.06,97.52,61.23,113.4,272.16,Single-ply,SBD,M
Boys,59.87,13,Robert Peavy,Smithville,56.7,61.23,49.9,86.18,197.31,Single-ply,SBD,M
Boys,67.13,1,Isaiah Mesa,Taylor,64.41,226.8,129.27,233.6,589.67,Single-ply,SBD,M
Boys,67.13,2,Josh Tiha,Manor,63.05,208.65,104.33,226.8,539.77,Single-ply,SBD,M
Boys,67.13,3,Sergio Gonzalez,Troy,66.68,183.7,106.59,192.78,483.08,Single-ply,SBD,M
Boys,67.13,4,Sammy Muniz,San Marcos,64.41,167.83,88.45,215.46,471.74,Single-ply,SBD,M
Boys,67.13,5,Happy Jones,Manor,65.77,192.78,90.72,181.44,464.93,Single-ply,SBD,M
Boys,67.13,6,Chris Velazquez,Geronimo Navarro,66.77,183.7,108.86,165.56,458.13,Single-ply,SBD,M
Boys,67.13,7,Christian Alvarez #1,San Marcos,66.68,174.63,90.72,174.63,439.98,Single-ply,SBD,M
Boys,67.13,8,Raul Arizola,Smithville,64.86,147.42,102.06,161.03,410.5,Single-ply,SBD,M
Boys,67.13,9,Trey Motyka,Smithville,64.41,149.69,90.72,154.22,394.63,Single-ply,SBD,M
Boys,67.13,10,Seth Cummings,Pflugerville Hendrickson,66.5,151.95,79.38,156.49,387.82,Single-ply,SBD,M
Boys,67.13,11,Stephen Leal,Taylor,63.05,129.27,83.91,154.22,367.41,Single-ply,SBD,M
Boys,67.13,12,Jared Smith,Bastrop,67.13,122.47,83.91,151.95,358.34,Single-ply,SBD,M
Boys,67.13,13,Charles Daniel,Del Valle,62.14,124.74,74.84,138.35,337.93,Single-ply,SBD,M
Boys,67.13,14,Alexander Osborne,Austin Lake Travis,63.96,129.27,72.57,127.01,328.85,Single-ply,SBD,M
Boys,67.13,15,Tanner Williams,Smithville,65.77,113.4,72.57,142.88,328.85,Single-ply,SBD,M
Boys,67.13,16,Sutton Lindsley,Bastrop,62.6,108.86,92.99,117.93,319.78,Single-ply,SBD,M
Boys,67.13,17,Jose Young,Rockdale,63.5,111.13,65.77,142.88,319.78,Single-ply,SBD,M
Boys,67.13,18,Josh Estes,Troy,62.6,104.33,65.77,147.42,317.51,Single-ply,SBD,M
Boys,67.13,19,Jesau Batres,Lockhart,60.24,124.74,58.97,124.74,308.44,Single-ply,SBD,M
Boys,67.13,20,Cole Cavender,Dripping Springs,61.23,113.4,68.04,127.01,308.44,Single-ply,SBD,M
Boys,67.13,21,Xavier Elizondo,Pflugerville Connally,60.69,106.59,54.43,140.61,301.64,Single-ply,SBD,M
Boys,67.13,22,Copeland Gothard,Austin Lake Travis,63.05,102.06,70.31,115.67,288.03,Single-ply,SBD,M
Boys,67.13,23,Graham Sherrill,Smithville,65.77,92.99,52.16,120.2,265.35,Single-ply,SBD,M
Boys,67.13,DQ,Matthew Reiff,Pflugerville,64.86,161.03,,,,Single-ply,SBD,M
Boys,74.84,1,Matthew Kocian,Taylor,73.48,226.8,120.2,215.46,562.45,Single-ply,SBD,M
Boys,74.84,2,Zach Reid,Dripping Springs,71.21,206.38,142.88,206.38,555.65,Single-ply,SBD,M
Boys,74.84,3,Prescott Remington,Dripping Springs,72.57,190.51,136.08,208.65,535.24,Single-ply,SBD,M
Boys,74.84,4,Andrew Wyatt,Smithville,73.03,172.37,129.27,197.31,498.95,Single-ply,SBD,M
Boys,74.84,5,William Reyna,Geronimo Navarro,73.94,181.44,113.4,204.12,498.95,Single-ply,SBD,M
Boys,74.84,6,Kevin Cervantes,Elgin,73.84,170.1,127.01,192.78,489.88,Single-ply,SBD,M
Boys,74.84,7,Jared Cooper,Geronimo Navarro,71.21,183.7,106.59,183.7,474,Single-ply,SBD,M
Boys,74.84,8,Christian Yannis,Taylor,73.48,174.63,86.18,210.92,471.74,Single-ply,SBD,M
Boys,74.84,9,Steven Crenshaw,Pflugerville Connally,69.4,149.69,97.52,181.44,428.64,Single-ply,SBD,M
Boys,74.84,10,Euler de Leon,Geronimo Navarro,72.12,158.76,97.52,172.37,428.64,Single-ply,SBD,M
Boys,74.84,11,Stryker Black,Troy,73.48,158.76,102.06,167.83,428.64,Single-ply,SBD,M
Boys,74.84,12,Alex Vargas,Del Valle,67.86,151.95,102.06,170.1,424.11,Single-ply,SBD,M
Boys,74.84,13,Juan Venegas,Dripping Springs,72.12,151.95,108.86,161.03,421.84,Single-ply,SBD,M
Boys,74.84,14,Camryn Higgins,Bastrop,74.39,158.76,92.99,170.1,421.84,Single-ply,SBD,M
Boys,74.84,15,Jesus Alfaro,Bastrop,73.48,138.35,99.79,170.1,408.23,Single-ply,SBD,M
Boys,74.84,16,TJ Eldridge,Pflugerville Hendrickson,73.94,142.88,92.99,170.1,405.97,Single-ply,SBD,M
Boys,74.84,17,Travis Gebert,Pflugerville,69.4,111.13,88.45,129.27,328.85,Single-ply,SBD,M
Boys,74.84,18,Charlie Cross,Austin Lake Travis,69.4,88.45,70.31,115.67,274.42,Single-ply,SBD,M
Boys,74.84,DQ,Jaden Moreno,Pflugerville Connally,70.31,,,,,Single-ply,SBD,M
Boys,82.1,1,Matt Hemphill,Dripping Springs,81.19,240.4,158.76,226.8,625.96,Single-ply,SBD,M
Boys,82.1,2,Michael Joseph,Elgin,79.02,208.65,113.4,204.12,526.17,Single-ply,SBD,M
Boys,82.1,3,Jacob Gonzales,Lockhart,80.74,197.31,106.59,210.92,514.83,Single-ply,SBD,M
Boys,82.1,4,Nick Lelii,Lockhart,78.47,167.83,115.67,188.24,471.74,Single-ply,SBD,M
Boys,82.1,5,Tyler Law,Geronimo Navarro,81.47,174.63,99.79,183.7,458.13,Single-ply,SBD,M
Boys,82.1,6,Courtney Lee #1,Manor,79.38,156.49,92.99,199.58,449.06,Single-ply,SBD,M
Boys,82.1,7,Brandon Doty,Pflugerville Hendrickson,78.47,156.49,102.06,183.7,442.25,Single-ply,SBD,M
Boys,82.1,8,Sammy Segura,Giddings,81.19,181.44,102.06,154.22,437.72,Single-ply,SBD,M
Boys,82.1,9,Tamorian Moore,Del Valle,80.74,142.88,108.86,172.37,424.11,Single-ply,SBD,M
Boys,82.1,10,Chermez Hall,Del Valle,81.28,142.88,92.99,181.44,417.3,Single-ply,SBD,M
Boys,82.1,11,Hank Taylor,Dripping Springs,80.29,147.42,102.06,154.22,403.7,Single-ply,SBD,M
Boys,82.1,12,Clayton Pitts,Troy,75.75,142.88,92.99,161.03,396.89,Single-ply,SBD,M
Boys,82.1,13,Michael Cantu,Troy,76.66,140.61,102.06,142.88,385.55,Single-ply,SBD,M
Boys,82.1,14,Cody Arbogast,Elgin,79.83,136.08,74.84,167.83,378.75,Single-ply,SBD,M
Boys,82.1,15,Cody Smith,Giddings,80.74,154.22,74.84,142.88,371.95,Single-ply,SBD,M
Boys,82.1,16,Jude Dennis,Bastrop,78.93,138.35,74.84,154.22,367.41,Single-ply,SBD,M
Boys,82.1,17,Darren Pierson,Pflugerville Connally,76.2,131.54,72.57,136.08,340.19,Single-ply,SBD,M
Boys,82.1,18,Deagan Oosse,Troy,75.75,120.2,61.23,142.88,324.32,Single-ply,SBD,M
Boys,82.1,19,Ridie Meraz,Rockdale,78.93,124.74,61.23,129.27,315.25,Single-ply,SBD,M
Boys,82.1,DQ,Preston Ruess,Pflugerville,80.29,163.29,,,,Single-ply,SBD,M
Boys,82.1,DQ,Amir Wiley,Pflugerville,79.38,147.42,79.38,,,Single-ply,SBD,M
Boys,89.81,1,Prudy Calderon,San Marcos,86.64,226.8,124.74,272.16,623.69,Single-ply,SBD,M
Boys,89.81,2,Jared Leal,Geronimo Navarro,88.9,238.14,127.01,258.55,623.69,Single-ply,SBD,M
Boys,89.81,3,Greg Rivera,Lockhart,83.01,190.51,129.27,240.4,560.19,Single-ply,SBD,M
Boys,89.81,4,Rene Velasquez,San Marcos,85.73,208.65,131.54,190.51,530.7,Single-ply,SBD,M
Boys,89.81,5,Trey Bishop,Pflugerville Connally,87.54,172.37,133.81,206.38,512.56,Single-ply,SBD,M
Boys,89.81,6,Shane Buckingham,Taylor,85.28,217.72,102.06,190.51,510.29,Single-ply,SBD,M
Boys,89.81,7,Peyton Blake,Elgin,85.09,197.31,111.13,192.78,501.22,Single-ply,SBD,M
Boys,89.81,8,Dalton Tobola,Bastrop,84.37,183.7,106.59,204.12,494.42,Single-ply,SBD,M
Boys,89.81,9,Emeka Esquanie,Manor,85.28,165.56,88.45,204.12,458.13,Single-ply,SBD,M
Boys,89.81,10,Tajha Brooks,Manor,88.9,174.63,88.45,192.78,455.86,Single-ply,SBD,M
Boys,89.81,11,Matt Rodriguez,Elgin,86.09,158.76,111.13,174.63,444.52,Single-ply,SBD,M
Boys,89.81,12,Sebastian Rodriguez,Pflugerville Hendrickson,86.18,151.95,106.59,179.17,437.72,Single-ply,SBD,M
Boys,89.81,13,Terrion Brown,Manor,87.54,149.69,102.06,183.7,435.45,Single-ply,SBD,M
Boys,89.81,14,Vicent Ume-Ezeoke,Pflugerville,89.63,163.29,102.06,165.56,430.91,Single-ply,SBD,M
Boys,89.81,15,Chris Harvey,Elgin,83.73,151.95,95.25,179.17,426.38,Single-ply,SBD,M
Boys,89.81,16,Logan Gaskey,Bastrop,86.64,147.42,86.18,167.83,401.43,Single-ply,SBD,M
Boys,89.81,17,Cory Alcala,Pflugerville Connally,83.01,147.42,104.33,147.42,399.16,Single-ply,SBD,M
Boys,89.81,18,Ryan Strobel,Pflugerville,87.54,151.95,92.99,151.95,396.89,Single-ply,SBD,M
Boys,89.81,19,Jarron Lewis,Pflugerville Connally,88.9,138.35,86.18,142.88,367.41,Single-ply,SBD,M
Boys,89.81,DQ,Landen Brown,Lockhart,89.81,,,,,Single-ply,SBD,M
Boys,99.79,1,Olisa Uzuegbunam,Manor,93.44,244.94,142.88,235.87,623.69,Single-ply,SBD,M
Boys,99.79,2,Reid Bacon,Austin Lake Travis,96.62,208.65,145.15,224.53,578.33,Single-ply,SBD,M
Boys,99.79,3,Jason Allen,Taylor,98.88,222.26,136.08,219.99,578.33,Single-ply,SBD,M
Boys,99.79,4,Ochaun Mathis,Manor,97.07,197.31,124.74,244.94,566.99,Single-ply,SBD,M
Boys,99.79,5,Devin Gregory,Pflugerville Hendrickson,98.88,188.24,115.67,226.8,530.7,Single-ply,SBD,M
Boys,99.79,6,RJ Petaia,Pflugerville,93.44,183.7,133.81,190.51,508.02,Single-ply,SBD,M
Boys,99.79,7,Rawson Young,Geronimo Navarro,91.17,176.9,122.47,199.58,498.95,Single-ply,SBD,M
Boys,99.79,8,Jerome Wreh,Elgin,91.35,183.7,102.06,204.12,489.88,Single-ply,SBD,M
Boys,99.79,9,Harley Franklin,Elgin,93.89,170.1,95.25,204.12,469.47,Single-ply,SBD,M
Boys,99.79,10,Malachi Gonzales,Giddings,95.71,158.76,104.33,167.83,430.91,Single-ply,SBD,M
Boys,99.79,11,John Christophe,Pflugerville Hendrickson,93.44,165.56,92.99,156.49,415.04,Single-ply,SBD,M
Boys,99.79,12,Hunter Robertson,Pflugerville Hendrickson,99.79,156.49,88.45,156.49,401.43,Single-ply,SBD,M
Boys,99.79,13,Isaias Gonzalez,Del Valle,91.63,138.35,83.91,165.56,387.82,Single-ply,SBD,M
Boys,99.79,14,Xavier Acosta,Del Valle,97.07,142.88,97.52,147.42,387.82,Single-ply,SBD,M
Boys,99.79,15,Christian Marmolejo,San Marcos,97.52,142.88,77.11,163.29,383.29,Single-ply,SBD,M
Boys,99.79,16,John McKee,Pflugerville Connally,92.99,145.15,77.11,142.88,365.14,Single-ply,SBD,M
Boys,99.79,17,Brian Ortiz,Del Valle,92.53,111.13,97.52,151.95,360.61,Single-ply,SBD,M
Boys,99.79,18,Chris Rivera,Pflugerville Connally,92.99,131.54,72.57,142.88,347,Single-ply,SBD,M
Boys,99.79,DQ,Alex Falcon,Troy,98.43,238.14,,,,Single-ply,SBD,M
Boys,109.77,1,Jose Hernandez #5,San Marcos,108.86,285.76,158.76,244.94,689.46,Single-ply,SBD,M
Boys,109.77,2,Matthew Herrera,Austin Lake Travis,106.59,249.48,142.88,222.26,614.62,Single-ply,SBD,M
Boys,109.77,3,Kade Langston,Austin Lake Travis,102.97,213.19,161.03,210.92,585.13,Single-ply,SBD,M
Boys,109.77,4,Colton Barnett,Geronimo Navarro,104.33,215.46,131.54,231.33,578.33,Single-ply,SBD,M
Boys,109.77,5,Greg Rivas,Bastrop,106.59,199.58,124.74,226.8,551.11,Single-ply,SBD,M
Boys,109.77,6,Jace Chambers,Pflugerville Hendrickson,108.41,201.85,117.93,226.8,546.58,Single-ply,SBD,M
Boys,109.77,7,Jeremy Fowler,Manor,105.23,183.7,113.4,226.8,523.9,Single-ply,SBD,M
Boys,109.77,8,Rey Sanchez,Pflugerville Hendrickson,102.97,204.12,106.59,210.92,521.63,Single-ply,SBD,M
Boys,109.77,9,Andrew Salem,Austin Lake Travis,106.14,170.1,142.88,192.78,505.76,Single-ply,SBD,M
Boys,109.77,10,Braxton Moore,Rockdale,107.5,199.58,120.2,185.97,505.76,Single-ply,SBD,M
Boys,109.77,11,Wade Smith,Giddings,105.23,197.31,117.93,183.7,498.95,Single-ply,SBD,M
Boys,109.77,12,Brayan Carrera,Del Valle,104.33,183.7,104.33,199.58,487.61,Single-ply,SBD,M
Boys,109.77,13,David Sillero,Lockhart,106.59,183.7,138.35,165.56,487.61,Single-ply,SBD,M
Boys,109.77,14,Daniel Villalobos,Taylor,107.5,185.97,113.4,174.63,474,Single-ply,SBD,M
Boys,109.77,15,John Navejas,Elgin,106.87,149.69,106.59,192.78,449.06,Single-ply,SBD,M
Boys,109.77,16,Logan Till,Lockhart,103.87,167.83,108.86,167.83,444.52,Single-ply,SBD,M
Boys,109.77,17,Trace Lopez,Taylor,103.87,158.76,90.72,151.95,401.43,Single-ply,SBD,M
Boys,109.77,18,Jose Fuentes,Smithville,103.87,136.08,106.59,151.95,394.63,Single-ply,SBD,M
Boys,109.77,19,Osmany Diaz,Pflugerville Connally,107.5,120.2,86.18,136.08,342.46,Single-ply,SBD,M
Boys,124.74,1,Roman Ruiz,Lockhart,123.83,276.69,181.44,263.08,721.21,Single-ply,SBD,M
Boys,124.74,2,Ramsey Tijerina,San Marcos,113.4,251.74,142.88,238.14,632.76,Single-ply,SBD,M
Boys,124.74,3,Kaleb Barho,Smithville,117.93,244.94,151.95,226.8,623.69,Single-ply,SBD,M
Boys,124.74,4,Dylan Sillero,San Marcos,119.75,260.82,142.88,219.99,623.69,Single-ply,SBD,M
Boys,124.74,5,Terry Cook,Elgin,113.31,235.87,129.27,249.48,614.62,Single-ply,SBD,M
Boys,124.74,6,Tyler Howard,Geronimo Navarro,124.19,238.14,142.88,226.8,607.81,Single-ply,SBD,M
Boys,124.74,7,Eliel Salazar,Elgin,115.21,229.06,129.27,226.8,585.13,Single-ply,SBD,M
Boys,124.74,8,Richard Rogers,Giddings,111.13,238.14,120.2,210.92,569.26,Single-ply,SBD,M
Boys,124.74,9,Jake Williamson,Dripping Springs,112.94,199.58,122.47,217.72,539.77,Single-ply,SBD,M
Boys,124.74,10,Andrew Diver,Rockdale,117.93,213.19,131.54,181.44,526.17,Single-ply,SBD,M
Boys,124.74,11,Lantz Milam,Dripping Springs,117.93,197.31,127.01,190.51,514.83,Single-ply,SBD,M
Boys,124.74,12,Walker Riley,Pflugerville Hendrickson,113.85,197.31,111.13,197.31,505.76,Single-ply,SBD,M
Boys,124.74,13,Ethan Psencik,Smithville,110.22,145.15,108.86,163.29,417.3,Single-ply,SBD,M
Boys,124.74,DQ,JaQuan Thomas,Giddings,124.74,,,,,Single-ply,SBD,M
Boys,124.74,DQ,Lazaro Menedez,Pflugerville Connally,111.13,,,,,Single-ply,SBD,M
Boys,124.74+,1,Marquis Gardner,Manor,153.31,340.19,170.1,226.8,737.09,Single-ply,SBD,M
Boys,124.74+,2,Dominic Pastucci,Pflugerville Hendrickson,133.81,265.35,161.03,256.28,682.66,Single-ply,SBD,M
Boys,124.74+,3,Anthony Hill,Manor,181.44,238.14,124.74,226.8,589.67,Single-ply,SBD,M
Boys,124.74+,4,Miguel Jaime,Dripping Springs,135.62,244.94,127.01,204.12,576.06,Single-ply,SBD,M
Boys,124.74+,5,Garrett Dietert,Geronimo Navarro,127.46,240.4,129.27,199.58,569.26,Single-ply,SBD,M
Boys,124.74+,6,Sam Molina,Rockdale,149.23,204.12,145.15,199.58,548.85,Single-ply,SBD,M
Boys,124.74+,7,Josh Mayo,Elgin,132.63,192.78,129.27,215.46,537.51,Single-ply,SBD,M
Boys,124.74+,8,Chris Sifuentes,Giddings,128.82,206.38,111.13,181.44,498.95,Single-ply,SBD,M
Boys,124.74+,9,Jake McCabe,Austin Lake Travis,128.82,181.44,120.2,197.31,498.95,Single-ply,SBD,M
Boys,124.74+,10,Brok Garcia,Smithville,136.08,147.42,79.38,136.08,362.87,Single-ply,SBD,M
Boys,124.74+,DQ,Cameron Fontz,Troy,125.65,,,,,Single-ply,SBD,M
