Place,Sex,Name,CyrillicName,BodyweightKg,Country,Squat1Kg,Squat2Kg,Squat3Kg,Best3SquatKg,Squat4Kg,Bench1Kg,Bench2Kg,Bench3Kg,Best3BenchKg,Bench4Kg,Deadlift1Kg,Deadlift2Kg,Deadlift3Kg,Best3DeadliftKg,Deadlift4Kg,TotalKg,WeightClassKg,Event,Equipment,Tested,Division,Age,BirthDate
1,F,Irina Aleksandrova,Ирина Александрова,47.3,Russia,75,80,82.5,82.5,,37.5,40,42.5,42.5,,70,75,77.5,77.5,,202.5,48,SBD,Raw,Yes,Amateur Juniors 20-23,20,2000-05-26
2,F,Kseniya Guseva,Ксения Гусева,47.2,Russia,72.5,77.5,-80,77.5,,35,-40,40,40,,70,77.5,82.5,82.5,,200,48,SBD,Raw,Yes,Amateur Juniors 20-23,20,2000-06-20
1,F,Olga Uglova,Ольга Углова,49.9,Russia,75,82.5,-90,82.5,,40,-45,-45,40,,115,125,127.5,127.5,,250,52,SBD,Raw,Yes,Amateur Juniors 20-23,20,1999-12-17
1,F,Anna Mamont,Анна Мамонт,51.7,Russia,90,95,100,100,,55,60,65,65,,120,130,135,135,,300,52,SBD,Raw,Yes,Amateur Open,27,1993-06-11
2,F,Lyudmila Savina,Людмила Савина,51.3,Russia,90,100,105,105,,50,55,-57.5,55,,110,120,-125,120,,280,52,SBD,Raw,Yes,Amateur Open,35,1985-10-11
3,F,Tatyana Khoruzhina,Татьяна Хоружина,51.4,Russia,70,75,80,80,,40,-42.5,-42.5,40,,90,100,110,110,,230,52,SBD,Raw,Yes,Amateur Open,26,1994-06-22
1,F,Elena Avdeeva,Елена Авдеева,55.6,Russia,72.5,77.5,82.5,82.5,,50,52.5,55,55,,100,110,120,120,,257.5,56,SBD,Raw,Yes,Amateur Open,38,1982-02-17
1,F,Zinaida Rudenko,Зинаида Руденко,57.8,Russia,85,90,95,95,,-55,55,-57.5,55,,125,135,-140,135,,285,60,SBD,Raw,Yes,Amateur Open,45,1975-09-07
2,F,Aleksandra Ivanova,Александра Иванова,58.2,Russia,-90,90,95,95,,52.5,55,-57.5,55,,90,-97.5,105,105,,255,60,SBD,Raw,Yes,Amateur Open,29,1991-05-12
3,F,Ekaterina Dityakina,Екатерина Дитякина,58.6,Russia,70,80,-85,80,,40,-45,50,50,,90,100,105,105,,235,60,SBD,Raw,Yes,Amateur Open,25,1995-07-25
1,F,Darya Semykina,Дарья Семыкина,66.8,Russia,120,125,130,130,,62.5,67.5,70,70,,120,125,130,130,,330,67.5,SBD,Raw,Yes,Amateur Sub-Juniors 17-19,19,2001-03-03
1,F,Viktoriya Bryakkieva,Виктория Бряккиева,65.7,Russia,130,140,145,145,,75,80,-82.5,80,,140,150,155,155,,380,67.5,SBD,Raw,Yes,Amateur Open,39,1981-07-26
2,F,Ekaterina Chernysheva,Екатерина Чернышева,62.5,Russia,-110,110,-117.5,110,,62.5,67.5,-72.5,67.5,,115,120,-125,120,,297.5,67.5,SBD,Raw,Yes,Amateur Open,44,1976-02-10
3,F,Darya Malinovskaya,Дарья Малиновская,64.8,Russia,102.5,107.5,-110,107.5,,50,55,-57.5,55,,105,110,117.5,117.5,,280,67.5,SBD,Raw,Yes,Amateur Open,24,1996-08-23
1,F,Margarita Yunusova,Маргарита Юнусова,73.3,Russia,100,-105,105,105,,55,60,62.5,62.5,,130,135,140,140,,307.5,75,SBD,Raw,Yes,Amateur Open,32,1988-04-13
1,F,Natalya Knyazeva,Наталья Князева,74.7,Russia,90,-97.5,97.5,97.5,,55,60,,60,,135,,,135,,292.5,75,SBD,Raw,Yes,Amateur Masters 50-59,50,1970-07-16
1,F,Anna Popova,Анна Попова,81.5,Russia,130,-140,-140,130,,-62.5,62.5,67.5,67.5,,130,140,-145,140,,337.5,82.5,SBD,Raw,Yes,Amateur Juniors 20-23,22,1998-03-08
1,F,Anna Popova,Анна Попова,81.5,Russia,130,-140,-140,130,,-62.5,62.5,67.5,67.5,,130,140,-145,140,,337.5,82.5,SBD,Raw,Yes,Amateur Open,22,1998-03-08
2,F,Elena Baleeva,Елена Балеева,82.3,Russia,100,107.5,112.5,112.5,,65,70,-75,70,,110,120,125,125,,307.5,82.5,SBD,Raw,Yes,Amateur Open,37,1983-05-03
1,M,Nikita Savelev,Никита Савельев,65.2,Russia,130,140,150,150,,105,112.5,117.5,117.5,,150,160,170,170,,437.5,67.5,SBD,Raw,Yes,Amateur Sub-Juniors 17-19,18,2001-11-30
1,M,Aleksandr Osinovskiy,Александр Осиновский,72.9,Russia,170,177.5,182.5,182.5,,130,137.5,-142.5,137.5,,190,200,207.5,207.5,,527.5,75,SBD,Raw,Yes,Amateur Open,29,1991-07-18
2,M,Aleksandr Sevastov,Александр Севастов,73.7,Russia,130,140,150,150,,100,110,115,115,,160,-175,175,175,,440,75,SBD,Raw,Yes,Amateur Open,31,1989-06-28
1,M,Viktor Ezerskiy,Виктор Езерский,73.7,Russia,130,135,145,145,,110,115,117.5,117.5,,160,172.5,182.5,182.5,,445,75,SBD,Raw,Yes,Amateur Masters 40-49,41,1979-06-08
DQ,M,Artyom Parykin,Артём Парыкин,81.4,Russia,-150,-160,-160,,,,,,,,,,,,,,82.5,SBD,Raw,Yes,Amateur Open,40,1979-11-11
DQ,M,Ilya Klimanov,Илья Климанов,82.5,Russia,-160,-165,-165,,,,,,,,,,,,,,82.5,SBD,Raw,Yes,Amateur Open,28,1992-09-24
DQ,M,Sergey Batrakov,Сергей Батраков,82.5,Russia,-120,-125,-125,,,,,,,,,,,,,,82.5,SBD,Raw,Yes,Amateur Masters 60-69,64,1956-07-06
1,M,Igor Burun,Игорь Бурун,88,Russia,170,185,-190,185,,130,140,-142.5,140,,-205,222.5,-225,222.5,,547.5,90,SBD,Raw,Yes,Amateur Open,30,1990-11-07
2,M,Dmitriy Egorov,Дмитрий Егоров,89.6,Russia,170,180,190,190,,120,130,-135,130,,200,215,-225,215,,535,90,SBD,Raw,Yes,Amateur Open,31,1989-01-07
3,M,Leonid Belopolskiy,Леонид Белопольский,89.9,Russia,160,175,185,185,,130,135,-140,135,,200,215,-227.5,215,,535,90,SBD,Raw,Yes,Amateur Open,25,1995-06-23
4,M,Maksim Evmushkov,Максим Евмушков,88.7,Russia,180,190,-200,190,,140,150,-160,150,,190,-207.5,-207.5,190,,530,90,SBD,Raw,Yes,Amateur Open,37,1983-05-15
5,M,Anton Kucherovets,Антон Кучеровец,88.4,Russia,160,170,-175,170,,130,137.5,140,140,,200,215,-225,215,,525,90,SBD,Raw,Yes,Amateur Open,28,1992-09-02
6,M,Gleb Roshchin,Глеб Рощин,88.9,Russia,160,-170,170,170,,120,130,135,135,,170,-182.5,,170,,475,90,SBD,Raw,Yes,Amateur Open,25,1995-08-31
DQ,M,Vladimir Bolshakov,Владимир Большаков,87.9,Russia,-150,-165,-165,,,,,,,,,,,,,,90,SBD,Raw,Yes,Amateur Open,32,1988-06-27
1,M,Nikolay Ryakhin,Николай Ряхин,87.7,Russia,-150,150,170,170,,100,110,115,115,,190,205,215,215,,500,90,SBD,Raw,Yes,Amateur Masters 50-59,55,1965-01-25
1,M,Andrey Yuroev,Андрей Юроев,96.1,Russia,-200,-210,220,220,,140,150,160,160,,220,235,245,245,,625,100,SBD,Raw,Yes,Amateur Open,40,1980-10-30
2,M,Ilya Melnichenko,Илья Мельниченко,100,Russia,-180,-190,190,190,,165,170,175,175,,-220,230,235,235,,600,100,SBD,Raw,Yes,Amateur Open,30,1990-09-12
3,M,Andrey Ilin,Андрей Ильин,98.8,Russia,195,205,210,210,,-135,135,140,140,,215,-227.5,227.5,227.5,,577.5,100,SBD,Raw,Yes,Amateur Open,32,1988-03-13
1,M,Zakir Omarov,Закир Омаров,109.8,Russia,200,210,-220,210,,105,112.5,117.5,117.5,,-205,205,210,210,,537.5,110,SBD,Raw,Yes,Amateur Juniors 20-23,22,1998-07-31
1,M,Anton Sofronov,Антон Софронов,107.9,Russia,-170,170,180,180,,110,120,125,125,,200,210,220,220,,525,110,SBD,Raw,Yes,Amateur Open,32,1988-07-05
1,M,Nikolay Khoruzhin,Николай Хоружин,124.3,Russia,-200,200,215,215,,130,140,150,150,,220,240,,240,,605,125,SBD,Raw,Yes,Amateur Open,26,1994-07-11
1,F,Yuliya Zhuk,Юлия Жук,47.7,Russia,97.5,102.5,107.5,107.5,,45,50,-52.5,50,,122.5,130,132.5,132.5,,290,48,SBD,Raw,No,Pro Open,34,1986-04-01
1,F,Yuliya Abramova,Юлия Абрамова,55.6,Russia,135,142.5,147.5,147.5,,-75,-75,77.5,77.5,,-175,180,-187.5,180,,405,56,SBD,Raw,No,Pro Open,38,1982-06-29
1,F,Tatyana Alimova,Татьяна Алимова,58.4,Russia,92.5,97.5,100,100,,55,60,-62.5,60,,107.5,117.5,-122.5,117.5,,277.5,60,SBD,Raw,No,Pro Open,32,1987-12-24
2,F,Saida Voroshilova,Саида Ворошилова,57.6,Russia,65,72.5,77.5,77.5,,35,40,-45,40,,70,80,-87.5,80,,197.5,60,SBD,Raw,No,Pro Open,28,1992-06-19
1,F,Yuliya Natyokina,Юлия Натёкина,66.6,Russia,92.5,-100,-100,92.5,,45,50,52.5,52.5,,-100,110,115,115,,260,67.5,SBD,Raw,No,Pro Open,25,1994-12-02
1,F,Anna Pardzhiani,Анна Парджиани,74.7,Russia,-200,210,-217.5,210,,-125,125,-127.5,125,,185,200,207.5,207.5,,542.5,75,SBD,Raw,No,Pro Open,24,1996-11-06
2,F,Viktoriya Doga,Виктория Дога,74.4,Russia,152.5,162.5,167.5,167.5,,107.5,115,-117.5,115,,180,195,205,205,,487.5,75,SBD,Raw,No,Pro Open,38,1982-09-04
1,M,Daniil Angipov,Даниил Ангипов,59.8,Russia,100,107.5,110,110,,80,-85,-85,80,,110,122.5,130,130,,320,60,SBD,Raw,No,Pro Juniors 20-23,21,1999-05-18
1,M,Artem Rogozhin,Артем Рогожин,81.7,Russia,212.5,220,230,230,,172.5,180,187.5,187.5,,230,242.5,255,255,,672.5,82.5,SBD,Raw,No,Pro Open,31,1989-05-05
2,M,Maksim Kalinin,Максим Калинин,81.2,Russia,210,220,-225,220,,140,147.5,155,155,,230,240,-250,240,,615,82.5,SBD,Raw,No,Pro Open,33,1987-03-29
3,M,Vitaliy Moroz,Виталий Мороз,81.5,Russia,190,200,207.5,207.5,,140,145,150,150,,185,195,202.5,202.5,,560,82.5,SBD,Raw,No,Pro Open,35,1985-01-02
1,M,Stepan Spiridonov,Степан Спиридонов,85.3,Russia,210,220,-230,220,,150,160,170,170,,220,230,245,245,,635,90,SBD,Raw,No,Pro Open,26,1993-12-21
2,M,Ruslan Iskhakov,Руслан Исхаков,89.7,Russia,165,175,-185,175,,120,125,-130,125,,240,-250,-250,240,,540,90,SBD,Raw,No,Pro Open,33,1986-12-15
1,M,Dmitriy Dubkov,Дмитрий Дубков,89.1,Russia,165,172.5,180,180,,110,115,120,120,,220,230,240,240,,540,90,SBD,Raw,No,Pro Masters 40-49,40,1980-01-29
2,M,Leonid Ulin,Леонид Улин,88.8,Russia,-87.5,92.5,97.5,97.5,,77.5,85,87.5,87.5,,150,160,165,165,,350,90,SBD,Raw,No,Pro Masters 40-49,45,1975-08-20
1,M,Dmitriy Mikhaylov,Дмитрий Михайлов,99.4,Russia,240,250,-260,250,,155,160,165,165,,-290,-302.5,302.5,302.5,,717.5,100,SBD,Raw,No,Pro Open,36,1984-05-23
2,M,Roman Mirankov,Роман Миранков,99.5,Russia,210,220,-225,220,,160,170,-180,170,,-240,240,250,250,,640,100,SBD,Raw,No,Pro Open,33,1987-07-27
3,M,Aleksey Kholunin,Алексей Холунин,96.7,Russia,195,210,220,220,,155,170,-185,170,,205,220,-232.5,220,,610,100,SBD,Raw,No,Pro Open,38,1982-04-15
4,M,Aleksandr Bodryakov,Александр Бодряков,94.1,Russia,175,185,200,200,,125,130,-132.5,130,,-200,210,220,220,,550,100,SBD,Raw,No,Pro Open,30,1990-04-10
1,M,Denis Deryagin,Денис Дерягин,109.7,Russia,237.5,252.5,260,260,,190,200,205,205,,245,260,270,270,,735,110,SBD,Raw,No,Pro Open,40,1980-02-28
2,M,Ivan Baklanov,Иван Бакланов,105.8,Russia,235,-245,245,245,,175,185,190,190,,270,280,-290,280,,715,110,SBD,Raw,No,Pro Open,37,1983-04-16
3,M,Oleg Gunchenkov,Олег Гунченков,109.9,Russia,210,220,230,230,,170,-175,180,180,,225,235,-240,235,,645,110,SBD,Raw,No,Pro Open,29,1991-09-19
1,M,Sergey Smirnov,Сергей Смирнов,114.1,Russia,230,240,250,250,,150,160,165,165,,270,-290,,270,,685,125,SBD,Raw,No,Pro Open,39,1981-09-23
DQ,M,Aleksandr Zaytsev,Александр Зайцев,120.1,Russia,-300,-300,-300,,,,,,,,,,,,,,125,SBD,Raw,No,Pro Open,40,1980-04-06
DQ,M,Aleksandr Zaytsev,Александр Зайцев,120.1,Russia,-300,-300,-300,,,,,,,,,,,,,,125,SBD,Raw,No,Pro Masters 40-49,40,1980-04-06
1,M,Maksim Bezinskikh,Максим Безинских,137.7,Russia,255,267.5,275,275,,197.5,207.5,210,210,,270,-285,285,285,,770,140,SBD,Raw,No,Pro Open,34,1986-05-18
1,F,Svetlana Mikhaylova,Светлана Михайлова,59.2,Russia,100,-110,-115,100,,45,-50,-50,45,,-130,130,135,135,,280,60,SBD,Wraps,Yes,Amateur Open,39,1981-10-24
2,F,Kseniya Egorova,Ксения Егорова,59.2,Russia,-90,-90,90,90,,55,-60,-60,55,,110,122.5,-125,122.5,,267.5,60,SBD,Wraps,Yes,Amateur Open,30,1990-09-04
1,M,Pavel Sidin,Павел Сидин,65.9,Russia,90,-100,100,100,,77.5,82.5,85,85,,125,135,-145,135,,320,67.5,SBD,Wraps,Yes,Amateur Open,26,1994-08-08
1,M,Andrey Okunev,Андрей Окунев,96.3,Russia,190,-197.5,-197.5,190,,-135,135,-145,135,,190,200,207.5,207.5,,532.5,100,SBD,Wraps,Yes,Amateur Open,27,1993-06-28
1,M,Evgeniy Dorofeyskiy,Евгений Дорофейский,107.5,Russia,255,-267.5,-267.5,255,,160,-170,170,170,,265,285,-300,285,,710,110,SBD,Wraps,Yes,Amateur Open,25,1995-09-14
1,M,Luiza Valieva,Луиза Валиева,60,Russia,140,150,155,155,160,80,90,-95,90,,150,160,165,165,,410,60,SBD,Wraps,No,Pro Open,24,1996-08-15
1,M,Nikita Kamenskiy,Никита Каменский,89.1,Russia,-210,210,-225,210,,140,150,-157.5,150,,200,-205,205,205,,565,90,SBD,Wraps,No,Pro Open,32,1988-09-19
1,M,Rustam Mukhametshin,Рустам Мухаметшин,96.1,Russia,200,210,220,220,,160,175,185,185,,205,225,235,235,,640,100,SBD,Wraps,No,Pro Open,31,1989-02-18
1,M,Mikhail Chusovskoy,Михаил Чусовской,119.4,Russia,210,-220,220,220,,160,165,172.5,172.5,,190,205,212.5,212.5,,605,125,SBD,Wraps,No,Pro Masters 40-49,48,1972-09-21
1,F,Elena Ryabikova,Елена Рябикова,51.5,Russia,,,,,,35,37.5,-40,37.5,,,,,,,37.5,52,B,Raw,Yes,Amateur Open,39,1981-04-10
1,F,Mariya Gogoleva,Мария Гоголева,55,Russia,,,,,,70,72.5,-75,72.5,,,,,,,72.5,56,B,Raw,Yes,Amateur Open,44,1975-11-08
DQ,F,Ekaterina Pribylnova,Екатерина Прибыльнова,53.3,Russia,,,,,,-62.5,-62.5,-62.5,,,,,,,,,56,B,Raw,Yes,Amateur Open,19,2001-02-16
1,F,Mariya Gogoleva,Мария Гоголева,55,Russia,,,,,,70,72.5,-75,72.5,,,,,,,72.5,56,B,Raw,Yes,Amateur Masters 40-49,44,1975-11-08
1,F,Tatyana Sokolova,Татьяна Соколова,60,Russia,,,,,,52.5,-57.5,-57.5,52.5,,,,,,,52.5,60,B,Raw,Yes,Amateur Open,30,1990-06-25
1,F,Svetlana Kruchina,Светлана Кручина,66.6,Russia,,,,,,60,62.5,-65,62.5,,,,,,,62.5,67.5,B,Raw,Yes,Amateur Open,35,1985-02-19
2,F,Irina Veselova,Ирина Веселова,66.3,Russia,,,,,,52.5,55,-57.5,55,,,,,,,55,67.5,B,Raw,Yes,Amateur Open,29,1991-09-21
3,F,Irina Korableva,Ирина Кораблева,64,Russia,,,,,,50,-52.5,-52.5,50,,,,,,,50,67.5,B,Raw,Yes,Amateur Open,39,1981-09-05
1,F,Natalya Ogryzko,Наталья Огрызько,71.7,Russia,,,,,,-102.5,102.5,105,105,,,,,,,105,75,B,Raw,Yes,Amateur Open,45,1975-07-12
2,F,Alena Nefyodova,Алена Нефёдова,73.3,Russia,,,,,,65,-70,-70,65,,,,,,,65,75,B,Raw,Yes,Amateur Open,36,1984-07-14
1,F,Elena Dmitrieva,Елена Дмитриева,69.6,Russia,,,,,,62.5,-65,-65,62.5,,,,,,,62.5,75,B,Raw,Yes,Amateur Masters 40-49,46,1974-11-03
1,F,Natalya Matveeva,Наталья Матвеева,74,Russia,,,,,,50,-52.5,52.5,52.5,,,,,,,52.5,75,B,Raw,Yes,Amateur Masters 50-59,59,1961-10-06
1,F,Elena Baleeva,Елена Балеева,82.3,Russia,,,,,,65,70,-75,70,,,,,,,70,82.5,B,Raw,Yes,Amateur Open,37,1983-05-03
1,M,Aleksandr Grakhov,Александр Грахов,66.9,Russia,,,,,,-115,-115,115,115,,,,,,,115,67.5,B,Raw,Yes,Amateur Sub-Juniors 17-19,19,2001-06-12
1,M,Evgeniy Zhgulev,Евгений Жгулев,61.6,Russia,,,,,,120,130,-135,130,,,,,,,130,67.5,B,Raw,Yes,Amateur Juniors 20-23,23,1997-09-29
1,M,Viktor Zheludko,Виктор Желудко,62.7,Russia,,,,,,100,110,-120,110,,,,,,,110,67.5,B,Raw,Yes,Amateur Open,30,1990-05-05
2,M,Evgeniy Burlakov,Евгений Бурлаков,67.3,Russia,,,,,,107.5,110,-115,110,,,,,,,110,67.5,B,Raw,Yes,Amateur Open,24,1996-10-20
1,M,Artem Solodushenkov,Артем Солодушенков,72.9,Russia,,,,,,112.5,117.5,-120,117.5,,,,,,,117.5,75,B,Raw,Yes,Amateur Open,32,1988-02-11
DQ,M,Viktor Burlakov,Виктор Бурлаков,72.3,Russia,,,,,,-130,-130,-130,,,,,,,,,75,B,Raw,Yes,Amateur Open,24,1996-10-20
1,M,Viktor Ezerskiy,Виктор Езерский,73.7,Russia,,,,,,110,115,117.5,117.5,,,,,,,117.5,75,B,Raw,Yes,Amateur Masters 40-49,41,1979-06-08
2,M,Vadim Yugay,Вадим Югай,73.5,Russia,,,,,,100,105,110,110,,,,,,,110,75,B,Raw,Yes,Amateur Masters 40-49,42,1978-04-03
1,M,Vladimir Orlov,Владимир Орлов,72.7,Russia,,,,,,80,85,,85,,,,,,,85,75,B,Raw,Yes,Amateur Masters 60-69,61,1959-01-18
1,M,Andrey Tsyplakov,Андрей Цыплаков,81.6,Russia,,,,,,150,-160,160,160,,,,,,,160,82.5,B,Raw,Yes,Amateur Open,33,1987-01-05
2,M,Evgeniy Klyukvin,Евгений Клюквин,80,Russia,,,,,,135,145,-150,145,,,,,,,145,82.5,B,Raw,Yes,Amateur Open,39,1981-07-04
DQ,M,Ivan Bogdanov,Иван Богданов,78.2,Russia,,,,,,-130,-130,-145,,,,,,,,,82.5,B,Raw,Yes,Amateur Open,25,1994-12-26
1,M,Mikhail Petrov,Михаил Петров,81.7,Russia,,,,,,-135,135,-145,135,,,,,,,135,82.5,B,Raw,Yes,Amateur Masters 40-49,47,1973-05-27
1,M,Artem Kolesnikov,Артем Колесников,87.9,Russia,,,,,,137.5,-142.5,-142.5,137.5,,,,,,,137.5,90,B,Raw,Yes,Amateur Sub-Juniors 17-19,18,2002-06-04
1,M,Vladislav Pestrov,Владислав Пестров,88.6,Russia,,,,,,125,-132.5,-132.5,125,,,,,,,125,90,B,Raw,Yes,Amateur Juniors 20-23,23,1997-07-19
1,M,Denis Kopkin,Денис Копкин,88.4,Russia,,,,,,135,140,142.5,142.5,,,,,,,142.5,90,B,Raw,Yes,Amateur Open,34,1986-10-06
2,M,Vladimir Ustinov,Владимир Устинов,87.4,Russia,,,,,,125,135,-142.5,135,,,,,,,135,90,B,Raw,Yes,Amateur Open,36,1984-08-01
3,M,Khurshidbek Dzhuraev,Хуршидбек Джураев,89.7,Russia,,,,,,125,132.5,-135,132.5,,,,,,,132.5,90,B,Raw,Yes,Amateur Open,25,1995-07-02
4,M,Pavel Gorbunov,Павел Горбунов,87.6,Russia,,,,,,120,125,-130,125,,,,,,,125,90,B,Raw,Yes,Amateur Open,27,1993-04-17
5,M,Pavel Sapozhnikov,Павел Сапожников,89.7,Russia,,,,,,120,-125,-125,120,,,,,,,120,90,B,Raw,Yes,Amateur Open,37,1983-01-16
DQ,M,Viktor Klyuchnikov,Виктор Ключников,88.8,Russia,,,,,,-155,-155,-155,,,,,,,,,90,B,Raw,Yes,Amateur Masters 40-49,43,1977-07-20
1,M,Sergey Rumyantsev,Сергей Румянцев,88.2,Russia,,,,,,165,170,,170,,,,,,,170,90,B,Raw,Yes,Amateur Masters 50-59,55,1965-08-26
1,M,Ruslan Zhelkobaev,Руслан Желкобаев,99.9,Russia,,,,,,140,-145,-145,140,,,,,,,140,100,B,Raw,Yes,Amateur Juniors 20-23,20,2000-08-30
1,M,Sergey Borovkov,Сергей Боровков,97.6,Russia,,,,,,170,-175,,170,,,,,,,170,100,B,Raw,Yes,Amateur Open,29,1991-03-05
2,M,Viktor Markov,Виктор Марков,98.1,Russia,,,,,,160,-165,-165,160,,,,,,,160,100,B,Raw,Yes,Amateur Open,46,1974-03-05
3,M,Arseniy Chernyakov,Арсений Черняков,97.9,Russia,,,,,,-132.5,132.5,-140,132.5,,,,,,,132.5,100,B,Raw,Yes,Amateur Open,30,1990-07-17
DQ,M,Vasiliy Khomyakov,Василий Хомяков,109,Russia,,,,,,-155,-155,,,,,,,,,,110,B,Raw,Yes,Amateur Open,36,1984-02-22
1,M,Artur Sinev,Артур Синев,108.3,Russia,,,,,,125,-135,-140,125,,,,,,,125,110,B,Raw,Yes,Amateur Masters 50-59,54,1966-03-02
1,M,Mikhail Ivanov,Михаил Иванов,123.5,Russia,,,,,,167.5,177.5,180,180,,,,,,,180,125,B,Raw,Yes,Amateur Open,44,1976-07-02
DQ,M,Artem Ivanov,Артем Иванов,117.2,Russia,,,,,,-167.5,-167.5,-167.5,,,,,,,,,125,B,Raw,Yes,Amateur Open,20,2000-03-06
1,M,Mikhail Ivanov,Михаил Иванов,123.5,Russia,,,,,,167.5,177.5,180,180,,,,,,,180,125,B,Raw,Yes,Amateur Masters 40-49,44,1976-07-02
1,M,Nikolay Demennik,Николай Деменник,139.1,Russia,,,,,,200,-205,,200,,,,,,,200,140,B,Raw,Yes,Amateur Open,37,1983-11-04
1,F,Tatyana Gulina,Татьяна Гулина,46.9,Russia,,,,,,62.5,65,-70,65,,,,,,,65,48,B,Raw,No,Pro Open,47,1973-04-28
1,F,Tatyana Gulina,Татьяна Гулина,46.9,Russia,,,,,,62.5,65,-70,65,,,,,,,65,48,B,Raw,No,Pro Masters 40-49,47,1973-04-28
DQ,F,Tatyana Larionova,Татьяна Ларионова,59.8,Russia,,,,,,-60,-60,-62.5,,,,,,,,,60,B,Raw,No,Pro Masters 40-49,41,1979-04-18
1,F,Svetlana Rumyantseva,Светлана Румянцева,67,Russia,,,,,,92.5,100,-102.5,100,,,,,,,100,67.5,B,Raw,No,Pro Open,32,1988-05-16
1,M,Aleksandr Antropov,Александр Антропов,73.7,Russia,,,,,,170,175,-177.5,175,,,,,,,175,75,B,Raw,No,Pro Open,51,1969-03-14
1,M,Aleksandr Antropov,Александр Антропов,73.7,Russia,,,,,,170,175,-177.5,175,,,,,,,175,75,B,Raw,No,Pro Masters 50-59,51,1969-03-14
1,M,David Shakhbazyan,Давид Шахбазян,82,Russia,,,,,,170,-175,175,175,,,,,,,175,82.5,B,Raw,No,Pro Open,26,1994-08-30
2,M,Aleksey Grobovoy,Алексей Гробовой,79.7,Russia,,,,,,137.5,-142.5,145,145,,,,,,,145,82.5,B,Raw,No,Pro Open,33,1987-05-02
3,M,Mikhail Danilov,Михаил Данилов,81.2,Russia,,,,,,-137.5,137.5,142.5,142.5,,,,,,,142.5,82.5,B,Raw,No,Pro Open,36,1984-07-27
DQ,M,Mikhail Merkulov,Михаил Меркулов,81.9,Russia,,,,,,-145,-145,-145,,,,,,,,,82.5,B,Raw,No,Pro Open,33,1987-11-03
1,M,Anatoliy Pichkurov,Анатолий Пичкуров,87.8,Russia,,,,,,75,77.5,80,80,,,,,,,80,90,B,Raw,No,Pro Sub-Juniors 17-19,18,2001-11-19
1,M,Roman Klishch,Роман Клищ,89.8,Russia,,,,,,167.5,175,180,180,,,,,,,180,90,B,Raw,No,Pro Open,28,1992-03-29
2,M,Sergey Karmalkov,Сергей Кармальков,88.5,Russia,,,,,,145,150,-152.5,150,,,,,,,150,90,B,Raw,No,Pro Open,39,1981-06-01
1,M,Daniil Neklyudov,Даниил Неклюдов,94.7,Russia,,,,,,135,-145,,135,,,,,,,135,100,B,Raw,No,Pro Sub-Juniors 17-19,17,2003-01-03
1,M,Yaroslav Rodionov,Ярослав Родионов,93.1,Russia,,,,,,175,-185,-185,175,,,,,,,175,100,B,Raw,No,Pro Juniors 20-23,23,1997-10-01
2,M,Emil Alekberov,Эмиль Алекберов,98.5,Russia,,,,,,160,-170,175,175,,,,,,,175,100,B,Raw,No,Pro Juniors 20-23,23,1997-04-20
1,M,Stanislav Kandaurov,Станислав Кандауров,97.6,Russia,,,,,,192.5,200,205,205,,,,,,,205,100,B,Raw,No,Pro Open,30,1990-05-26
2,M,Ilya Korobov,Илья Коробов,97.7,Russia,,,,,,205,-215,-215,205,,,,,,,205,100,B,Raw,No,Pro Open,40,1980-04-17
3,M,Ivan Solntsev,Иван Солнцев,97.4,Russia,,,,,,190,-200,-200,190,,,,,,,190,100,B,Raw,No,Pro Open,46,1974-03-25
4,M,Sergey Rumyantsev,Сергей Румянцев,97.6,Russia,,,,,,185,190,-192.5,190,,,,,,,190,100,B,Raw,No,Pro Open,30,1990-08-14
5,M,Andrey Belavkin,Андрей Белавкин,97.6,Russia,,,,,,175,-180,-185,175,,,,,,,175,100,B,Raw,No,Pro Open,32,1988-03-24
1,M,Aleksandr Bespalov,Александр Беспалов,98.9,Russia,,,,,,165,180,192.5,192.5,,,,,,,192.5,100,B,Raw,No,Pro Masters 40-49,40,1980-01-07
2,M,Ivan Solntsev,Иван Солнцев,97.4,Russia,,,,,,190,-200,-200,190,,,,,,,190,100,B,Raw,No,Pro Masters 40-49,46,1974-03-25
3,M,Evgeniy Dmitrik,Евгений Дмитрик,97.6,Russia,,,,,,140,150,160,160,,,,,,,160,100,B,Raw,No,Pro Masters 40-49,40,1980-08-23
4,M,Sergey Kulpin,Сергей Кульпин,96.9,Russia,,,,,,125,132.5,137.5,137.5,,,,,,,137.5,100,B,Raw,No,Pro Masters 40-49,47,1973-01-11
1,M,Boris Kozhin,Борис Кожин,97.4,Russia,,,,,,110,120,-150,120,,,,,,,120,100,B,Raw,No,Pro Masters 60-69,60,1960-05-03
1,M,Mikhail Razuvaev,Михаил Разуваев,104,Russia,,,,,,-192.5,195,200,200,,,,,,,200,110,B,Raw,No,Pro Open,38,1982-10-25
2,M,Denis Lysenko,Денис Лысенко,102.5,Russia,,,,,,190,192.5,-197.5,192.5,,,,,,,192.5,110,B,Raw,No,Pro Open,24,1996-08-15
1,M,Andrey Kapustin,Андрей Капустин,120,Russia,,,,,,190,200,-205,200,,,,,,,200,125,B,Raw,No,Pro Open,43,1977-02-18
1,M,Andrey Kapustin,Андрей Капустин,120,Russia,,,,,,190,200,-205,200,,,,,,,200,125,B,Raw,No,Pro Masters 40-49,43,1977-02-18
1,M,Andrey Peshkov,Андрей Пешков,119.6,Russia,,,,,,195,205,-212.5,205,,,,,,,205,125,B,Raw,No,Pro Masters 50-59,57,1963-11-05
1,M,Aleksandr Efimenkov,Александр Ефименков,115.6,Russia,,,,,,150,160,170,170,,,,,,,170,125,B,Raw,No,Pro Masters 60-69,62,1958-09-09
1,M,Oleg Krylov,Олег Крылов,139.5,Russia,,,,,,-200,200,-210,200,,,,,,,200,140,B,Raw,No,Pro Open,47,1973-11-04
2,M,Anton Makarov,Антон Макаров,125.3,Russia,,,,,,170,-177.5,,170,,,,,,,170,140,B,Raw,No,Pro Open,31,1989-05-09
1,M,Oleg Krylov,Олег Крылов,139.5,Russia,,,,,,-200,200,-210,200,,,,,,,200,140,B,Raw,No,Pro Masters 40-49,47,1973-11-04
1,F,Ekaterina Morozova,Екатерина Морозова,66.1,Russia,,,,,,-100,100,105,105,,,,,,,105,67.5,B,Unlimited,Yes,Amateur Open,42,1978-07-23
1,M,Aleksandr Gornostaev,Александр Горностаев,92,Russia,,,,,,175,-185,185,185,,,,,,,185,100,B,Unlimited,Yes,Amateur Open,40,1980-04-25
1,M,Aleksandr Gornostaev,Александр Горностаев,92,Russia,,,,,,175,-185,185,185,,,,,,,185,100,B,Unlimited,Yes,Amateur Masters 40-49,40,1980-04-25
1,M,Viktor Mima,Віктор Міма,161.3,Russia,,,,,,240,250,257.5,257.5,,,,,,,257.5,140+,B,Unlimited,Yes,Amateur Open,29,1991-10-31
1,M,Mikhail Khromchenko,Михаил Хромченко,99.7,Russia,,,,,,227.5,-237.5,-237.5,227.5,,,,,,,227.5,100,B,Unlimited,No,Pro Open,32,1988-01-05
1,M,Aleksandr Altukhov,Александр Алтухов,109.2,Russia,,,,,,200,210,220,220,,,,,,,220,110,B,Unlimited,No,Pro Open,31,1989-03-31
1,M,Vitaliy Orekhov,Виталий Орехов,113.4,Russia,,,,,,240,250,,250,,,,,,,250,125,B,Unlimited,No,Pro Open,43,1977-05-02
1,M,Vitaliy Orekhov,Виталий Орехов,113.4,Russia,,,,,,240,250,,250,,,,,,,250,125,B,Unlimited,No,Pro Masters 40-49,43,1977-05-02
1,F,Anna Mamont,Анна Мамонт,51.7,Russia,,,,,,,,,,,120,130,135,135,,135,52,D,Raw,Yes,Amateur Open,27,1993-06-11
1,F,Natalya Pilipyuk,Наталья Пилипюк,55.2,Russia,,,,,,,,,,,125,132.5,135,135,,135,56,D,Raw,Yes,Amateur Open,36,1983-12-21
1,F,Oksana Balabatko,Оксана Балабатько,58.6,Russia,,,,,,,,,,,65,70,72.5,72.5,,72.5,60,D,Raw,Yes,Amateur Teen 14-16,15,2005-01-24
1,F,Zinaida Rudenko,Зинаида Руденко,57.8,Russia,,,,,,,,,,,125,135,-140,135,,135,60,D,Raw,Yes,Amateur Open,45,1975-09-07
1,F,Natalya Knyazeva,Наталья Князева,74.7,Russia,,,,,,,,,,,135,,,135,,135,75,D,Raw,Yes,Amateur Masters 50-59,50,1970-07-16
1,F,Yana Zenkova,Яна Зенькова,108,Russia,,,,,,,,,,,152.5,162.5,-167.5,162.5,,162.5,90+,D,Raw,Yes,Amateur Juniors 20-23,22,1998-10-09
1,M,Evgeniy Timchishin,Евгений Тимчишин,66.8,Russia,,,,,,,,,,,185,195,-200,195,,195,67.5,D,Raw,Yes,Amateur Juniors 20-23,21,1999-04-01
1,M,Viktor Ezerskiy,Виктор Езерский,73.7,Russia,,,,,,,,,,,160,172.5,182.5,182.5,,182.5,75,D,Raw,Yes,Amateur Masters 40-49,41,1979-06-08
1,M,Evgeniy Lukashevich,Евгений Лукашевич,77.4,Russia,,,,,,,,,,,290,-312.5,312.5,312.5,,312.5,82.5,D,Raw,Yes,Amateur Open,26,1994-01-03
2,M,Andrey Provorov,Андрей Проворов,81.2,Russia,,,,,,,,,,,265,280,-292.5,280,,280,82.5,D,Raw,Yes,Amateur Open,30,1989-11-08
1,M,Aleksandr Vasilenko,Александр Василенко,87.3,Russia,,,,,,,,,,,220,230,235,235,,235,90,D,Raw,Yes,Amateur Open,24,1995-12-09
2,M,Dmitriy Tselishchev,Дмитрий Целищев,83,Russia,,,,,,,,,,,190,202.5,210,210,,210,90,D,Raw,Yes,Amateur Open,25,1995-08-09
3,M,Pavel Sapozhnikov,Павел Сапожников,89.7,Russia,,,,,,,,,,,185,202.5,-207.5,202.5,,202.5,90,D,Raw,Yes,Amateur Open,37,1983-01-16
4,M,Vladimir Ustinov,Владимир Устинов,87.4,Russia,,,,,,,,,,,150,170,180,180,,180,90,D,Raw,Yes,Amateur Open,36,1984-08-01
DQ,M,Eduard Marchenko,Эдуард Марченко,95.1,Ukraine,,,,,,,,,,,-300,-300,-300,,,,100,D,Raw,Yes,Amateur Open,28,1992-03-17
1,M,Pavel Zalov,Павел Залов,104,Russia,,,,,,,,,,,230,-247.5,247.5,247.5,,247.5,110,D,Raw,Yes,Amateur Open,24,1996-09-13
2,M,Dmitriy Levitskiy,Дмитрий Левицкий,108.9,Russia,,,,,,,,,,,200,215,225,225,,225,110,D,Raw,Yes,Amateur Open,31,1989-05-15
3,M,Anton Sofronov,Антон Софронов,107.9,Russia,,,,,,,,,,,200,210,220,220,,220,110,D,Raw,Yes,Amateur Open,32,1988-07-05
1,M,Lev Samarin,Лев Самарин,138.2,Russia,,,,,,,,,,,292.5,-302.5,302.5,302.5,,302.5,140,D,Raw,Yes,Amateur Open,37,1983-05-28
1,M,Vladislav Smirnov,Владислав Смирнов,178.3,Russia,,,,,,,,,,,340,-370,,340,,340,140+,D,Raw,Yes,Amateur Open,29,1990-11-08
1,F,Yuliya Abramova,Юлия Абрамова,55.6,Russia,,,,,,,,,,,-175,180,-187.5,180,,180,56,D,Raw,No,Pro Open,38,1982-06-29
1,F,Stanislava Glazacheva,Станислава Глазачева,74.8,Russia,,,,,,,,,,,120,130,-135,130,,130,75,D,Raw,No,Pro Teen 14-16,16,2004-02-17
1,F,Anastasiya Kuznetsova,Анастасия Кузнецова,69.7,Russia,,,,,,,,,,,130,140,150,150,,150,75,D,Raw,No,Pro Open,32,1988-02-08
1,M,Anton Sidin,Антон Сидин,82,Russia,,,,,,,,,,,-250,250,-270,250,,250,82.5,D,Raw,No,Pro Open,32,1988-04-24
1,M,Dmitriy Dubkov,Дмитрий Дубков,89.1,Russia,,,,,,,,,,,220,230,240,240,,240,90,D,Raw,No,Pro Masters 40-49,40,1980-01-29
1,M,Eduard Pushkarev,Эдуард Пушкарев,87.9,Russia,,,,,,,,,,,240,250,257.5,257.5,,257.5,90,D,Raw,No,Pro Masters 50-59,51,1968-12-08
1,M,Aleksandr Mikhaylov,Александр Михайлов,88.4,Russia,,,,,,,,,,,130,137.5,140,140,,140,90,D,Raw,No,Pro Masters 60-69,61,1958-12-09
DQ,M,Dmitriy Timofeev,Дмитрий Тимофеев,94.8,Russia,,,,,,,,,,,-345,-345,,,,,100,D,Raw,No,Pro Open,33,1987-02-21
DQ,M,Dmitriy Chernyshev,Дмитрий Чернышев,99.8,Russia,,,,,,,,,,,-310,-315,-315,,,,100,D,Raw,No,Pro Open,46,1974-01-22
1,M,Nikita Myshko,Никита Мышко,107.1,Russia,,,,,,,,,,,260,-280,280,280,,280,110,D,Raw,No,Pro Juniors 20-23,23,1997-02-09
1,M,Andrey Dondukov,Андрей Дондуков,110,Russia,,,,,,,,,,,300,-330,-330,300,,300,110,D,Raw,No,Pro Open,34,1986-11-05
1,M,Aleksandr Malikov,Александр Маликов,103.5,Russia,,,,,,,,,,,260,270,280,280,,280,110,D,Raw,No,Pro Masters 40-49,47,1972-12-21
