Place,Name,Country,BodyweightKg,Bench1Kg,Bench2Kg,Bench3Kg,Bench4Kg,Deadlift1Kg,Deadlift2Kg,Deadlift3Kg,Deadlift4Kg,TotalKg,WeightClassKg,Division,Sex,Event,Equipment,Tested,Best3BenchKg,Best3DeadliftKg,BirthYear
1,Vladyslav Polyvko,Ukraine,94.4,110,120,-130,,180,-190,190,,310,100,Pro Teen 13-15,M,BD,Raw,,120,190,1998
1,Maksym Karasev,Ukraine,66.5,90,95,100,,177.5,190,-202.5,,290,67.5,Pro Teen 16-17,M,BD,Raw,,100,190,1997
1,Vasyl Protsukovych,Ukraine,92,-175,175,-182.5,,210,215,220,,395,100,Pro Teen 18-19,M,BD,Raw,,175,220,1995
1,Sergiy Redka,Ukraine,73.3,160,170,175,,220,-230,-237.5,,395,75,Pro Juniors 20-23,M,BD,Raw,,175,220,1990
1,Eugene Kovalenko,Ukraine,80.1,145,152.5,160,,230,240,-253,,400,82.5,Pro Juniors 20-23,M,BD,Raw,,160,240,1992
1,Oleksandr Tarasov,Ukraine,105.2,175,185,-192.5,,250,262.5,270,,455,110,Pro Juniors 20-23,M,BD,Raw,,185,270,1991
1,Dmytro Cherkay,Ukraine,74.4,150,155,157.5,,250,-255,255,,412.5,75,Pro Open,M,BD,Raw,,157.5,255,1985
2,Ruslan Dragun,Belarus,75,150,160,-162.5,,230,240,-245,,400,75,Pro Open,M,BD,Raw,,160,240,1989
1,Andriy Dyatlov,Ukraine,81.7,150,157.5,162.5,,-230,230,-242.5,,392.5,82.5,Pro Open,M,BD,Raw,,162.5,230,1985
2,Volodymyr Kovalenko,Ukraine,78.2,140,-145,145,,-230,230,235,,380,82.5,Pro Open,M,BD,Raw,,145,235,1985
3,Denys Fesenko,Ukraine,82,140,-145,-145,,225,232.5,-237.5,,372.5,82.5,Pro Open,M,BD,Raw,,140,232.5,1984
1,Genadiy Zotov,Ukraine,88.8,165,172.5,-177.5,,260,275,280,,452.5,90,Pro Open,M,BD,Raw,,172.5,280,1985
2,Vyacheslav Zdorovenko,Ukraine,89.4,147.5,152.5,155,,245,255,,,410,90,Pro Open,M,BD,Raw,,155,255,1983
3,Dzianis Zahnibarada,Belarus,89.9,137.5,145,150,,242.5,252.5,257.5,,407.5,90,Pro Open,M,BD,Raw,,150,257.5,1981
1,Tymofiy Kravchenko,Ukraine,100,155,162.5,170,,225,240,-250,,410,100,Pro Open,M,BD,Raw,,170,240,1982
DQ,Vadym Grachov,Ukraine,99.9,175,185,-195,,-270,-270,-270,,,100,Pro Open,M,BD,Raw,,185,,1988
1,Levan Gorgodze,Georgia,100.3,170,-180,-185,,270,-290,-290,,440,110,Pro Open,M,BD,Raw,,170,270,1987
1,Andriy Goncharuk,Ukraine,110.7,170,180,190,,300,310,320,,510,125,Pro Open,M,BD,Raw,,190,320,1988
1,Andriy Gryn,Ukraine,132.8,190,200,205,,290,305,-320,,510,140,Pro Open,M,BD,Raw,,205,305,1968
1,Vyacheslav Lazarenko,Ukraine,78.2,125,135,-140,,180,200,-215,,335,82.5,Pro Submasters 33-39,M,BD,Raw,,135,200,1978
1,Oleg Kuznetsov,Russia,90,172.5,180,-187.5,,230,240,-250,,420,90,Pro Submasters 33-39,M,BD,Raw,,180,240,1974
1,Oleg Fystykan,Moldova,81.5,-110,110,-115,,180,190,200,,310,82.5,Pro Masters 40-44,M,BD,Raw,,110,200,1973
1,Ruslan Evloev,Ukraine,94.7,135,-140,-140,,160,200,-240,,335,100,Pro Masters 40-44,M,BD,Raw,,135,200,1970
1,Pavlo Kipnyak,Ukraine,106.7,145,150,157.5,,-170,180,200,,357.5,110,Pro Masters 40-44,M,BD,Raw,,157.5,200,1969
1,Andriy Gryn,Ukraine,132.8,190,200,205,,290,305,-320,,510,140,Pro Masters 40-44,M,BD,Raw,,205,305,1968
1,Anatoliy Pecherskyy,Moldova,89.1,150,-155,-155,,190,200,-207.5,,350,90,Pro Masters 45-49,M,BD,Raw,,150,200,1965
1,Vitaliy Beloborodov,Transnistria,108.3,175,180,185,,245,255,-265,,440,110,Pro Masters 45-49,M,BD,Raw,,185,255,1968
1,Oleksandr Kalkutin,Ukraine,133.9,180,-190,200,,220,-240,-240,,420,140,Pro Masters 45-49,M,BD,Raw,,200,220,1965
1,Mykhaylo Sizykh,Ukraine,81,110,115,-120,,-150,150,-162.5,,265,82.5,Pro Masters 50-54,M,BD,Raw,,115,150,1962
1,Sergiy Denysov,Ukraine,99.3,125,135,142.5,,185,200,212.5,,355,100,Pro Masters 55-59,M,BD,Raw,,142.5,212.5,1956
1,Genadiy Vasyliev,Ukraine,71.6,100,105,110,,100,110,130,,240,75,Pro Masters 60-64,M,BD,Raw,,110,130,1952
1,Andriy Dyatlov,Ukraine,81.7,150,157.5,162.5,,-230,230,-242.5,,392.5,82.5,Pro Military/Fire/Police,M,BD,Raw,,162.5,230,1985
1,Svitlana Stsiapanova,Belarus,58.8,77.5,-82.5,-82.5,,115,117.5,120,,197.5,60,Pro Open,F,BD,Raw,,77.5,120,1983
1,Maksym Fesun,Ukraine,95.3,160,170,-180,,200,225,-235,,395,100,Pro Teen 18-19,M,BD,Multi-ply,,170,225,1995
1,Volodymyr Tsurko,Ukraine,89.1,150,155,-160,,180,195,200,,355,90,Pro Juniors 20-23,M,BD,Multi-ply,,155,200,1993
1,Sergiy Kachan,Ukraine,65.4,105,115,-120,,190,-210,210,,325,67.5,Pro Open,M,BD,Multi-ply,,115,210,1989
1,Anton Popov,Ukraine,74.5,145,150,-155,,195,205,-210,,355,75,Pro Open,M,BD,Multi-ply,,150,205,1989
1,Andriy Dyatlov,Ukraine,81.7,210,220,230,,250,-270,,,480,82.5,Pro Open,M,BD,Multi-ply,,230,250,1985
1,Igor Andrusyk,Ukraine,85.1,180,190,-200,,230,245,250,,440,90,Pro Open,M,BD,Multi-ply,,190,250,1988
2,Dmytro Gavrylyuk,Ukraine,88.9,175,182.5,190,,190,205,220,,410,90,Pro Open,M,BD,Multi-ply,,190,220,1989
1,Efym Stepatskyy,Ukraine,102.3,170,190,-210,,210,230,-250,,420,110,Pro Open,M,BD,Multi-ply,,190,230,1987
DQ,Sergiy Boryshanskyy,Ukraine,,,,,,,,,,,125,Pro Open,M,BD,Multi-ply,,,,1977
1,Yuriy Malygin,Ukraine,102.6,140,155,-170,,180,,,,335,110,Pro Masters 45-49,M,BD,Multi-ply,,155,180,1967
1,Andriy Dyatlov,Ukraine,81.7,210,220,230,,250,-270,,,480,82.5,Pro Military/Fire/Police,M,BD,Multi-ply,,230,250,1985
1,Dmitro Zaets,Ukraine,33.9,32.5,-37.5,-37.5,,87.5,-95,-97.5,,120,44,Amateur Children 11-12,M,BD,Raw,,32.5,87.5,
1,Yaroslav Prokopenko,Ukraine,51.2,65,70,72.5,,115,125,,,197.5,52,Amateur Teen 13-15,M,BD,Raw,,72.5,125,1998
2,Mykyta Kravets,Ukraine,49.3,62.5,65,-67.5,,90,97.5,,,162.5,52,Amateur Teen 13-15,M,BD,Raw,,65,97.5,2000
1,Vladislav Sklyarov,Ukraine,67,85,90,-95,,142.5,150,155,,245,67.5,Amateur Teen 13-15,M,BD,Raw,,90,155,1998
1,Pavlo Parnak,Ukraine,51,70,77.5,-80,,120,130,-140,,207.5,52,Amateur Teen 16-17,M,BD,Raw,,77.5,130,1996
1,Valentyn Lytvechenko,Ukraine,55.5,50,60,-65,,80,95,105,,165,56,Amateur Teen 16-17,M,BD,Raw,,60,105,1996
1,Dmytro Schotka,Ukraine,65.6,80,85,-87.5,,110,120,-135,,205,67.5,Amateur Teen 16-17,M,BD,Raw,,85,120,1997
1,Eugene Golub,Ukraine,74.8,80,92.5,95,,140,150,160,,255,75,Amateur Teen 16-17,M,BD,Raw,,95,160,1996
1,Dmitro Grigorev,Ukraine,93.9,105,115,-120,,190,200,-210,,315,100,Amateur Teen 16-17,M,BD,Raw,,115,200,1997
1,Yaroslav Kalugin,Ukraine,62.6,75,-80,-80,,175,180,-190,,255,67.5,Amateur Teen 18-19,M,BD,Raw,,75,180,1994
2,Yuriy Masloyan,Ukraine,88.8,130,140,142.5,,200,210,217.5,,360,90,Amateur Open,M,BD,Raw,,142.5,217.5,1994
1,Vladyslav Gurtovenko,Ukraine,99.7,130,137.5,-142.5,,190,200,-210,,337.5,100,Amateur Open,M,BD,Raw,,137.5,200,1995
1,Igor Kashynskyy,Ukraine,82.5,125,135,-140,,185,205,-230,,340,82.5,Amateur Juniors 20-23,M,BD,Raw,,135,205,1993
2,Maksym Rybalka,Ukraine,82,115,120,-125,,190,202.5,-220,,322.5,82.5,Amateur Juniors 20-23,M,BD,Raw,,120,202.5,1993
1,Andriy Schetinin,Ukraine,93.9,142.5,152.5,-155,,245,267.5,-281,,420,100,Amateur Juniors 20-23,M,BD,Raw,,152.5,267.5,1990
2,Danylo Udovyk,Ukraine,97.8,105,112.5,-115,,175,185,192.5,,305,100,Amateur Juniors 20-23,M,BD,Raw,,112.5,192.5,1992
1,Sergiy Koblytskyy,Ukraine,73.1,-142.5,142.5,150,,225,250,262.5,,412.5,75,Amateur Open,M,BD,Raw,,150,262.5,1987
2,Sergiy Kazantsev,Ukraine,73.2,105,-120,-120,,150,162.5,170,,275,75,Amateur Open,M,BD,Raw,,105,170,1981
1,Daviti Gulua,Georgia,77.4,120,125,130,,210,220,232.5,,362.5,82.5,Amateur Open,M,BD,Raw,,130,232.5,1989
2,Andriy Nazipov,Ukraine,77.5,105,110,-115,,165,-170,-170,,275,82.5,Amateur Open,M,BD,Raw,,110,165,1978
1,Sergiy Karas,Ukraine,85.6,125,130,-135,,220,240,-245,,370,90,Amateur Open,M,BD,Raw,,130,240,1986
2,Viktor Shulyak,Ukraine,84.4,140,-145,,,200,215,222.5,,362.5,90,Amateur Open,M,BD,Raw,,140,222.5,1965
3,Irakli Tskhovrebashvili,Georgia,89.7,140,-150,-150,,170,200,-225,,340,90,Amateur Open,M,BD,Raw,,140,200,1981
1,Camal Akhmadzade,Azerbaijan,97,-130,130,135,,220,230,,,365,100,Amateur Open,M,BD,Raw,,135,230,1984
2,Oleksandr Kharchenko,Ukraine,98.1,110,117.5,120,,190,200,-210,,320,100,Amateur Open,M,BD,Raw,,120,200,1987
1,Sergiy Bessel,Ukraine,107.1,172.5,180,182.5,,245,260,-265,,442.5,110,Amateur Open,M,BD,Raw,,182.5,260,1984
2,Artem Prysyazhnyy,Ukraine,106.4,155,-160,-160,,265,-280,-280,,420,110,Amateur Open,M,BD,Raw,,155,265,1981
3,Volodymyr Lesnyak,Ukraine,106.9,150,160,165,,220,232.5,240,,405,110,Amateur Open,M,BD,Raw,,165,240,1977
4,Aleksandr Ageenko,Ukraine,106,145,-155,-155,,220,240,-252.5,,385,110,Amateur Open,M,BD,Raw,,145,240,1976
1,Volodymyr Lesnyak,Ukraine,106.9,150,160,165,,220,232.5,240,,405,110,Amateur Submasters 33-39,M,BD,Raw,,165,240,1977
2,Aleksandr Ageenko,Ukraine,106,145,-155,-155,,220,240,-252.5,,385,110,Amateur Submasters 33-39,M,BD,Raw,,145,240,1976
1,Viktor Shulyak,Ukraine,84.4,140,-145,,,200,215,222.5,,362.5,90,Amateur Masters 45-49,M,BD,Raw,,140,222.5,1965
1,Gasan Garumov,Ukraine,74.5,80,-90,-90,,-120,120,130,,210,75,Amateur Masters 50-54,M,BD,Raw,,80,130,1963
1,Oleksandr Kharchenko,Ukraine,98.1,110,117.5,120,,190,200,-210,,320,100,Amateur Military/Fire/Police,M,BD,Raw,,120,200,1987
1,Oleksandr Scherban,Ukraine,112,140,142.5,145,,210,220,-227.5,,365,125,Amateur Military/Fire/Police,M,BD,Raw,,145,220,1974
1,Yuliya Gamurar,Ukraine,62.5,60,-70,,,60,,,,120,67.5,Amateur Teen 13-15,F,BD,Raw,,60,60,1998
1,Eugenia Mosienko,Ukraine,47.9,-42.5,42.5,45,,70,80,90,,135,48,Amateur Juniors 20-23,F,BD,Raw,,45,90,1992
1,Darina Kovalova,Ukraine,54.5,40,45,50,,110,117.5,120,,170,56,Amateur Juniors 20-23,F,BD,Raw,,50,120,1990
1,Liudmyla Tsvietkova,Ukraine,55.8,52.5,57.5,60.5,,115,125,135,,195.5,56,Amateur Open,F,BD,Raw,,60.5,135,1961
1,Iryna Kyrychenko,Ukraine,59.6,47.5,-52.5,-52.5,,70,75,80,,127.5,60,Amateur Open,F,BD,Raw,,47.5,80,1984
1,Olga Demakova,Ukraine,73,50,57.5,60,,90,105,115,,175,75,Amateur Open,F,BD,Raw,,60,115,1978
1,Olga Morozova,Ukraine,65.2,45,50,-52.5,,95,100,105,,155,67.5,Amateur Submasters 33-39,F,BD,Raw,,50,105,1976
1,Oksana Muzyka,Ukraine,67,60,65,-67.5,,55,,,,120,67.5,Amateur Masters 40-44,F,BD,Raw,,65,55,1969
1,Iryna Tykhonova,Ukraine,68.2,55,-60,-60,,70,80,95,,150,75,Amateur Masters 40-44,F,BD,Raw,,55,95,1970
1,Liudmyla Tsvietkova,Ukraine,55.8,52.5,57.5,60.5,,115,125,135,,195.5,56,Amateur Masters 50-54,F,BD,Raw,,60.5,135,1961
1,Nataliya Tsukanova,Ukraine,77,75,-80,,,130,140,-150,,215,82.5,Amateur Masters 55-59,F,BD,Raw,,75,140,1956
1,Yaroslav Skakunov,Ukraine,81.9,100,-110,-110,,170,180,-210,,280,82.5,Amateur Teen 18-19,M,BD,Multi-ply,,100,180,1995
1,Vladyslav Bondarenko,Ukraine,43,55,57.5,60,,,,,,60,44,Pro Teen 13-15,M,B,Raw,No,60,,1999
1,Dmytro Bodrov,Ukraine,51.5,35,-40,-40,,,,,,35,52,Pro Teen 13-15,M,B,Raw,No,35,,2000
1,Nikita Selvestrov,Moldova,55.7,70,-75,75,,,,,,75,56,Pro Teen 13-15,M,B,Raw,No,75,,1999
1,Oleksiy Voznik,Ukraine,48,75,80,-85,,,,,,80,48,Pro Teen 16-17,M,B,Raw,No,80,,1997
1,Rostyslav Kim,Ukraine,88.1,130,-140,145,,,,,,145,90,Pro Teen 16-17,M,B,Raw,No,145,,1996
1,Maksym Stolyarenko,Ukraine,96.8,120,127.5,-135,,,,,,127.5,100,Pro Teen 16-17,M,B,Raw,No,127.5,,1995
1,Mykyta Kolomyza,Ukraine,89,140,145,-152.5,,,,,,145,90,Pro Teen 18-19,M,B,Raw,No,145,,1994
1,Vasyl Protsukovych,Ukraine,92,-175,175,-182.5,,,,,,175,100,Pro Teen 18-19,M,B,Raw,No,175,,1995
2,Esmaeil Izadisaadi,Iran,93.6,110,120,-130,,,,,,120,100,Pro Teen 18-19,M,B,Raw,No,120,,1993
1,Mohammad Shakib,Iran,67.4,100,110,115,,,,,,115,67.5,Pro Juniors 20-23,M,B,Raw,No,115,,1990
1,Eugene Begalyuk,Ukraine,72.6,137.5,142.5,-147.5,,,,,,142.5,75,Pro Juniors 20-23,M,B,Raw,No,142.5,,1992
2,Yaroslav Bogat,Transnistria,72.2,135,-140,-140,,,,,,135,75,Pro Juniors 20-23,M,B,Raw,No,135,,1992
1,Andriy Polishuk,Ukraine,82,157.5,-167.5,-167.5,,,,,,157.5,82.5,Pro Juniors 20-23,M,B,Raw,No,157.5,,1991
2,Oleksiy Rubinov,Ukraine,77.3,-110,110,125,,,,,,125,82.5,Pro Juniors 20-23,M,B,Raw,No,125,,1992
1,Eugene Moiseev,Ukraine,89.5,195,202.5,-205,,,,,,202.5,90,Pro Juniors 20-23,M,B,Raw,No,202.5,,1991
2,Segriy Derevyaga,Ukraine,86.1,180,187.5,-192.5,,,,,,187.5,90,Pro Juniors 20-23,M,B,Raw,No,187.5,,1992
1,Kyamran Lumedze,Ukraine,96.1,-190,190,-202.5,,,,,,190,100,Pro Juniors 20-23,M,B,Raw,No,190,,1990
1,Valentin Kazmirenko,Ukraine,107.7,182.5,192.5,-195.5,,,,,,192.5,110,Pro Juniors 20-23,M,B,Raw,No,192.5,,1991
2,Oleksandr Tarasov,Ukraine,105.2,175,185,-192.5,,,,,,185,110,Pro Juniors 20-23,M,B,Raw,No,185,,1991
2,Volodymyr Lyashko,Ukraine,120.9,155,165,170,,,,,,170,125,Pro Open,M,B,Raw,No,170,,1990
1,Arkadiy Shalokha,Ukraine,75,180,185,190,,,,,,190,75,Pro Open,M,B,Raw,No,190,,1983
2,Viktor Papushoy,Russia,72.7,135,142.5,145,,,,,,145,75,Pro Open,M,B,Raw,No,145,,1953
1,Andriy Grynyshyn,Ukraine,81.7,155,165,170,,,,,,170,82.5,Pro Open,M,B,Raw,No,170,,1981
2,Andriy Dyatlov,Ukraine,81.7,150,157.5,162.5,,,,,,162.5,82.5,Pro Open,M,B,Raw,No,162.5,,1985
3,Oleg Mykhaylenko,Ukraine,78.6,155,-160,-162.5,,,,,,155,82.5,Pro Open,M,B,Raw,No,155,,1985
4,Oleksiy Slyuschenko,Ukraine,79.3,140,-155,-155,,,,,,140,82.5,Pro Open,M,B,Raw,No,140,,1984
1,Arkadiy Medved,Ukraine,87.4,190,-200,-202.5,,,,,,190,90,Pro Open,M,B,Raw,No,190,,1982
2,Moslem Fili,Iran,82.8,170,185,-190,,,,,,185,90,Pro Open,M,B,Raw,No,185,,1987
3,Saeid Jafarzadeh,Iran,89.2,160,-175,-175,,,,,,160,90,Pro Open,M,B,Raw,No,160,,1981
1,Oleksandr Kostenko,Ukraine,97.4,195,205,-210,,,,,,205,100,Pro Open,M,B,Raw,No,205,,1989
3,Vadym Grachov,Ukraine,99.9,175,185,-195,,,,,,185,100,Pro Open,M,B,Raw,No,185,,1988
4,Milad Ghoreishi Seyed,Iran,98.4,110,125,-130,,,,,,125,100,Pro Open,M,B,Raw,No,125,,1982
1,Yaroslav Bogdan,Ukraine,104.4,175,182.5,190,,,,,,190,110,Pro Open,M,B,Raw,No,190,,1987
DQ,Oleg Izopolskyy,Ukraine,,,,,,,,,,,110,Pro Open,M,B,Raw,No,,,1977
1,Igor Pober,Ukraine,121.7,210,220,-225,,,,,,220,125,Pro Open,M,B,Raw,No,220,,1968
2,Miroslav Reshetnikov,Ukraine,113.9,205,215,-222.5,,,,,,215,125,Pro Open,M,B,Raw,No,215,,1988
4,Marcel Darie,Moldova,112.9,195,205,-207.5,,,,,,205,125,Pro Open,M,B,Raw,No,205,,1978
5,Afshin Rajabi,Iran,120,170,-192.5,192.5,,,,,,192.5,125,Pro Open,M,B,Raw,No,192.5,,1977
1,Dmytro Solovyov,Ukraine,64,110,117.5,122.5,,,,,,122.5,67.5,Pro Submasters 33-39,M,B,Raw,No,122.5,,1979
1,Ali Ayoubi,Iran,82,-120,120,,,,,,,120,82.5,Pro Submasters 33-39,M,B,Raw,No,120,,1973
1,Oleg Kuznetsov,Russia,90,172.5,180,-187.5,,,,,,180,90,Pro Submasters 33-39,M,B,Raw,No,180,,1974
DQ,Oleg Izopolskyy,Ukraine,,,,,,,,,,,110,Pro Submasters 33-39,M,B,Raw,No,,,1977
1,Reza Zamani,Iran,118.9,170,180,185,,,,,,185,125,Pro Submasters 33-39,M,B,Raw,No,185,,1977
1,Oleksandr Zhariy,Ukraine,59.2,125,-130,-130,,,,,,125,60,Pro Masters 40-44,M,B,Raw,No,125,,1972
1,Rostyslav Bondarenko,Ukraine,83,130,,,,,,,,130,90,Pro Masters 40-44,M,B,Raw,No,130,,1972
1,Igor Pober,Ukraine,121.7,210,220,-225,,,,,,220,125,Pro Masters 40-44,M,B,Raw,No,220,,1968
DQ,Mikhaylo Pitinov,Ukraine,124.1,-150,-160,-160,,,,,,,125,Pro Masters 40-44,M,B,Raw,No,,,1971
1,Igor Chumak,Ukraine,75,120,-130,-130,,,,,,120,75,Pro Masters 45-49,M,B,Raw,No,120,,1965
1,Roman Perevyazko,Ukraine,92.6,130,140,-142.5,,,,,,140,100,Pro Masters 45-49,M,B,Raw,No,140,,1968
1,Alireza Yasavoli,Iran,109.1,150,165,175,,,,,,175,110,Pro Masters 45-49,M,B,Raw,No,175,,1967
1,Andriy Gimbarov,Ukraine,112.8,155,160,165,,,,,,165,125,Pro Masters 45-49,M,B,Raw,No,165,,1966
1,Oleksandr Kalkutin,Ukraine,133.9,180,-190,200,,,,,,200,140,Pro Masters 45-49,M,B,Raw,No,200,,1965
1,Yuriy Osadchenko,Ukraine,81,155,160,-165,,,,,,160,82.5,Pro Masters 50-54,M,B,Raw,No,160,,1961
2,Mykhaylo Sizykh,Ukraine,81,110,115,-120,,,,,,115,82.5,Pro Masters 50-54,M,B,Raw,No,115,,1962
1,Amirsalarii Yaghoub,Iran,100,110,120,-125,,,,,,120,100,Pro Masters 50-54,M,B,Raw,No,120,,1962
1,Mykhaylo Geenko,Ukraine,108.3,160,165,170,,,,,,170,110,Pro Masters 50-54,M,B,Raw,No,170,,1963
1,Karim Garshasbi,Iran,67.5,90,105,115,,,,,,115,67.5,Pro Masters 55-59,M,B,Raw,No,115,,1958
1,Esmaeil Kakaei,Iran,82,110,120,-125,,,,,,120,82.5,Pro Masters 55-59,M,B,Raw,No,120,,1955
1,Esmaeil Fotovvat,Iran,88.8,150,-162.5,-162.5,,,,,,150,90,Pro Masters 55-59,M,B,Raw,No,150,,1955
2,Sergiy Denysov,Ukraine,99.3,125,135,142.5,,,,,,142.5,100,Pro Open,M,B,Raw,No,142.5,,1956
3,Eugene Kurudimov,Ukraine,98.2,135,-145,-145,,,,,,135,100,Pro Open,M,B,Raw,No,135,,1956
1,Viktor Papushoy,Russia,72.7,135,142.5,145,,,,,,145,75,Pro Masters 60-64,M,B,Raw,No,145,,1953
1,Mahmoud Sepahdoust,Iran,70,50,65,-70,,,,,,65,75,Pro Masters 65-69,M,B,Raw,No,65,,1945
1,Viktor Glushenko,Ukraine,67.5,85,90,92.5,,,,,,92.5,67.5,Pro Masters 70-74,M,B,Raw,No,92.5,,1942
1,Vyacheslav Tsyganok,Ukraine,97.3,125,-135,,,,,,,125,100,Pro Masters 75-79,M,B,Raw,No,125,,1938
1,Andriy Dyatlov,Ukraine,81.7,150,157.5,162.5,,,,,,162.5,82.5,Pro Military/Fire/Police,M,B,Raw,No,162.5,,1985
1,Maryna Pargentanyan,Ukraine,59.5,55,60,-65,,,,,,60,60,Pro Teen 16-17,F,B,Raw,No,60,,1997
1,Yulia Murasheva,Russia,43.1,60,62.5,65,,,,,,65,44,Pro Open,F,B,Raw,No,65,,1970
1,Olga Fiskun,Moldova,47.9,50,-55,-55,,,,,,50,48,Pro Open,F,B,Raw,No,50,,1987
1,Lina Zubrytska,Moldova,63.3,100,107.5,-112.5,,,,,,107.5,67.5,Pro Open,F,B,Raw,No,107.5,,1988
1,Anna Kurkurina,Ukraine,72,130,135,-140,,,,,,135,75,Pro Open,F,B,Raw,No,135,,1966
2,Diana Darie,Moldova,72,35,40,-42.5,,,,,,40,75,Pro Open,F,B,Raw,No,40,,1981
1,Yulia Murasheva,Russia,43.1,60,62.5,65,,,,,,65,44,Pro Masters 40-44,F,B,Raw,No,65,,1970
1,Anna Kurkurina,Ukraine,72,130,135,-140,,,,,,135,75,Pro Masters 45-49,F,B,Raw,No,135,,1966
1,Vladyslav Bondarenko,Ukraine,43,70,75,,,,,,,75,44,Pro Teen 13-15,M,B,Multi-ply,No,75,,1999
1,Mykyta Kolomyza,Ukraine,89,150,160,172.5,,,,,,172.5,90,Pro Open,M,B,Multi-ply,No,172.5,,1994
1,Gennadiy Popov,Ukraine,97.5,190,-200,200,,,,,,200,100,Pro Open,M,B,Multi-ply,No,200,,1994
1,Oleksiy Gornyy,Ukraine,67,135,140,-145,,,,,,140,67.5,Pro Juniors 20-23,M,B,Multi-ply,No,140,,1992
1,Oleksiy Rubinov,Ukraine,77.3,145,160,-170,,,,,,160,82.5,Pro Juniors 20-23,M,B,Multi-ply,No,160,,1992
1,Sergiy Derevyaga,Ukraine,86.1,210,230,240,,,,,,240,90,Pro Juniors 20-23,M,B,Multi-ply,No,240,,1992
1,Sergiy Lasitsyn,Ukraine,75,170,-180,-180,,,,,,170,75,Pro Open,M,B,Multi-ply,No,170,,1989
1,Andriy Dyatlov,Ukraine,81.7,210,220,230,,,,,,230,82.5,Pro Open,M,B,Multi-ply,No,230,,1985
1,Sergiy Bulich,Ukraine,89.5,172.5,177.5,-180,,,,,,177.5,90,Pro Open,M,B,Multi-ply,No,177.5,,1988
DQ,Denys Borodenko,Ukraine,89.3,-230,-230,-240,,,,,,,90,Pro Open,M,B,Multi-ply,No,,,1981
1,Efym Stepatskyy,Ukraine,102.3,170,190,-210,,,,,,190,110,Pro Open,M,B,Multi-ply,No,190,,1987
1,Samed Ghoreishi Seyed,Iran,122.9,250,-270,-290,,,,,,250,125,Pro Open,M,B,Multi-ply,No,250,,1992
DQ,Sergiy Boryshanskyy,Ukraine,,,,,,,,,,,125,Pro Open,M,B,Multi-ply,No,,,1977
DQ,Rostyslav Bondarenko,Ukraine,,,,,,,,,,,90,Pro Masters 40-44,M,B,Multi-ply,No,,,1972
1,Roman Perevyazko,Ukraine,92.6,150,-160,160,,,,,,160,100,Pro Masters 45-49,M,B,Multi-ply,No,160,,1968
1,Vladyslav Fesun,Ukraine,109.4,-245,245,-270,,,,,,245,110,Pro Masters 45-49,M,B,Multi-ply,No,245,,1967
1,Vyacheslav Tsyganok,Ukraine,97.3,140,-152.5,,,,,,,140,100,Pro Masters 75-79,M,B,Multi-ply,No,140,,1938
1,Andriy Dyatlov,Ukraine,81.7,210,220,230,,,,,,230,82.5,Pro Military/Fire/Police,M,B,Multi-ply,No,230,,1985
1,Sergiy Chereshnev,Ukraine,87.6,190,-200,-210,,,,,,190,90,Pro Military/Fire/Police,M,B,Multi-ply,No,190,,1978
1,Dmitriy Polyakov,Transnistria,47.3,35,40,-42.5,,,,,,40,48,Amateur Children 9,M,B,Raw,No,40,,2004
1,Dmitro Zaets,Ukraine,33.9,32.5,-37.5,-37.5,,,,,,32.5,44,Amateur Children 11-12,M,B,Raw,No,32.5,,
1,Maksym Kukovytskyy,Ukraine,50.3,40,-45,50,,,,,,50,52,Amateur Children 11-12,M,B,Raw,No,50,,2001
1,Viktor Stanovskiy,Moldova,51.9,-75,75,-82.5,,,,,,75,52,Amateur Teen 13-15,M,B,Raw,No,75,,1999
1,Maksim Stazhila,Transnistria,63.9,72.5,-77.5,77.5,,,,,,77.5,67.5,Amateur Teen 13-15,M,B,Raw,No,77.5,,1998
1,Kostiantyn Artomov,Ukraine,71,92.5,97.5,-100,,,,,,97.5,75,Amateur Teen 13-15,M,B,Raw,No,97.5,,1998
1,Vyacheslav Salkutsan,Transnistria,54.6,82.5,87.5,92.5,,,,,,92.5,56,Amateur Teen 16-17,M,B,Raw,No,92.5,,1997
3,Sergiy Zabolotnyy,Ukraine,54.9,80,-87.5,-87.5,,,,,,80,56,Amateur Open,M,B,Raw,No,80,,1997
1,Aleksandr Semerenco,Transnistria,59.7,110,-115,115,,,,,,115,60,Amateur Open,M,B,Raw,No,115,,1996
2,Yaroslav Pushkar,Ukraine,60,105,-112.5,-112.5,,,,,,105,60,Amateur Open,M,B,Raw,No,105,,1997
3,Pavlo Pidtoptaniy,Ukraine,59,90,-97.5,-97.5,,,,,,90,60,Amateur Open,M,B,Raw,No,90,,1997
2,Artem Sambura,Ukraine,67,90,-95,-100,,,,,,90,67.5,Amateur Open,M,B,Raw,No,90,,1996
1,Dmytro Chadov,Ukraine,74.1,110,115,120,,,,,,120,75,Amateur Open,M,B,Raw,No,120,,1996
1,Pavlo Perevozchikov,Ukraine,60,112.5,117.5,120,,,,,,120,60,Amateur Teen 18-19,M,B,Raw,No,120,,1994
DQ,Oleksiy Slyusar,Ukraine,75,-125,-125,-125,,,,,,,75,Amateur Open,M,B,Raw,No,,,1995
1,Vitaliy Kozhokhary,Transnistria,81.1,140,-150,150,,,,,,150,82.5,Amateur Open,M,B,Raw,No,150,,1994
1,Vladyslav Skaliy,Ukraine,88.5,130,135,-140,,,,,,135,90,Amateur Open,M,B,Raw,No,135,,1995
1,Oleksandr Chernets,Ukraine,65,140,150,158,,,,,,158,67.5,Amateur Juniors 20-23,M,B,Raw,No,158,,1991
2,Denis Raiul,Transnistria,62.8,95,105,110,,,,,,110,67.5,Amateur Juniors 20-23,M,B,Raw,No,110,,1992
1,Valeriy Khorechko,Ukraine,79.4,172.5,180,183,,,,,,183,82.5,Amateur Juniors 20-23,M,B,Raw,No,183,,1992
1,Georgiy Kulakov,Ukraine,87.2,135,140,-145,,,,,,140,90,Amateur Juniors 20-23,M,B,Raw,No,140,,1989
1,Igor Bondarev,Ukraine,75,-145,145,150,,,,,,150,75,Amateur Open,M,B,Raw,No,150,,1985
2,Volodymyr Veduta,Ukraine,73.2,140,145,-147.5,,,,,,145,75,Amateur Open,M,B,Raw,No,145,,1981
3,Alexandr Majdanovskii,Transnistria,74.9,125,-135,-135,,,,,,125,75,Amateur Open,M,B,Raw,No,125,,1983
1,Igor Savin #1,Ukraine,80.8,130,135,-140,,,,,,135,82.5,Amateur Open,M,B,Raw,No,135,,1987
1,Oleg Slyusar,Ukraine,89.8,180,185,190,-200,,,,,190,90,Amateur Open,M,B,Raw,No,190,,1972
2,Akaki Jguburia,Georgia,87.8,150,-157.5,-160,,,,,,150,90,Amateur Open,M,B,Raw,No,150,,1988
3,Viktor Shulyak,Ukraine,84.4,140,-145,,,,,,,140,90,Amateur Open,M,B,Raw,No,140,,1965
1,Sergiy Kondrashenko,Ukraine,94.5,185,192.5,-195,,,,,,192.5,100,Amateur Open,M,B,Raw,No,192.5,,1981
2,Andriy Lanetskyy,Ukraine,98.4,167.5,-172.5,-172.5,,,,,,167.5,100,Amateur Open,M,B,Raw,No,167.5,,1982
3,Oleksiy Kryvets,Ukraine,97.3,160,-167.5,-167.5,,,,,,160,100,Amateur Open,M,B,Raw,No,160,,1983
1,Oleksandr Gnezdilov,Ukraine,104.3,172.5,177.5,-182.5,,,,,,177.5,110,Amateur Open,M,B,Raw,No,177.5,,1987
2,Andriy Goncharov,Ukraine,100.2,165,170,-172.5,,,,,,170,110,Amateur Open,M,B,Raw,No,170,,1981
3,Mikheil Bodaveli,Georgia,102.3,160,170,-175,,,,,,170,110,Amateur Open,M,B,Raw,No,170,,1989
1,Genadiy Larin,Ukraine,112,160,170,-180,,,,,,170,125,Amateur Open,M,B,Raw,No,170,,1973
1,Mykola Yurchuk,Ukraine,127.9,180,-190,190,,,,,,190,140,Amateur Open,M,B,Raw,No,190,,1964
2,Dmitriy Teplyakov,Russia,65.7,122.5,127.5,-132.5,,,,,,127.5,67.5,Amateur Open,M,B,Raw,No,127.5,,1974
1,Igor Amelin,Russia,74.4,132.5,137.5,-140,,,,,,137.5,75,Amateur Open,M,B,Raw,No,137.5,,1976
1,Akaki Shengelia,Georgia,93.8,150,160,-167.5,,,,,,160,100,Amateur Open,M,B,Raw,No,160,,1977
1,Genadiy Larin,Ukraine,112,160,170,-180,,,,,,170,125,Amateur Open,M,B,Raw,No,170,,1973
1,Vitaliy Stolpak,Ukraine,73.3,110,120,125,,,,,,125,75,Amateur Masters 40-44,M,B,Raw,No,125,,1970
1,Oleg Slyusar,Ukraine,89.8,180,185,190,-200,,,,,190,90,Amateur Masters 40-44,M,B,Raw,No,190,,1972
1,Eduard Sotnikov,Russia,81.5,152.5,-160,-160,,,,,,152.5,82.5,Amateur Masters 45-49,M,B,Raw,No,152.5,,1967
1,Igor Marunich,Russia,88.1,157.5,165,170,,,,,,170,90,Amateur Masters 45-49,M,B,Raw,No,170,,1967
2,Viktor Shulyak,Ukraine,84.4,140,-145,,,,,,,140,90,Amateur Masters 45-49,M,B,Raw,No,140,,1965
1,Andriy Vasylenko,Ukraine,90.7,-140,-140,145,,,,,,145,100,Amateur Masters 45-49,M,B,Raw,No,145,,1968
2,Igor Krykunov,Ukraine,94.6,140,-147.5,-147.5,,,,,,140,100,Amateur Masters 45-49,M,B,Raw,No,140,,1968
1,Vladislav Marchenko,Ukraine,118.5,150,-155,-155,,,,,,150,125,Amateur Masters 45-49,M,B,Raw,No,150,,1967
1,Mykola Yurchuk,Ukraine,127.9,180,-190,190,,,,,,190,140,Amateur Masters 45-49,M,B,Raw,No,190,,1964
1,Gasan Garumov,Ukraine,74.5,80,-90,-90,,,,,,80,75,Amateur Masters 50-54,M,B,Raw,No,80,,1963
1,Pavlo Gavrylyuk,Ukraine,96.8,130,137.5,-142.5,,,,,,137.5,100,Amateur Masters 50-54,M,B,Raw,No,137.5,,1963
1,Sergiy Kugachov,Ukraine,81.8,-90,95,97.5,,,,,,97.5,82.5,Amateur Masters 55-59,M,B,Raw,No,97.5,,1955
1,Mykola Shkatula,Ukraine,89.2,140,145,-155,,,,,,145,90,Amateur Masters 55-59,M,B,Raw,No,145,,1957
1,Oleksiy Panskyy,Ukraine,99.3,105,110,-112.5,,,,,,110,100,Amateur Masters 55-59,M,B,Raw,No,110,,1955
1,Andriy Laytan,Ukraine,125,125,135,140,,,,,,140,125,Amateur Masters 55-59,M,B,Raw,No,140,,1957
1,Sergiy Kondrashenko,Ukraine,94.5,185,192.5,-195,,,,,,192.5,100,Amateur Military/Fire/Police,M,B,Raw,No,192.5,,1981
1,Yuliya Gamurar,Ukraine,62.5,60,-70,,,,,,,60,67.5,Amateur Teen 13-15,F,B,Raw,No,60,,1998
1,Kateryna Gluschenko,Ukraine,67,55,60,72.5,-75,,,,,72.5,67.5,Amateur Teen 16-17,F,B,Raw,No,72.5,,1997
1,Olena Pshenychna,Ukraine,47.8,50,52.5,-55,,,,,,52.5,48,Amateur Open,F,B,Raw,No,52.5,,1977
1,Irina Ternova,Ukraine,54,60,-62.5,-62.5,,,,,,60,56,Amateur Open,F,B,Raw,No,60,,1974
1,Oksana Muzyka,Ukraine,67,60,65,-67.5,,,,,,65,67.5,Amateur Masters 40-44,F,B,Raw,No,65,,1969
DQ,Vyacheslav Chygryn,Ukraine,64.3,-115,-115,-115,,,,,,,67.5,Amateur Teen 16-17,M,B,Multi-ply,No,,,1997
1,Genadiy Yazev,Ukraine,88.3,200,-215,215,,,,,,215,90,Amateur Juniors 20-23,M,B,Multi-ply,No,215,,1990
1,Denis Akimov,Russia,81.7,170,-180,-180,,,,,,170,82.5,Amateur Open,M,B,Multi-ply,No,170,,1988
1,Irakli Tskhovrebashvili,Georgia,91.7,140,160,-180,,,,,,160,100,Amateur Open,M,B,Multi-ply,No,160,,1981
1,Maksym Karasev,Ukraine,66.5,,,,,177.5,190,-202.5,,190,67.5,Pro Teen 16-17,M,D,Raw,No,,190,1997
1,Volodymyr Kovalenko,Ukraine,78.2,,,,,-230,230,235,,235,82.5,Pro Open,M,D,Raw,No,,235,1985
2,Andriy Dyatlov,Ukraine,81.7,,,,,-230,230,-242.5,,230,82.5,Pro Open,M,D,Raw,No,,230,1985
3,Maksym Kolodyazhnyy,Ukraine,79.5,,,,,180,200,210,,210,82.5,Pro Open,M,D,Raw,No,,210,1987
1,Konstyantyn Sarosyka,Ukraine,88.1,,,,,250,260,-272.5,,260,90,Pro Open,M,D,Raw,No,,260,1987
2,Dzianis Zahnibarada,Belarus,89.9,,,,,242.5,252.5,257.5,,257.5,90,Pro Open,M,D,Raw,No,,257.5,1981
1,Dmytro Demakov,Ukraine,95,,,,,210,-227.5,227.5,,227.5,100,Pro Open,M,D,Raw,No,,227.5,1975
1,Levan Gorgodze,Georgia,100.3,,,,,270,-290,-290,,270,110,Pro Open,M,D,Raw,No,,270,1987
2,Kyrylo Potapov,Ukraine,104,,,,,250,262.5,270,,270,110,Pro Open,M,D,Raw,No,,270,1982
3,Denis Chebrucean,Transnistria,108.5,,,,,270,-285,-285,,270,110,Pro Open,M,D,Raw,No,,270,1988
1,Dmytro Demakov,Ukraine,95,,,,,210,-227.5,227.5,,227.5,100,Pro Submasters 33-39,M,D,Raw,No,,227.5,1975
1,Volodymyr Zhytkov,Ukraine,97.1,,,,,200,215,227.5,,227.5,100,Pro Masters 40-44,M,D,Raw,No,,227.5,1969
1,Pavlo Kipnyak,Ukraine,106.7,,,,,-170,180,200,,200,110,Pro Masters 40-44,M,D,Raw,No,,200,1969
1,Mykhaylo Sizykh,Ukraine,81,,,,,-145,145,-155,,145,82.5,Pro Masters 50-54,M,D,Raw,No,,145,1962
1,Yuriy Khanov,Ukraine,97,,,,,200,210,-220,,210,100,Pro Masters 50-54,M,D,Raw,No,,210,1962
1,Mikhail Verbitskii,Belarus,93.2,,,,,250,280,,,280,100,Pro Masters 60-64,M,D,Raw,No,,280,1951
1,Andriy Dyatlov,Ukraine,81.7,,,,,-230,230,-242.5,,230,82.5,Pro Military/Fire/Police,M,D,Raw,No,,230,1985
1,Vyacheslav Glushpenko,Ukraine,87.9,,,,,-240,240,-245,,240,90,Pro Military/Fire/Police,M,D,Raw,No,,240,1980
1,Kyrylo Potapov,Ukraine,104,,,,,250,262.5,270,,270,110,Pro Military/Fire/Police,M,D,Raw,No,,270,1982
2,Denis Chebrucean,Transnistria,108.5,,,,,270,-285,-285,,270,110,Pro Military/Fire/Police,M,D,Raw,No,,270,1988
1,Andriy Dyatlov,Ukraine,81.7,,,,,250,-270,,,250,82.5,Pro Open,M,D,Multi-ply,No,,250,1985
1,Yuriy Ustinov,Russia,95.6,,,,,260,280,,,280,100,Pro Open,M,D,Multi-ply,No,,280,1975
2,Sergiy Palienko,Ukraine,98.7,,,,,262.5,277.5,-282.5,,277.5,100,Pro Open,M,D,Multi-ply,No,,277.5,1987
1,Efym Stepatskyy,Ukraine,102.3,,,,,210,230,-250,,230,110,Pro Open,M,D,Multi-ply,No,,230,1987
1,Andriy Dyatlov,Ukraine,81.7,,,,,250,-270,,,250,82.5,Pro Military/Fire/Police,M,D,Multi-ply,No,,250,1985
1,Dmitro Zaets,Ukraine,33.9,,,,,87.5,-95,-97.5,,87.5,44,Amateur Children 11-12,M,D,Raw,No,,87.5,
1,Yaroslav Prokopenko,Ukraine,51.2,,,,,115,125,,,125,52,Amateur Teen 13-15,M,D,Raw,No,,125,1998
1,Igor Lysenko,Ukraine,81.9,,,,,140,160,-177.5,,160,82.5,Amateur Teen 13-15,M,D,Raw,No,,160,2000
1,Volodymyr Sherstyuk,Ukraine,65.1,,,,,140,150,-175,,150,67.5,Amateur Teen 16-17,M,D,Raw,No,,150,1996
1,Devid Friga,Ukraine,79,,,,,205,210,232.5,,232.5,82.5,Amateur Teen 16-17,M,D,Raw,No,,232.5,1996
1,Glib Semkin,Ukraine,66.4,,,,,190,-205,-205,,190,67.5,Amateur Teen 18-19,M,D,Raw,No,,190,1995
1,Maksym Rybalka,Ukraine,82,,,,,190,202.5,220,,220,82.5,Amateur Juniors 20-23,M,D,Raw,No,,220,1993
1,Daviti Gulua,Georgia,77.4,,,,,210,220,232.5,,232.5,82.5,Amateur Open,M,D,Raw,No,,232.5,1989
2,Aleksey Leonov,Russia,82,,,,,-165,177.5,180,,180,82.5,Amateur Open,M,D,Raw,No,,180,1985
1,Sergiy Karas,Ukraine,85.6,,,,,220,240,-245,,240,90,Amateur Open,M,D,Raw,No,,240,1986
2,Viktor Shulyak,Ukraine,84.4,,,,,200,215,222.5,,222.5,90,Amateur Open,M,D,Raw,No,,222.5,1965
3,Irakli Tskhovrebashvili,Georgia,89.7,,,,,170,200,-225,,200,90,Amateur Open,M,D,Raw,No,,200,1981
1,Dmitriy Prokhorov,Russia,99,,,,,-230,240,-255,,240,100,Amateur Open,M,D,Raw,No,,240,1985
2,Camal Akhmadzade,Azerbaijan,97,,,,,220,230,,,230,100,Amateur Open,M,D,Raw,No,,230,1984
1,Artem Prysyazhnyy,Ukraine,106.4,,,,,265,-280,-280,,265,110,Amateur Open,M,D,Raw,No,,265,1981
1,Nikolay Krasotkin,Belarus,133,,,,,270,280,290,,290,140,Amateur Open,M,D,Raw,No,,290,1981
1,Dmitriy Teplyakov,Russia,65.7,,,,,185,-195,-195,,185,67.5,Amateur Submasters 33-39,M,D,Raw,No,,185,1974
1,Siarhei Lysenok,Belarus,89.8,,,,,230,240,-250,,240,90,Amateur Masters 40-44,M,D,Raw,No,,240,1971
1,Viktor Shulyak,Ukraine,84.4,,,,,200,215,222.5,,222.5,90,Amateur Masters 45-49,M,D,Raw,No,,222.5,1965
2,Oleksiy Sheychenko,Ukraine,88.1,,,,,170,185,190,,190,90,Amateur Masters 45-49,M,D,Raw,No,,190,1965
1,Illiya Shadrin,Belarus,76,,,,,140,155,160,,160,82.5,Amateur Masters 50-54,M,D,Raw,No,,160,1962
1,Volodymyr Vasylenko,Ukraine,77.9,,,,,135,150,157.5,,157.5,82.5,Amateur Masters 70-74,M,D,Raw,No,,157.5,1943
1,Iryna Galabir,Ukraine,54,,,,,85,92.5,-95,,92.5,56,Amateur Teen 18-19,F,D,Raw,No,,92.5,1995
1,Olga Demakova,Ukraine,73,,,,,90,105,115,,115,75,Amateur Open,F,D,Raw,No,,115,1978
1,Yaroslav Skakunov,Ukraine,81.9,,,,,170,180,-210,,180,82.5,Amateur Teen 18-19,M,D,Multi-ply,No,,180,1995
1,Sergiy Kolesnyk,Ukraine,96.8,,,,,225,240,250,,250,100,Amateur Masters 50-54,M,D,Multi-ply,No,,250,1963
