Place,Name,CyrillicName,BirthYear,WeightClassKg,Sex,BodyweightKg,Best3SquatKg,Best3BenchKg,Best3DeadliftKg,TotalKg,Event,Equipment,Division
1,Liliana Akhmadishina,Лилиана Ахмадишина,1984,48,F,47,95,50,110,255,SBD,Single-ply,Open
1,Natalya Krikunova,Наталья Крикунова,1981,52,F,48.7,140,75,130,345,SBD,Single-ply,Open
1,Irina Sergeeva,Ирина Сергеева,1987,56,F,52.35,140,57.5,127.5,325,SBD,Single-ply,Open
2,Anna Balabanova,Анна Балабанова,1989,56,F,55.5,125,60,125,310,SBD,Single-ply,Open
1,Karina Alshevskaya,Карина Альшевская,1984,60,F,58.75,157.5,85,157.5,400,SBD,Single-ply,Open
2,Elena Parfenova,Елена Парфенова,1966,60,F,57.5,147.5,75,142.5,365,SBD,Single-ply,Open
1,Stella Vavilova,Стэлла Вавилова,1987,67.5,F,60.35,152.5,77.5,140,370,SBD,Single-ply,Open
1,Viktoriya Bedoidze,Виктория Бедоидзе,1987,75,F,69.05,180,90,170,440,SBD,Single-ply,Open
2,Alevtina Samigulina,Алевтина Самигулина,1990,75,F,71.7,140,70,160,370,SBD,Single-ply,Open
1,Elena Ovcharova,Елена Овчарова,1992,82.5,F,75.75,160,77.5,130,367.5,SBD,Single-ply,Open
1,Ismail Safarov,Исмаил Сафаров,1957,56,M,55.15,160,110,170,440,SBD,Single-ply,Open
1,Denis Lazarev,Денис Лазарев,1987,60,M,59.95,210,105,210,525,SBD,Single-ply,Open
1,Timofey Savin,Тимофей Савин,1985,67.5,M,66.9,240,160,225,625,SBD,Single-ply,Open
1,Aleksey Ganichev,Алексей Ганичев,1980,75,M,74.5,290,185,282.5,757.5,SBD,Single-ply,Open
2,Pavel Goncharov,Павел Гончаров,1982,75,M,73.9,277.5,167.5,240,685,SBD,Single-ply,Open
3,Yuriy Zotov,Юрий Зотов,1987,75,M,75,265,157.5,260,682.5,SBD,Single-ply,Open
4,Igor Solyannikov,Игорь Солянников,1976,75,M,74.5,260,175,240,675,SBD,Single-ply,Open
5,Aleksandr Mavrin,Александр Маврин,1987,75,M,74.3,277.5,155,232.5,665,SBD,Single-ply,Open
6,Stanislav Alekseev,Станислав Алексеев,1989,75,M,73.45,200,140,230,570,SBD,Single-ply,Open
7,Ilya Skolzkov,Илья Скользков,1989,75,M,74.05,210,125,215,550,SBD,Single-ply,Open
1,Andrey Laykhinen,Андрей Лайхинен,1983,82.5,M,82.45,290,225,295,810,SBD,Single-ply,Open
2,Sergey Melekhin,Сергей Мелехин,1972,82.5,M,82.45,300,212.5,280,792.5,SBD,Single-ply,Open
3,Aleksey Kopylov,Алексей Копылов,1986,82.5,M,81.75,295,200,292.5,787.5,SBD,Single-ply,Open
4,Evgeniy Shurygin,Евгений Шурыгин,1983,82.5,M,82.45,285,205,280.07,770,SBD,Single-ply,Open
5,Vladimir Filippov,Владимир Филиппов,1986,82.5,M,81.1,300,200,260,760,SBD,Single-ply,Open
6,Ilya Lutsenko,Илья Луценко,1981,82.5,M,82.4,297.5,175,270,742.5,SBD,Single-ply,Open
7,Ilya Shubin,Илья Шубин,1985,82.5,M,82.25,290,180,270,740,SBD,Single-ply,Open
8,Nikolay Durapov,Николай Дурапов,1980,82.5,M,82.5,275,155,295,725,SBD,Single-ply,Open
9,Sergey Kondakov,Сергей Кондаков,1984,82.5,M,81.65,280,162.5,270,712.5,SBD,Single-ply,Open
10,Vadim Chentsov,Вадим Ченцов,1986,82.5,M,81.55,260,195,245,700,SBD,Single-ply,Open
11,Vitaliy Demidov,Виталий Демидов,1987,82.5,M,81.2,285,155,250,690,SBD,Single-ply,Open
12,Maksim Stepanov #5,Максим Степанов,1987,82.5,M,79.2,250,140,250,640,SBD,Single-ply,Open
13,Pavel Kuzmich,Павел Кузьмич,1987,82.5,M,78,215,135,217.5,567.5,SBD,Single-ply,Open
1,Vladimir Grishaev,Владимир Гришаев,1981,90,M,89.45,380,265,305,950,SBD,Single-ply,Open
2,Maksim Kalabekov,Максим Калабеков,1985,90,M,89.35,310,225,270,805,SBD,Single-ply,Open
3,Pavel Kuzmich,Павел Кузьмич,1987,90,M,88.75,320,172.5,290,782.5,SBD,Single-ply,Open
4,Evgeniy Andreev,Евгений Андреев,1979,90,M,88.8,300,185,290,775,SBD,Single-ply,Open
5,Aleksandr Lyubegin,Александр Любегин,1984,90,M,88.7,300,155,300,755,SBD,Single-ply,Open
6,Evgeniy Mamonov,Евгений Мамонов,1989,90,M,85.25,285,190,275,750,SBD,Single-ply,Open
7,Gennadiy Chingin,Геннадий Чингин,1962,90,M,89.6,280,165,240,685,SBD,Single-ply,Open
8,Aleksandr Pekurov,Александр Пекуров,1981,90,M,86.25,245,170,250,665,SBD,Single-ply,Open
9,Ivan Asandi,Иван Асанди,1979,90,M,88.9,225,170,225,620,SBD,Single-ply,Open
10,Pavel Kuritsin,Павел Курицин,1982,90,M,87.3,210,165,225,600,SBD,Single-ply,Open
DQ,Rafael Davlitshin,Рафаэль Давлитшин,1970,90,M,88.8,,,,,SBD,Single-ply,Open
DQ,Dmitriy Stepanov,Дмитрий Степанов,1982,90,M,89.85,,,,,SBD,Single-ply,Open
1,Ernst Gross,Эрнст Гросс,1987,100,M,99.8,350,195,327.5,872.5,SBD,Single-ply,Open
2,Vyacheslav Kozlov,Вячеслав Козлов,1968,100,M,97.4,320,210,325,855,SBD,Single-ply,Open
3,Oleg Misyaev,Олег Мисяев,1980,100,M,91.1,320,200,300,820,SBD,Single-ply,Open
4,Yuriy Ershov,Юрий Ершов,1972,100,M,94.7,295,202.5,302.5,800,SBD,Single-ply,Open
5,Aleksey Makarov,Алексей Макаров,1973,100,M,99.1,295,207.5,282.5,785,SBD,Single-ply,Open
6,Mikhail Shchutskiy,Михаил Щуцкий,1981,100,M,95.95,300,205,275,780,SBD,Single-ply,Open
7,Sergey Nikitinskiy,Сергей Никитинский,1984,100,M,98.5,300,185,290,775,SBD,Single-ply,Open
8,Aleksandr Gorokhovskiy,Александр Гороховский,1989,100,M,93,310,167.5,282.5,760,SBD,Single-ply,Open
9,Aleksandr Romanov,Александр Романов,1983,100,M,93.35,300,190,270,760,SBD,Single-ply,Open
10,Aleksandr Belyaev,Александр Беляев,1973,100,M,93.35,300,190,260,750,SBD,Single-ply,Open
11,Denis Smelkov,Денис Смелков,1978,100,M,95.7,285,200,260,745,SBD,Single-ply,Open
12,Igor Ivanov #4,Игорь Иванов,1986,100,M,96.55,255,180,265,700,SBD,Single-ply,Open
13,Sergey Timofeev,Сергей Тимофеев,1981,100,M,97.55,265,182.5,250,697.5,SBD,Single-ply,Open
DQ,Valeriy Klistov,Валерий Клистов,1977,100,M,99.85,,,,,SBD,Single-ply,Open
1,Nikolay Serikov,Николай Сериков,1984,110,M,108.35,360,260,340,960,SBD,Single-ply,Open
2,Aleksey Kashirin,Алексей Каширин,1973,110,M,108.6,310,250,300,860,SBD,Single-ply,Open
3,Aleksey Krasavin,Алексей Красавин,1980,110,M,107.65,325,227.5,285,837.5,SBD,Single-ply,Open
4,Eduard Surov,Эдуард Суров,1976,110,M,105.05,315,235,270,820,SBD,Single-ply,Open
5,Dmitriy Amosov,Дмитрий Амосов,1988,110,M,101.65,300,195,300,795,SBD,Single-ply,Open
6,Andrey Kuzmin,Андрей Кузьмин,1968,110,M,101.8,295,195,305,795,SBD,Single-ply,Open
7,Konstantin Lesukov,Константин Лесуков,1979,110,M,105.55,312.5,227.5,225,765,SBD,Single-ply,Open
8,Roman Kochin,Роман Кочин,1980,110,M,107.5,290,215,255,760,SBD,Single-ply,Open
9,Aleksandr Potapov,Александр Потапов,1983,110,M,101.35,275,197.5,275,747.5,SBD,Single-ply,Open
10,Igor Konovalov,Ігор Коновалов,1976,110,M,103.3,280,165,270,715,SBD,Single-ply,Open
DQ,Konstantin Mikhaylov,Константин Михайлов,1974,110,M,103.65,280,190,,,SBD,Single-ply,Open
DQ,Ilya Shulyatev,Илья Шулятьев,1980,110,M,107.75,,,,,SBD,Single-ply,Open
1,Andrey Osipovskiy,Андрей Осиповский,1985,125,M,121.45,330,220,272.5,822.5,SBD,Single-ply,Open
2,Yaroslav Oleshov,Ярослав Олешов,1978,125,M,115.5,310,190,310,810,SBD,Single-ply,Open
3,Aleksey Gromov,Алексей Громов,1986,125,M,118.15,290,230,290,810,SBD,Single-ply,Open
DQ,Vladimir Zuykov,Владимир Зуйков,1976,125,M,115.25,,,,,SBD,Single-ply,Open
DQ,Vladimir Olchenko,Владимир Ольченко,1973,125,M,120.6,,,,,SBD,Single-ply,Open
1,Artem Kovalchuk,Артём Ковальчук,1982,125+,M,135.55,400,235,352.5,987.5,SBD,Single-ply,Open
2,Nikolay Ilalov,Николай Илалов,1980,125+,M,134.1,342.5,217.5,300,860,SBD,Single-ply,Open
