Place,Name,Sex,BirthDate,BirthYear,Age,Equipment,Division,BodyweightKg,WeightClassKg,Squat1Kg,Squat2Kg,Squat3Kg,Best3SquatKg,Bench1Kg,Bench2Kg,Bench3Kg,Best3BenchKg,Deadlift1Kg,Deadlift2Kg,Deadlift3Kg,Best3DeadliftKg,TotalKg,Event
1,Frank Smith #1,M,,1947,73,Raw,MR-M4a,80.2,83,80,95,-105,95,85,95,100,100,135,147.5,155,155,350,SBD
1,Alexander Schwartz,M,,1991,29,Raw,MR-O,82.5,83,215,225,230,230,140,145,150,150,230,240,247.5,247.5,627.5,SBD
2,Joshua Shaw,M,,1990,30,Raw,MR-O,82.9,83,175,182.5,187.5,187.5,145,152.5,162.5,162.5,200,212.5,217.5,217.5,567.5,SBD
3,Frank Smith #1,M,,1947,73,Raw,MR-O,80.2,83,80,95,-105,95,85,95,100,100,135,147.5,155,155,350,SBD
1,Nicholas Guidice,M,,1987,33,Raw,MR-O,101.5,105,280,292.5,297.5,297.5,225,230,-235,230,305,315,322.5,322.5,850,SBD
1,John Vanderminden,M,,1995,25,Raw,MR-O,118.4,120,220,230,240,240,180,185,-190,185,275,285,290,290,715,SBD
1,Derek Worden,M,,1986,34,Raw,MR-O,149.6,120+,220,230,,230,140,147.5,150,150,267.5,282.5,292.5,292.5,672.5,SBD
